%!PS-Adobe-3.0
%%Creator: PCBNEW
%%CreationDate: Sat May 23 14:19:59 2020
%%Title: /home/mvn/kicad/esp32/esp32-PTH-drl_map.ps
%%Pages: 1
%%PageOrder: Ascend
%%BoundingBox: 0 0 596 842
%%DocumentMedia: A4 595 842 0 () ()
%%Orientation: Landscape
%%EndComments
%%BeginProlog
/line { newpath moveto lineto stroke } bind def
/cir0 { newpath 0 360 arc stroke } bind def
/cir1 { newpath 0 360 arc gsave fill grestore stroke } bind def
/cir2 { newpath 0 360 arc gsave fill grestore stroke } bind def
/arc0 { newpath arc stroke } bind def
/arc1 { newpath 4 index 4 index moveto arc closepath gsave fill
    grestore stroke } bind def
/arc2 { newpath 4 index 4 index moveto arc closepath gsave fill
    grestore stroke } bind def
/poly0 { stroke } bind def
/poly1 { closepath gsave fill grestore stroke } bind def
/poly2 { closepath gsave fill grestore stroke } bind def
/rect0 { rectstroke } bind def
/rect1 { rectfill } bind def
/rect2 { rectfill } bind def
/linemode0 { 0 setlinecap 0 setlinejoin 0 setlinewidth } bind def
/linemode1 { 1 setlinecap 1 setlinejoin } bind def
/dashedline { [200] 100 setdash } bind def
/solidline { [] 0 setdash } bind def
/phantomshow { moveto
    /KicadFont findfont 0.000001 scalefont setfont
    show } bind def
/textshow { gsave
    findfont exch scalefont setfont concat 1 scale 0 0 moveto show
    } bind def
/reencodefont {
  findfont dup length dict begin
  { 1 index /FID ne
    { def }
    { pop pop } ifelse
  } forall
  /Encoding ISOLatin1Encoding def
  currentdict
  end } bind def
/KicadFont /Helvetica reencodefont definefont pop
/KicadFont-Bold /Helvetica-Bold reencodefont definefont pop
/KicadFont-Oblique /Helvetica-Oblique reencodefont definefont pop
/KicadFont-BoldOblique /Helvetica-BoldOblique reencodefont definefont pop
%%EndProlog
%%Page: 1 1
%%BeginPageSetup
gsave
0.0072 0.0072 scale
linemode1
82680 0 translate 90 rotate
53.4511 setlinewidth
%%EndPageSetup
0 0 0 setrgbcolor
42.0875 setlinewidth
newpath
79310.9 78721.9 moveto
79310.9 37030.1 lineto
stroke
0 0 0 setrgbcolor
newpath
37619.1 78721.9 moveto
79310.9 78721.9 lineto
stroke
0 0 0 setrgbcolor
newpath
37619.1 37030.1 moveto
37619.1 78721.9 lineto
stroke
0 0 0 setrgbcolor
newpath
79310.9 37030.1 moveto
37619.1 37030.1 lineto
stroke
78.7399 setlinewidth
newpath
40144.3 56954.3 moveto
40438.9 56659.7 lineto
stroke
newpath
40438.9 56954.3 moveto
40144.3 56659.7 lineto
stroke
newpath
42282.3 56954.3 moveto
42577 56659.7 lineto
stroke
newpath
42577 56954.3 moveto
42282.3 56659.7 lineto
stroke
newpath
48162 56954.3 moveto
48456.6 56659.7 lineto
stroke
newpath
48456.6 56954.3 moveto
48162 56659.7 lineto
stroke
newpath
50300 56954.3 moveto
50594.6 56659.7 lineto
stroke
newpath
50594.6 56954.3 moveto
50300 56659.7 lineto
stroke
newpath
43885.9 71920.6 moveto
44180.5 71626 lineto
stroke
newpath
44180.5 71920.6 moveto
43885.9 71626 lineto
stroke
newpath
46023.9 71920.6 moveto
46318.5 71626 lineto
stroke
newpath
46318.5 71920.6 moveto
46023.9 71626 lineto
stroke
45102.2 70169.8 157.828 cir0
45102.2 69635.3 157.828 cir0
45102.2 69100.7 157.828 cir0
newpath
66482.7 56440.8 moveto
66482.7 56104.1 lineto
stroke
newpath
66314.3 56272.5 moveto
66651 56272.5 lineto
stroke
newpath
66482.7 55371.8 moveto
66482.7 55035.1 lineto
stroke
newpath
66314.3 55203.4 moveto
66651 55203.4 lineto
stroke
newpath
69689.7 56440.8 moveto
69689.7 56104.1 lineto
stroke
newpath
69521.4 56272.5 moveto
69858.1 56272.5 lineto
stroke
newpath
69689.7 55371.8 moveto
69689.7 55035.1 lineto
stroke
newpath
69521.4 55203.4 moveto
69858.1 55203.4 lineto
stroke
newpath
70758.8 54302.8 moveto
70758.8 53966.1 lineto
stroke
newpath
70590.4 54134.4 moveto
70927.1 54134.4 lineto
stroke
newpath
73965.8 54302.8 moveto
73965.8 53966.1 lineto
stroke
newpath
73797.5 54134.4 moveto
74134.2 54134.4 lineto
stroke
newpath
46171.2 55906.3 moveto
46171.2 55569.6 lineto
stroke
newpath
46002.9 55738 moveto
46339.6 55738 lineto
stroke
newpath
46171.2 54837.3 moveto
46171.2 54500.6 lineto
stroke
newpath
46002.9 54668.9 moveto
46339.6 54668.9 lineto
stroke
newpath
46171.2 53768.3 moveto
46171.2 53431.6 lineto
stroke
newpath
46002.9 53599.9 moveto
46339.6 53599.9 lineto
stroke
newpath
46171.2 52699.2 moveto
46171.2 52362.5 lineto
stroke
newpath
46002.9 52530.9 moveto
46339.6 52530.9 lineto
stroke
newpath
46171.2 51630.2 moveto
46171.2 51293.5 lineto
stroke
newpath
46002.9 51461.9 moveto
46339.6 51461.9 lineto
stroke
newpath
46171.2 50561.2 moveto
46171.2 50224.5 lineto
stroke
newpath
46002.9 50392.8 moveto
46339.6 50392.8 lineto
stroke
newpath
46171.2 49492.2 moveto
46171.2 49155.5 lineto
stroke
newpath
46002.9 49323.8 moveto
46339.6 49323.8 lineto
stroke
newpath
46171.2 48423.1 moveto
46171.2 48086.4 lineto
stroke
newpath
46002.9 48254.8 moveto
46339.6 48254.8 lineto
stroke
newpath
46171.2 47354.1 moveto
46171.2 47017.4 lineto
stroke
newpath
46002.9 47185.8 moveto
46339.6 47185.8 lineto
stroke
newpath
46171.2 46285.1 moveto
46171.2 45948.4 lineto
stroke
newpath
46002.9 46116.7 moveto
46339.6 46116.7 lineto
stroke
newpath
56861.5 55906.3 moveto
56861.5 55569.6 lineto
stroke
newpath
56693.1 55738 moveto
57029.8 55738 lineto
stroke
newpath
56861.5 54837.3 moveto
56861.5 54500.6 lineto
stroke
newpath
56693.1 54668.9 moveto
57029.8 54668.9 lineto
stroke
newpath
56861.5 53768.3 moveto
56861.5 53431.6 lineto
stroke
newpath
56693.1 53599.9 moveto
57029.8 53599.9 lineto
stroke
newpath
56861.5 52699.2 moveto
56861.5 52362.5 lineto
stroke
newpath
56693.1 52530.9 moveto
57029.8 52530.9 lineto
stroke
newpath
56861.5 51630.2 moveto
56861.5 51293.5 lineto
stroke
newpath
56693.1 51461.9 moveto
57029.8 51461.9 lineto
stroke
newpath
56861.5 50561.2 moveto
56861.5 50224.5 lineto
stroke
newpath
56693.1 50392.8 moveto
57029.8 50392.8 lineto
stroke
newpath
56861.5 49492.2 moveto
56861.5 49155.5 lineto
stroke
newpath
56693.1 49323.8 moveto
57029.8 49323.8 lineto
stroke
newpath
56861.5 48423.1 moveto
56861.5 48086.4 lineto
stroke
newpath
56693.1 48254.8 moveto
57029.8 48254.8 lineto
stroke
newpath
56861.5 47354.1 moveto
56861.5 47017.4 lineto
stroke
newpath
56693.1 47185.8 moveto
57029.8 47185.8 lineto
stroke
newpath
56861.5 46285.1 moveto
56861.5 45948.4 lineto
stroke
newpath
56693.1 46116.7 moveto
57029.8 46116.7 lineto
stroke
newpath
70758.8 56975.3 moveto
70758.8 56638.6 lineto
stroke
newpath
70590.4 56807 moveto
70927.1 56807 lineto
stroke
newpath
73965.8 56975.3 moveto
73965.8 56638.6 lineto
stroke
newpath
73797.5 56807 moveto
74134.2 56807 lineto
stroke
newpath
72362.3 50026.7 moveto
72362.3 49690 lineto
stroke
newpath
72193.9 49858.3 moveto
72530.6 49858.3 lineto
stroke
newpath
72362.3 48957.7 moveto
72362.3 48621 lineto
stroke
newpath
72193.9 48789.3 moveto
72530.6 48789.3 lineto
stroke
newpath
72362.3 47888.6 moveto
72362.3 47551.9 lineto
stroke
newpath
72193.9 47720.3 moveto
72530.6 47720.3 lineto
stroke
newpath
72362.3 46819.6 moveto
72362.3 46482.9 lineto
stroke
newpath
72193.9 46651.3 moveto
72530.6 46651.3 lineto
stroke
newpath
72362.3 45750.6 moveto
72362.3 45413.9 lineto
stroke
newpath
72193.9 45582.2 moveto
72530.6 45582.2 lineto
stroke
newpath
72362.3 44681.6 moveto
72362.3 44344.9 lineto
stroke
newpath
72193.9 44513.2 moveto
72530.6 44513.2 lineto
stroke
newpath
77707.4 50026.7 moveto
77707.4 49690 lineto
stroke
newpath
77539.1 49858.3 moveto
77875.8 49858.3 lineto
stroke
newpath
77707.4 48957.7 moveto
77707.4 48621 lineto
stroke
newpath
77539.1 48789.3 moveto
77875.8 48789.3 lineto
stroke
newpath
77707.4 47888.6 moveto
77707.4 47551.9 lineto
stroke
newpath
77539.1 47720.3 moveto
77875.8 47720.3 lineto
stroke
newpath
77707.4 46819.6 moveto
77707.4 46482.9 lineto
stroke
newpath
77539.1 46651.3 moveto
77875.8 46651.3 lineto
stroke
newpath
77707.4 45750.6 moveto
77707.4 45413.9 lineto
stroke
newpath
77539.1 45582.2 moveto
77875.8 45582.2 lineto
stroke
newpath
77707.4 44681.6 moveto
77707.4 44344.9 lineto
stroke
newpath
77539.1 44513.2 moveto
77875.8 44513.2 lineto
stroke
newpath
70758.8 60182.4 moveto
70758.8 59845.7 lineto
stroke
newpath
70590.4 60014 moveto
70927.1 60014 lineto
stroke
newpath
73965.8 60182.4 moveto
73965.8 59845.7 lineto
stroke
newpath
73797.5 60014 moveto
74134.2 60014 lineto
stroke
newpath
66482.7 61785.9 moveto
66482.7 61449.2 lineto
stroke
newpath
66314.3 61617.6 moveto
66651 61617.6 lineto
stroke
newpath
66482.7 60716.9 moveto
66482.7 60380.2 lineto
stroke
newpath
66314.3 60548.6 moveto
66651 60548.6 lineto
stroke
newpath
69689.7 61785.9 moveto
69689.7 61449.2 lineto
stroke
newpath
69521.4 61617.6 moveto
69858.1 61617.6 lineto
stroke
newpath
69689.7 60716.9 moveto
69689.7 60380.2 lineto
stroke
newpath
69521.4 60548.6 moveto
69858.1 60548.6 lineto
stroke
newpath
70758.8 62855 moveto
70758.8 62518.3 lineto
stroke
newpath
70590.4 62686.6 moveto
70927.1 62686.6 lineto
stroke
newpath
73965.8 62855 moveto
73965.8 62518.3 lineto
stroke
newpath
73797.5 62686.6 moveto
74134.2 62686.6 lineto
stroke
newpath
41494.6 70359.9 moveto
41494.6 70627.8 lineto
41226.7 70627.8 lineto
41226.7 70359.9 lineto
41494.6 70359.9 lineto
poly0
newpath
41494.6 69501.3 moveto
41494.6 69769.2 lineto
41226.7 69769.2 lineto
41226.7 69501.3 lineto
41494.6 69501.3 lineto
poly0
newpath
42563.6 70789.2 moveto
42563.6 71057.1 lineto
42295.7 71057.1 lineto
42295.7 70789.2 lineto
42563.6 70789.2 lineto
poly0
newpath
42563.6 69930.6 moveto
42563.6 70198.5 lineto
42295.7 70198.5 lineto
42295.7 69930.6 lineto
42563.6 69930.6 lineto
poly0
newpath
64879.1 49647.9 moveto
65089.6 49858.3 lineto
64879.1 50068.8 lineto
64668.7 49858.3 lineto
64879.1 49647.9 lineto
poly0
newpath
64879.1 48578.9 moveto
65089.6 48789.3 lineto
64879.1 48999.7 lineto
64668.7 48789.3 lineto
64879.1 48578.9 lineto
poly0
newpath
64879.1 47509.8 moveto
65089.6 47720.3 lineto
64879.1 47930.7 lineto
64668.7 47720.3 lineto
64879.1 47509.8 lineto
poly0
newpath
64879.1 46440.8 moveto
65089.6 46651.3 lineto
64879.1 46861.7 lineto
64668.7 46651.3 lineto
64879.1 46440.8 lineto
poly0
newpath
64879.1 45371.8 moveto
65089.6 45582.2 lineto
64879.1 45792.7 lineto
64668.7 45582.2 lineto
64879.1 45371.8 lineto
poly0
newpath
64879.1 44302.8 moveto
65089.6 44513.2 lineto
64879.1 44723.7 lineto
64668.7 44513.2 lineto
64879.1 44302.8 lineto
poly0
newpath
64879.1 43233.8 moveto
65089.6 43444.2 lineto
64879.1 43654.6 lineto
64668.7 43444.2 lineto
64879.1 43233.8 lineto
poly0
newpath
64879.1 42164.7 moveto
65089.6 42375.2 lineto
64879.1 42585.6 lineto
64668.7 42375.2 lineto
64879.1 42164.7 lineto
poly0
newpath
70758.8 73166.4 moveto
70969.2 73376.8 lineto
70758.8 73587.3 lineto
70548.3 73376.8 lineto
70758.8 73166.4 lineto
poly0
newpath
70758.8 72097.4 moveto
70969.2 72307.8 lineto
70758.8 72518.2 lineto
70548.3 72307.8 lineto
70758.8 72097.4 lineto
poly0
newpath
70758.8 71028.3 moveto
70969.2 71238.8 lineto
70758.8 71449.2 lineto
70548.3 71238.8 lineto
70758.8 71028.3 lineto
poly0
newpath
70758.8 69959.3 moveto
70969.2 70169.8 lineto
70758.8 70380.2 lineto
70548.3 70169.8 lineto
70758.8 69959.3 lineto
poly0
newpath
40291.6 58734.6 moveto
40502 58945 lineto
40291.6 59155.5 lineto
40081.2 58945 lineto
40291.6 58734.6 lineto
poly0
newpath
41360.6 58734.6 moveto
41571.1 58945 lineto
41360.6 59155.5 lineto
41150.2 58945 lineto
41360.6 58734.6 lineto
poly0
newpath
42429.7 58734.6 moveto
42640.1 58945 lineto
42429.7 59155.5 lineto
42219.2 58945 lineto
42429.7 58734.6 lineto
poly0
newpath
40291.6 53389.5 moveto
40502 53599.9 lineto
40291.6 53810.3 lineto
40081.2 53599.9 lineto
40291.6 53389.5 lineto
poly0
newpath
41360.6 53389.5 moveto
41571.1 53599.9 lineto
41360.6 53810.3 lineto
41150.2 53599.9 lineto
41360.6 53389.5 lineto
poly0
newpath
42429.7 53389.5 moveto
42640.1 53599.9 lineto
42429.7 53810.3 lineto
42219.2 53599.9 lineto
42429.7 53389.5 lineto
poly0
newpath
39757.1 48578.9 moveto
39967.5 48789.3 lineto
39757.1 48999.7 lineto
39546.7 48789.3 lineto
39757.1 48578.9 lineto
poly0
newpath
40826.1 48578.9 moveto
41036.6 48789.3 lineto
40826.1 48999.7 lineto
40615.7 48789.3 lineto
40826.1 48578.9 lineto
poly0
newpath
41895.1 48578.9 moveto
42105.6 48789.3 lineto
41895.1 48999.7 lineto
41684.7 48789.3 lineto
41895.1 48578.9 lineto
poly0
newpath
42964.2 48578.9 moveto
43174.6 48789.3 lineto
42964.2 48999.7 lineto
42753.7 48789.3 lineto
42964.2 48578.9 lineto
poly0
newpath
58999.5 43768.3 moveto
59209.9 43978.7 lineto
58999.5 44189.1 lineto
58789.1 43978.7 lineto
58999.5 43768.3 lineto
poly0
newpath
60068.5 43768.3 moveto
60279 43978.7 lineto
60068.5 44189.1 lineto
59858.1 43978.7 lineto
60068.5 43768.3 lineto
poly0
newpath
61137.6 43768.3 moveto
61348 43978.7 lineto
61137.6 44189.1 lineto
60927.1 43978.7 lineto
61137.6 43768.3 lineto
poly0
newpath
62206.6 43768.3 moveto
62417 43978.7 lineto
62206.6 44189.1 lineto
61996.1 43978.7 lineto
62206.6 43768.3 lineto
poly0
newpath
64879.1 73166.4 moveto
65089.6 73376.8 lineto
64879.1 73587.3 lineto
64668.7 73376.8 lineto
64879.1 73166.4 lineto
poly0
newpath
64879.1 72097.4 moveto
65089.6 72307.8 lineto
64879.1 72518.2 lineto
64668.7 72307.8 lineto
64879.1 72097.4 lineto
poly0
newpath
64879.1 71028.3 moveto
65089.6 71238.8 lineto
64879.1 71449.2 lineto
64668.7 71238.8 lineto
64879.1 71028.3 lineto
poly0
newpath
76899.3 56546 moveto
77446.5 55998.9 lineto
stroke
newpath
77446.5 56546 moveto
76899.3 55998.9 lineto
stroke
77172.9 56272.5 273.569 cir0
newpath
76899.3 55073 moveto
77446.5 54525.8 lineto
stroke
newpath
77446.5 55073 moveto
76899.3 54525.8 lineto
stroke
77172.9 54799.4 273.569 cir0
newpath
76364.8 62425.7 moveto
76912 61878.5 lineto
stroke
newpath
76912 62425.7 moveto
76364.8 61878.5 lineto
stroke
76638.4 62152.1 273.569 cir0
newpath
76364.8 60952.6 moveto
76912 60405.5 lineto
stroke
newpath
76912 60952.6 moveto
76364.8 60405.5 lineto
stroke
76638.4 60679 273.569 cir0
newpath
39083.7 77257.3 moveto
40430.5 75910.5 lineto
stroke
newpath
40430.5 77257.3 moveto
39083.7 75910.5 lineto
stroke
newpath
39757.1 77257.3 moveto
39757.1 75910.5 lineto
stroke
newpath
39083.7 76583.9 moveto
40430.5 76583.9 lineto
stroke
newpath
39083.7 39841.5 moveto
40430.5 38494.7 lineto
stroke
newpath
40430.5 39841.5 moveto
39083.7 38494.7 lineto
stroke
newpath
39757.1 39841.5 moveto
39757.1 38494.7 lineto
stroke
newpath
39083.7 39168.1 moveto
40430.5 39168.1 lineto
stroke
newpath
76499.5 77257.3 moveto
77846.3 75910.5 lineto
stroke
newpath
77846.3 77257.3 moveto
76499.5 75910.5 lineto
stroke
newpath
77172.9 77257.3 moveto
77172.9 75910.5 lineto
stroke
newpath
76499.5 76583.9 moveto
77846.3 76583.9 lineto
stroke
newpath
76499.5 39841.5 moveto
77846.3 38494.7 lineto
stroke
newpath
77846.3 39841.5 moveto
76499.5 38494.7 lineto
stroke
newpath
77172.9 39841.5 moveto
77172.9 38494.7 lineto
stroke
newpath
76499.5 39168.1 moveto
77846.3 39168.1 lineto
stroke
118.11 setlinewidth
0 0 0 setrgbcolor
0 0 0 setrgbcolor
newpath
38725.7 35175.5 moveto
38725.7 36356.6 lineto
39006.9 36356.6 lineto
39175.6 36300.3 lineto
39288.1 36187.9 lineto
39344.4 36075.4 lineto
39400.6 35850.4 lineto
39400.6 35681.7 lineto
39344.4 35456.7 lineto
39288.1 35344.2 lineto
39175.6 35231.7 lineto
39006.9 35175.5 lineto
38725.7 35175.5 lineto
stroke
newpath
39906.8 35175.5 moveto
39906.8 35962.9 lineto
stroke
newpath
39906.8 35737.9 moveto
39963 35850.4 lineto
40019.3 35906.6 lineto
40131.8 35962.9 lineto
40244.2 35962.9 lineto
stroke
newpath
40637.9 35175.5 moveto
40637.9 35962.9 lineto
stroke
newpath
40637.9 36356.6 moveto
40581.7 36300.3 lineto
40637.9 36244.1 lineto
40694.2 36300.3 lineto
40637.9 36356.6 lineto
40637.9 36244.1 lineto
stroke
newpath
41369.1 35175.5 moveto
41256.6 35231.7 lineto
41200.4 35344.2 lineto
41200.4 36356.6 lineto
stroke
newpath
41987.8 35175.5 moveto
41875.3 35231.7 lineto
41819 35344.2 lineto
41819 36356.6 lineto
stroke
newpath
43337.6 35175.5 moveto
43337.6 36356.6 lineto
43731.3 35512.9 lineto
44125 36356.6 lineto
44125 35175.5 lineto
stroke
newpath
45193.6 35175.5 moveto
45193.6 35794.2 lineto
45137.4 35906.6 lineto
45024.9 35962.9 lineto
44799.9 35962.9 lineto
44687.4 35906.6 lineto
stroke
newpath
45193.6 35231.7 moveto
45081.1 35175.5 lineto
44799.9 35175.5 lineto
44687.4 35231.7 lineto
44631.2 35344.2 lineto
44631.2 35456.7 lineto
44687.4 35569.2 lineto
44799.9 35625.4 lineto
45081.1 35625.4 lineto
45193.6 35681.7 lineto
stroke
newpath
45756.1 35962.9 moveto
45756.1 34781.8 lineto
stroke
newpath
45756.1 35906.6 moveto
45868.5 35962.9 lineto
46093.5 35962.9 lineto
46206 35906.6 lineto
46262.2 35850.4 lineto
46318.5 35737.9 lineto
46318.5 35400.5 lineto
46262.2 35288 lineto
46206 35231.7 lineto
46093.5 35175.5 lineto
45868.5 35175.5 lineto
45756.1 35231.7 lineto
stroke
newpath
46824.7 35288 moveto
46880.9 35231.7 lineto
46824.7 35175.5 lineto
46768.4 35231.7 lineto
46824.7 35288 lineto
46824.7 35175.5 lineto
stroke
newpath
46824.7 35906.6 moveto
46880.9 35850.4 lineto
46824.7 35794.2 lineto
46768.4 35850.4 lineto
46824.7 35906.6 lineto
46824.7 35794.2 lineto
stroke
newpath
37303.4 33376.8 moveto
37598 33082.2 lineto
stroke
newpath
37598 33376.8 moveto
37303.4 33082.2 lineto
stroke
0 0 0 setrgbcolor
0 0 0 setrgbcolor
newpath
38950.7 33876.3 moveto
39063.1 33876.3 lineto
39175.6 33820 lineto
39231.9 33763.8 lineto
39288.1 33651.3 lineto
39344.4 33426.3 lineto
39344.4 33145.1 lineto
39288.1 32920.1 lineto
39231.9 32807.7 lineto
39175.6 32751.4 lineto
39063.1 32695.2 lineto
38950.7 32695.2 lineto
38838.2 32751.4 lineto
38781.9 32807.7 lineto
38725.7 32920.1 lineto
38669.4 33145.1 lineto
38669.4 33426.3 lineto
38725.7 33651.3 lineto
38781.9 33763.8 lineto
38838.2 33820 lineto
38950.7 33876.3 lineto
stroke
newpath
39850.5 32807.7 moveto
39906.8 32751.4 lineto
39850.5 32695.2 lineto
39794.3 32751.4 lineto
39850.5 32807.7 lineto
39850.5 32695.2 lineto
stroke
newpath
40300.5 33876.3 moveto
41087.9 33876.3 lineto
40581.7 32695.2 lineto
stroke
newpath
41762.8 33876.3 moveto
41875.3 33876.3 lineto
41987.8 33820 lineto
42044 33763.8 lineto
42100.3 33651.3 lineto
42156.5 33426.3 lineto
42156.5 33145.1 lineto
42100.3 32920.1 lineto
42044 32807.7 lineto
41987.8 32751.4 lineto
41875.3 32695.2 lineto
41762.8 32695.2 lineto
41650.3 32751.4 lineto
41594.1 32807.7 lineto
41537.8 32920.1 lineto
41481.6 33145.1 lineto
41481.6 33426.3 lineto
41537.8 33651.3 lineto
41594.1 33763.8 lineto
41650.3 33820 lineto
41762.8 33876.3 lineto
stroke
newpath
42662.7 32695.2 moveto
42662.7 33482.6 lineto
stroke
newpath
42662.7 33370.1 moveto
42718.9 33426.3 lineto
42831.4 33482.6 lineto
43000.1 33482.6 lineto
43112.6 33426.3 lineto
43168.9 33313.8 lineto
43168.9 32695.2 lineto
stroke
newpath
43168.9 33313.8 moveto
43225.1 33426.3 lineto
43337.6 33482.6 lineto
43506.3 33482.6 lineto
43618.8 33426.3 lineto
43675.1 33313.8 lineto
43675.1 32695.2 lineto
stroke
newpath
44237.5 32695.2 moveto
44237.5 33482.6 lineto
stroke
newpath
44237.5 33370.1 moveto
44293.7 33426.3 lineto
44406.2 33482.6 lineto
44574.9 33482.6 lineto
44687.4 33426.3 lineto
44743.7 33313.8 lineto
44743.7 32695.2 lineto
stroke
newpath
44743.7 33313.8 moveto
44799.9 33426.3 lineto
44912.4 33482.6 lineto
45081.1 33482.6 lineto
45193.6 33426.3 lineto
45249.9 33313.8 lineto
45249.9 32695.2 lineto
stroke
newpath
47555.8 33932.5 moveto
46543.5 32414 lineto
stroke
newpath
49074.4 33876.3 moveto
49186.9 33876.3 lineto
49299.4 33820 lineto
49355.6 33763.8 lineto
49411.8 33651.3 lineto
49468.1 33426.3 lineto
49468.1 33145.1 lineto
49411.8 32920.1 lineto
49355.6 32807.7 lineto
49299.4 32751.4 lineto
49186.9 32695.2 lineto
49074.4 32695.2 lineto
48961.9 32751.4 lineto
48905.7 32807.7 lineto
48849.4 32920.1 lineto
48793.2 33145.1 lineto
48793.2 33426.3 lineto
48849.4 33651.3 lineto
48905.7 33763.8 lineto
48961.9 33820 lineto
49074.4 33876.3 lineto
stroke
newpath
49974.3 32807.7 moveto
50030.5 32751.4 lineto
49974.3 32695.2 lineto
49918 32751.4 lineto
49974.3 32807.7 lineto
49974.3 32695.2 lineto
stroke
newpath
50761.7 33876.3 moveto
50874.2 33876.3 lineto
50986.6 33820 lineto
51042.9 33763.8 lineto
51099.1 33651.3 lineto
51155.4 33426.3 lineto
51155.4 33145.1 lineto
51099.1 32920.1 lineto
51042.9 32807.7 lineto
50986.6 32751.4 lineto
50874.2 32695.2 lineto
50761.7 32695.2 lineto
50649.2 32751.4 lineto
50592.9 32807.7 lineto
50536.7 32920.1 lineto
50480.5 33145.1 lineto
50480.5 33426.3 lineto
50536.7 33651.3 lineto
50592.9 33763.8 lineto
50649.2 33820 lineto
50761.7 33876.3 lineto
stroke
newpath
51605.3 33763.8 moveto
51661.6 33820 lineto
51774 33876.3 lineto
52055.3 33876.3 lineto
52167.7 33820 lineto
52224 33763.8 lineto
52280.2 33651.3 lineto
52280.2 33538.8 lineto
52224 33370.1 lineto
51549.1 32695.2 lineto
52280.2 32695.2 lineto
stroke
newpath
52955.2 33370.1 moveto
52842.7 33426.3 lineto
52786.4 33482.6 lineto
52730.2 33595.1 lineto
52730.2 33651.3 lineto
52786.4 33763.8 lineto
52842.7 33820 lineto
52955.2 33876.3 lineto
53180.1 33876.3 lineto
53292.6 33820 lineto
53348.9 33763.8 lineto
53405.1 33651.3 lineto
53405.1 33595.1 lineto
53348.9 33482.6 lineto
53292.6 33426.3 lineto
53180.1 33370.1 lineto
52955.2 33370.1 lineto
52842.7 33313.8 lineto
52786.4 33257.6 lineto
52730.2 33145.1 lineto
52730.2 32920.1 lineto
52786.4 32807.7 lineto
52842.7 32751.4 lineto
52955.2 32695.2 lineto
53180.1 32695.2 lineto
53292.6 32751.4 lineto
53348.9 32807.7 lineto
53405.1 32920.1 lineto
53405.1 33145.1 lineto
53348.9 33257.6 lineto
53292.6 33313.8 lineto
53180.1 33370.1 lineto
stroke
newpath
53855 33876.3 moveto
53855 33651.3 lineto
stroke
newpath
54305 33876.3 moveto
54305 33651.3 lineto
stroke
newpath
56048.5 32245.2 moveto
55992.3 32301.5 lineto
55879.8 32470.2 lineto
55823.5 32582.7 lineto
55767.3 32751.4 lineto
55711.1 33032.6 lineto
55711.1 33257.6 lineto
55767.3 33538.8 lineto
55823.5 33707.5 lineto
55879.8 33820 lineto
55992.3 33988.8 lineto
56048.5 34045 lineto
stroke
newpath
57004.6 33876.3 moveto
56779.7 33876.3 lineto
56667.2 33820 lineto
56610.9 33763.8 lineto
56498.5 33595.1 lineto
56442.2 33370.1 lineto
56442.2 32920.1 lineto
56498.5 32807.7 lineto
56554.7 32751.4 lineto
56667.2 32695.2 lineto
56892.2 32695.2 lineto
57004.6 32751.4 lineto
57060.9 32807.7 lineto
57117.1 32920.1 lineto
57117.1 33201.4 lineto
57060.9 33313.8 lineto
57004.6 33370.1 lineto
56892.2 33426.3 lineto
56667.2 33426.3 lineto
56554.7 33370.1 lineto
56498.5 33313.8 lineto
56442.2 33201.4 lineto
stroke
newpath
58523.2 32695.2 moveto
58523.2 33876.3 lineto
stroke
newpath
59029.4 32695.2 moveto
59029.4 33313.8 lineto
58973.2 33426.3 lineto
58860.7 33482.6 lineto
58691.9 33482.6 lineto
58579.4 33426.3 lineto
58523.2 33370.1 lineto
stroke
newpath
59760.6 32695.2 moveto
59648.1 32751.4 lineto
59591.8 32807.7 lineto
59535.6 32920.1 lineto
59535.6 33257.6 lineto
59591.8 33370.1 lineto
59648.1 33426.3 lineto
59760.6 33482.6 lineto
59929.3 33482.6 lineto
60041.8 33426.3 lineto
60098 33370.1 lineto
60154.3 33257.6 lineto
60154.3 32920.1 lineto
60098 32807.7 lineto
60041.8 32751.4 lineto
59929.3 32695.2 lineto
59760.6 32695.2 lineto
stroke
newpath
60829.2 32695.2 moveto
60716.7 32751.4 lineto
60660.4 32863.9 lineto
60660.4 33876.3 lineto
stroke
newpath
61729.1 32751.4 moveto
61616.6 32695.2 lineto
61391.6 32695.2 lineto
61279.1 32751.4 lineto
61222.9 32863.9 lineto
61222.9 33313.8 lineto
61279.1 33426.3 lineto
61391.6 33482.6 lineto
61616.6 33482.6 lineto
61729.1 33426.3 lineto
61785.3 33313.8 lineto
61785.3 33201.4 lineto
61222.9 33088.9 lineto
stroke
newpath
62235.2 32751.4 moveto
62347.7 32695.2 lineto
62572.7 32695.2 lineto
62685.2 32751.4 lineto
62741.4 32863.9 lineto
62741.4 32920.1 lineto
62685.2 33032.6 lineto
62572.7 33088.9 lineto
62404 33088.9 lineto
62291.5 33145.1 lineto
62235.2 33257.6 lineto
62235.2 33313.8 lineto
62291.5 33426.3 lineto
62404 33482.6 lineto
62572.7 33482.6 lineto
62685.2 33426.3 lineto
stroke
newpath
63135.1 32245.2 moveto
63191.4 32301.5 lineto
63303.9 32470.2 lineto
63360.1 32582.7 lineto
63416.3 32751.4 lineto
63472.6 33032.6 lineto
63472.6 33257.6 lineto
63416.3 33538.8 lineto
63360.1 33707.5 lineto
63303.9 33820 lineto
63191.4 33988.8 lineto
63135.1 34045 lineto
stroke
37440.2 31670.4 157.828 cir0
0 0 0 setrgbcolor
0 0 0 setrgbcolor
newpath
38950.7 32317.2 moveto
39063.1 32317.2 lineto
39175.6 32261 lineto
39231.9 32204.7 lineto
39288.1 32092.2 lineto
39344.4 31867.3 lineto
39344.4 31586.1 lineto
39288.1 31361.1 lineto
39231.9 31248.6 lineto
39175.6 31192.4 lineto
39063.1 31136.1 lineto
38950.7 31136.1 lineto
38838.2 31192.4 lineto
38781.9 31248.6 lineto
38725.7 31361.1 lineto
38669.4 31586.1 lineto
38669.4 31867.3 lineto
38725.7 32092.2 lineto
38781.9 32204.7 lineto
38838.2 32261 lineto
38950.7 32317.2 lineto
stroke
newpath
39850.5 31248.6 moveto
39906.8 31192.4 lineto
39850.5 31136.1 lineto
39794.3 31192.4 lineto
39850.5 31248.6 lineto
39850.5 31136.1 lineto
stroke
newpath
40300.5 32317.2 moveto
41087.9 32317.2 lineto
40581.7 31136.1 lineto
stroke
newpath
42100.3 32317.2 moveto
41537.8 32317.2 lineto
41481.6 31754.8 lineto
41537.8 31811 lineto
41650.3 31867.3 lineto
41931.5 31867.3 lineto
42044 31811 lineto
42100.3 31754.8 lineto
42156.5 31642.3 lineto
42156.5 31361.1 lineto
42100.3 31248.6 lineto
42044 31192.4 lineto
41931.5 31136.1 lineto
41650.3 31136.1 lineto
41537.8 31192.4 lineto
41481.6 31248.6 lineto
stroke
newpath
42662.7 31136.1 moveto
42662.7 31923.5 lineto
stroke
newpath
42662.7 31811 moveto
42718.9 31867.3 lineto
42831.4 31923.5 lineto
43000.1 31923.5 lineto
43112.6 31867.3 lineto
43168.9 31754.8 lineto
43168.9 31136.1 lineto
stroke
newpath
43168.9 31754.8 moveto
43225.1 31867.3 lineto
43337.6 31923.5 lineto
43506.3 31923.5 lineto
43618.8 31867.3 lineto
43675.1 31754.8 lineto
43675.1 31136.1 lineto
stroke
newpath
44237.5 31136.1 moveto
44237.5 31923.5 lineto
stroke
newpath
44237.5 31811 moveto
44293.7 31867.3 lineto
44406.2 31923.5 lineto
44574.9 31923.5 lineto
44687.4 31867.3 lineto
44743.7 31754.8 lineto
44743.7 31136.1 lineto
stroke
newpath
44743.7 31754.8 moveto
44799.9 31867.3 lineto
44912.4 31923.5 lineto
45081.1 31923.5 lineto
45193.6 31867.3 lineto
45249.9 31754.8 lineto
45249.9 31136.1 lineto
stroke
newpath
47555.8 32373.5 moveto
46543.5 30854.9 lineto
stroke
newpath
49074.4 32317.2 moveto
49186.9 32317.2 lineto
49299.4 32261 lineto
49355.6 32204.7 lineto
49411.8 32092.2 lineto
49468.1 31867.3 lineto
49468.1 31586.1 lineto
49411.8 31361.1 lineto
49355.6 31248.6 lineto
49299.4 31192.4 lineto
49186.9 31136.1 lineto
49074.4 31136.1 lineto
48961.9 31192.4 lineto
48905.7 31248.6 lineto
48849.4 31361.1 lineto
48793.2 31586.1 lineto
48793.2 31867.3 lineto
48849.4 32092.2 lineto
48905.7 32204.7 lineto
48961.9 32261 lineto
49074.4 32317.2 lineto
stroke
newpath
49974.3 31248.6 moveto
50030.5 31192.4 lineto
49974.3 31136.1 lineto
49918 31192.4 lineto
49974.3 31248.6 lineto
49974.3 31136.1 lineto
stroke
newpath
50761.7 32317.2 moveto
50874.2 32317.2 lineto
50986.6 32261 lineto
51042.9 32204.7 lineto
51099.1 32092.2 lineto
51155.4 31867.3 lineto
51155.4 31586.1 lineto
51099.1 31361.1 lineto
51042.9 31248.6 lineto
50986.6 31192.4 lineto
50874.2 31136.1 lineto
50761.7 31136.1 lineto
50649.2 31192.4 lineto
50592.9 31248.6 lineto
50536.7 31361.1 lineto
50480.5 31586.1 lineto
50480.5 31867.3 lineto
50536.7 32092.2 lineto
50592.9 32204.7 lineto
50649.2 32261 lineto
50761.7 32317.2 lineto
stroke
newpath
51549.1 32317.2 moveto
52280.2 32317.2 lineto
51886.5 31867.3 lineto
52055.3 31867.3 lineto
52167.7 31811 lineto
52224 31754.8 lineto
52280.2 31642.3 lineto
52280.2 31361.1 lineto
52224 31248.6 lineto
52167.7 31192.4 lineto
52055.3 31136.1 lineto
51717.8 31136.1 lineto
51605.3 31192.4 lineto
51549.1 31248.6 lineto
stroke
newpath
53011.4 32317.2 moveto
53123.9 32317.2 lineto
53236.4 32261 lineto
53292.6 32204.7 lineto
53348.9 32092.2 lineto
53405.1 31867.3 lineto
53405.1 31586.1 lineto
53348.9 31361.1 lineto
53292.6 31248.6 lineto
53236.4 31192.4 lineto
53123.9 31136.1 lineto
53011.4 31136.1 lineto
52898.9 31192.4 lineto
52842.7 31248.6 lineto
52786.4 31361.1 lineto
52730.2 31586.1 lineto
52730.2 31867.3 lineto
52786.4 32092.2 lineto
52842.7 32204.7 lineto
52898.9 32261 lineto
53011.4 32317.2 lineto
stroke
newpath
53855 32317.2 moveto
53855 32092.2 lineto
stroke
newpath
54305 32317.2 moveto
54305 32092.2 lineto
stroke
newpath
56048.5 30686.2 moveto
55992.3 30742.4 lineto
55879.8 30911.1 lineto
55823.5 31023.6 lineto
55767.3 31192.4 lineto
55711.1 31473.6 lineto
55711.1 31698.5 lineto
55767.3 31979.8 lineto
55823.5 32148.5 lineto
55879.8 32261 lineto
55992.3 32429.7 lineto
56048.5 32485.9 lineto
stroke
newpath
56386 32317.2 moveto
57117.1 32317.2 lineto
56723.4 31867.3 lineto
56892.2 31867.3 lineto
57004.6 31811 lineto
57060.9 31754.8 lineto
57117.1 31642.3 lineto
57117.1 31361.1 lineto
57060.9 31248.6 lineto
57004.6 31192.4 lineto
56892.2 31136.1 lineto
56554.7 31136.1 lineto
56442.2 31192.4 lineto
56386 31248.6 lineto
stroke
newpath
58523.2 31136.1 moveto
58523.2 32317.2 lineto
stroke
newpath
59029.4 31136.1 moveto
59029.4 31754.8 lineto
58973.2 31867.3 lineto
58860.7 31923.5 lineto
58691.9 31923.5 lineto
58579.4 31867.3 lineto
58523.2 31811 lineto
stroke
newpath
59760.6 31136.1 moveto
59648.1 31192.4 lineto
59591.8 31248.6 lineto
59535.6 31361.1 lineto
59535.6 31698.5 lineto
59591.8 31811 lineto
59648.1 31867.3 lineto
59760.6 31923.5 lineto
59929.3 31923.5 lineto
60041.8 31867.3 lineto
60098 31811 lineto
60154.3 31698.5 lineto
60154.3 31361.1 lineto
60098 31248.6 lineto
60041.8 31192.4 lineto
59929.3 31136.1 lineto
59760.6 31136.1 lineto
stroke
newpath
60829.2 31136.1 moveto
60716.7 31192.4 lineto
60660.4 31304.8 lineto
60660.4 32317.2 lineto
stroke
newpath
61729.1 31192.4 moveto
61616.6 31136.1 lineto
61391.6 31136.1 lineto
61279.1 31192.4 lineto
61222.9 31304.8 lineto
61222.9 31754.8 lineto
61279.1 31867.3 lineto
61391.6 31923.5 lineto
61616.6 31923.5 lineto
61729.1 31867.3 lineto
61785.3 31754.8 lineto
61785.3 31642.3 lineto
61222.9 31529.8 lineto
stroke
newpath
62235.2 31192.4 moveto
62347.7 31136.1 lineto
62572.7 31136.1 lineto
62685.2 31192.4 lineto
62741.4 31304.8 lineto
62741.4 31361.1 lineto
62685.2 31473.6 lineto
62572.7 31529.8 lineto
62404 31529.8 lineto
62291.5 31586.1 lineto
62235.2 31698.5 lineto
62235.2 31754.8 lineto
62291.5 31867.3 lineto
62404 31923.5 lineto
62572.7 31923.5 lineto
62685.2 31867.3 lineto
stroke
newpath
63135.1 30686.2 moveto
63191.4 30742.4 lineto
63303.9 30911.1 lineto
63360.1 31023.6 lineto
63416.3 31192.4 lineto
63472.6 31473.6 lineto
63472.6 31698.5 lineto
63416.3 31979.8 lineto
63360.1 32148.5 lineto
63303.9 32261 lineto
63191.4 32429.7 lineto
63135.1 32485.9 lineto
stroke
newpath
37429.7 30279.7 moveto
37429.7 29943 lineto
stroke
newpath
37261.3 30111.4 moveto
37598 30111.4 lineto
stroke
0 0 0 setrgbcolor
0 0 0 setrgbcolor
newpath
38950.7 30758.2 moveto
39063.1 30758.2 lineto
39175.6 30701.9 lineto
39231.9 30645.7 lineto
39288.1 30533.2 lineto
39344.4 30308.2 lineto
39344.4 30027 lineto
39288.1 29802 lineto
39231.9 29689.5 lineto
39175.6 29633.3 lineto
39063.1 29577.1 lineto
38950.7 29577.1 lineto
38838.2 29633.3 lineto
38781.9 29689.5 lineto
38725.7 29802 lineto
38669.4 30027 lineto
38669.4 30308.2 lineto
38725.7 30533.2 lineto
38781.9 30645.7 lineto
38838.2 30701.9 lineto
38950.7 30758.2 lineto
stroke
newpath
39850.5 29689.5 moveto
39906.8 29633.3 lineto
39850.5 29577.1 lineto
39794.3 29633.3 lineto
39850.5 29689.5 lineto
39850.5 29577.1 lineto
stroke
newpath
40581.7 30252 moveto
40469.2 30308.2 lineto
40413 30364.5 lineto
40356.7 30476.9 lineto
40356.7 30533.2 lineto
40413 30645.7 lineto
40469.2 30701.9 lineto
40581.7 30758.2 lineto
40806.7 30758.2 lineto
40919.2 30701.9 lineto
40975.4 30645.7 lineto
41031.6 30533.2 lineto
41031.6 30476.9 lineto
40975.4 30364.5 lineto
40919.2 30308.2 lineto
40806.7 30252 lineto
40581.7 30252 lineto
40469.2 30195.7 lineto
40413 30139.5 lineto
40356.7 30027 lineto
40356.7 29802 lineto
40413 29689.5 lineto
40469.2 29633.3 lineto
40581.7 29577.1 lineto
40806.7 29577.1 lineto
40919.2 29633.3 lineto
40975.4 29689.5 lineto
41031.6 29802 lineto
41031.6 30027 lineto
40975.4 30139.5 lineto
40919.2 30195.7 lineto
40806.7 30252 lineto
stroke
newpath
41762.8 30758.2 moveto
41875.3 30758.2 lineto
41987.8 30701.9 lineto
42044 30645.7 lineto
42100.3 30533.2 lineto
42156.5 30308.2 lineto
42156.5 30027 lineto
42100.3 29802 lineto
42044 29689.5 lineto
41987.8 29633.3 lineto
41875.3 29577.1 lineto
41762.8 29577.1 lineto
41650.3 29633.3 lineto
41594.1 29689.5 lineto
41537.8 29802 lineto
41481.6 30027 lineto
41481.6 30308.2 lineto
41537.8 30533.2 lineto
41594.1 30645.7 lineto
41650.3 30701.9 lineto
41762.8 30758.2 lineto
stroke
newpath
42662.7 29577.1 moveto
42662.7 30364.5 lineto
stroke
newpath
42662.7 30252 moveto
42718.9 30308.2 lineto
42831.4 30364.5 lineto
43000.1 30364.5 lineto
43112.6 30308.2 lineto
43168.9 30195.7 lineto
43168.9 29577.1 lineto
stroke
newpath
43168.9 30195.7 moveto
43225.1 30308.2 lineto
43337.6 30364.5 lineto
43506.3 30364.5 lineto
43618.8 30308.2 lineto
43675.1 30195.7 lineto
43675.1 29577.1 lineto
stroke
newpath
44237.5 29577.1 moveto
44237.5 30364.5 lineto
stroke
newpath
44237.5 30252 moveto
44293.7 30308.2 lineto
44406.2 30364.5 lineto
44574.9 30364.5 lineto
44687.4 30308.2 lineto
44743.7 30195.7 lineto
44743.7 29577.1 lineto
stroke
newpath
44743.7 30195.7 moveto
44799.9 30308.2 lineto
44912.4 30364.5 lineto
45081.1 30364.5 lineto
45193.6 30308.2 lineto
45249.9 30195.7 lineto
45249.9 29577.1 lineto
stroke
newpath
47555.8 30814.4 moveto
46543.5 29295.8 lineto
stroke
newpath
49074.4 30758.2 moveto
49186.9 30758.2 lineto
49299.4 30701.9 lineto
49355.6 30645.7 lineto
49411.8 30533.2 lineto
49468.1 30308.2 lineto
49468.1 30027 lineto
49411.8 29802 lineto
49355.6 29689.5 lineto
49299.4 29633.3 lineto
49186.9 29577.1 lineto
49074.4 29577.1 lineto
48961.9 29633.3 lineto
48905.7 29689.5 lineto
48849.4 29802 lineto
48793.2 30027 lineto
48793.2 30308.2 lineto
48849.4 30533.2 lineto
48905.7 30645.7 lineto
48961.9 30701.9 lineto
49074.4 30758.2 lineto
stroke
newpath
49974.3 29689.5 moveto
50030.5 29633.3 lineto
49974.3 29577.1 lineto
49918 29633.3 lineto
49974.3 29689.5 lineto
49974.3 29577.1 lineto
stroke
newpath
50761.7 30758.2 moveto
50874.2 30758.2 lineto
50986.6 30701.9 lineto
51042.9 30645.7 lineto
51099.1 30533.2 lineto
51155.4 30308.2 lineto
51155.4 30027 lineto
51099.1 29802 lineto
51042.9 29689.5 lineto
50986.6 29633.3 lineto
50874.2 29577.1 lineto
50761.7 29577.1 lineto
50649.2 29633.3 lineto
50592.9 29689.5 lineto
50536.7 29802 lineto
50480.5 30027 lineto
50480.5 30308.2 lineto
50536.7 30533.2 lineto
50592.9 30645.7 lineto
50649.2 30701.9 lineto
50761.7 30758.2 lineto
stroke
newpath
51549.1 30758.2 moveto
52280.2 30758.2 lineto
51886.5 30308.2 lineto
52055.3 30308.2 lineto
52167.7 30252 lineto
52224 30195.7 lineto
52280.2 30083.2 lineto
52280.2 29802 lineto
52224 29689.5 lineto
52167.7 29633.3 lineto
52055.3 29577.1 lineto
51717.8 29577.1 lineto
51605.3 29633.3 lineto
51549.1 29689.5 lineto
stroke
newpath
53405.1 29577.1 moveto
52730.2 29577.1 lineto
stroke
newpath
53067.6 29577.1 moveto
53067.6 30758.2 lineto
52955.2 30589.4 lineto
52842.7 30476.9 lineto
52730.2 30420.7 lineto
stroke
newpath
53855 30758.2 moveto
53855 30533.2 lineto
stroke
newpath
54305 30758.2 moveto
54305 30533.2 lineto
stroke
newpath
56048.5 29127.1 moveto
55992.3 29183.4 lineto
55879.8 29352.1 lineto
55823.5 29464.6 lineto
55767.3 29633.3 lineto
55711.1 29914.5 lineto
55711.1 30139.5 lineto
55767.3 30420.7 lineto
55823.5 30589.4 lineto
55879.8 30701.9 lineto
55992.3 30870.7 lineto
56048.5 30926.9 lineto
stroke
newpath
57004.6 30364.5 moveto
57004.6 29577.1 lineto
stroke
newpath
56723.4 30814.4 moveto
56442.2 29970.8 lineto
57173.4 29970.8 lineto
stroke
newpath
57792 30252 moveto
57679.6 30308.2 lineto
57623.3 30364.5 lineto
57567.1 30476.9 lineto
57567.1 30533.2 lineto
57623.3 30645.7 lineto
57679.6 30701.9 lineto
57792 30758.2 lineto
58017 30758.2 lineto
58129.5 30701.9 lineto
58185.7 30645.7 lineto
58242 30533.2 lineto
58242 30476.9 lineto
58185.7 30364.5 lineto
58129.5 30308.2 lineto
58017 30252 lineto
57792 30252 lineto
57679.6 30195.7 lineto
57623.3 30139.5 lineto
57567.1 30027 lineto
57567.1 29802 lineto
57623.3 29689.5 lineto
57679.6 29633.3 lineto
57792 29577.1 lineto
58017 29577.1 lineto
58129.5 29633.3 lineto
58185.7 29689.5 lineto
58242 29802 lineto
58242 30027 lineto
58185.7 30139.5 lineto
58129.5 30195.7 lineto
58017 30252 lineto
stroke
newpath
59648.1 29577.1 moveto
59648.1 30758.2 lineto
stroke
newpath
60154.3 29577.1 moveto
60154.3 30195.7 lineto
60098 30308.2 lineto
59985.5 30364.5 lineto
59816.8 30364.5 lineto
59704.3 30308.2 lineto
59648.1 30252 lineto
stroke
newpath
60885.4 29577.1 moveto
60772.9 29633.3 lineto
60716.7 29689.5 lineto
60660.4 29802 lineto
60660.4 30139.5 lineto
60716.7 30252 lineto
60772.9 30308.2 lineto
60885.4 30364.5 lineto
61054.1 30364.5 lineto
61166.6 30308.2 lineto
61222.9 30252 lineto
61279.1 30139.5 lineto
61279.1 29802 lineto
61222.9 29689.5 lineto
61166.6 29633.3 lineto
61054.1 29577.1 lineto
60885.4 29577.1 lineto
stroke
newpath
61954 29577.1 moveto
61841.5 29633.3 lineto
61785.3 29745.8 lineto
61785.3 30758.2 lineto
stroke
newpath
62853.9 29633.3 moveto
62741.4 29577.1 lineto
62516.5 29577.1 lineto
62404 29633.3 lineto
62347.7 29745.8 lineto
62347.7 30195.7 lineto
62404 30308.2 lineto
62516.5 30364.5 lineto
62741.4 30364.5 lineto
62853.9 30308.2 lineto
62910.2 30195.7 lineto
62910.2 30083.2 lineto
62347.7 29970.8 lineto
stroke
newpath
63360.1 29633.3 moveto
63472.6 29577.1 lineto
63697.6 29577.1 lineto
63810 29633.3 lineto
63866.3 29745.8 lineto
63866.3 29802 lineto
63810 29914.5 lineto
63697.6 29970.8 lineto
63528.8 29970.8 lineto
63416.3 30027 lineto
63360.1 30139.5 lineto
63360.1 30195.7 lineto
63416.3 30308.2 lineto
63528.8 30364.5 lineto
63697.6 30364.5 lineto
63810 30308.2 lineto
stroke
newpath
64260 29127.1 moveto
64316.2 29183.4 lineto
64428.7 29352.1 lineto
64485 29464.6 lineto
64541.2 29633.3 lineto
64597.4 29914.5 lineto
64597.4 30139.5 lineto
64541.2 30420.7 lineto
64485 30589.4 lineto
64428.7 30701.9 lineto
64316.2 30870.7 lineto
64260 30926.9 lineto
stroke
newpath
37542.5 28418.4 moveto
37542.5 28686.2 lineto
37274.7 28686.2 lineto
37274.7 28418.4 lineto
37542.5 28418.4 lineto
poly0
0 0 0 setrgbcolor
0 0 0 setrgbcolor
newpath
38950.7 29199.1 moveto
39063.1 29199.1 lineto
39175.6 29142.9 lineto
39231.9 29086.6 lineto
39288.1 28974.1 lineto
39344.4 28749.2 lineto
39344.4 28468 lineto
39288.1 28243 lineto
39231.9 28130.5 lineto
39175.6 28074.2 lineto
39063.1 28018 lineto
38950.7 28018 lineto
38838.2 28074.2 lineto
38781.9 28130.5 lineto
38725.7 28243 lineto
38669.4 28468 lineto
38669.4 28749.2 lineto
38725.7 28974.1 lineto
38781.9 29086.6 lineto
38838.2 29142.9 lineto
38950.7 29199.1 lineto
stroke
newpath
39850.5 28130.5 moveto
39906.8 28074.2 lineto
39850.5 28018 lineto
39794.3 28074.2 lineto
39850.5 28130.5 lineto
39850.5 28018 lineto
stroke
newpath
40469.2 28018 moveto
40694.2 28018 lineto
40806.7 28074.2 lineto
40862.9 28130.5 lineto
40975.4 28299.2 lineto
41031.6 28524.2 lineto
41031.6 28974.1 lineto
40975.4 29086.6 lineto
40919.2 29142.9 lineto
40806.7 29199.1 lineto
40581.7 29199.1 lineto
40469.2 29142.9 lineto
40413 29086.6 lineto
40356.7 28974.1 lineto
40356.7 28692.9 lineto
40413 28580.4 lineto
40469.2 28524.2 lineto
40581.7 28468 lineto
40806.7 28468 lineto
40919.2 28524.2 lineto
40975.4 28580.4 lineto
41031.6 28692.9 lineto
stroke
newpath
41762.8 29199.1 moveto
41875.3 29199.1 lineto
41987.8 29142.9 lineto
42044 29086.6 lineto
42100.3 28974.1 lineto
42156.5 28749.2 lineto
42156.5 28468 lineto
42100.3 28243 lineto
42044 28130.5 lineto
41987.8 28074.2 lineto
41875.3 28018 lineto
41762.8 28018 lineto
41650.3 28074.2 lineto
41594.1 28130.5 lineto
41537.8 28243 lineto
41481.6 28468 lineto
41481.6 28749.2 lineto
41537.8 28974.1 lineto
41594.1 29086.6 lineto
41650.3 29142.9 lineto
41762.8 29199.1 lineto
stroke
newpath
42662.7 28018 moveto
42662.7 28805.4 lineto
stroke
newpath
42662.7 28692.9 moveto
42718.9 28749.2 lineto
42831.4 28805.4 lineto
43000.1 28805.4 lineto
43112.6 28749.2 lineto
43168.9 28636.7 lineto
43168.9 28018 lineto
stroke
newpath
43168.9 28636.7 moveto
43225.1 28749.2 lineto
43337.6 28805.4 lineto
43506.3 28805.4 lineto
43618.8 28749.2 lineto
43675.1 28636.7 lineto
43675.1 28018 lineto
stroke
newpath
44237.5 28018 moveto
44237.5 28805.4 lineto
stroke
newpath
44237.5 28692.9 moveto
44293.7 28749.2 lineto
44406.2 28805.4 lineto
44574.9 28805.4 lineto
44687.4 28749.2 lineto
44743.7 28636.7 lineto
44743.7 28018 lineto
stroke
newpath
44743.7 28636.7 moveto
44799.9 28749.2 lineto
44912.4 28805.4 lineto
45081.1 28805.4 lineto
45193.6 28749.2 lineto
45249.9 28636.7 lineto
45249.9 28018 lineto
stroke
newpath
47555.8 29255.4 moveto
46543.5 27736.8 lineto
stroke
newpath
49074.4 29199.1 moveto
49186.9 29199.1 lineto
49299.4 29142.9 lineto
49355.6 29086.6 lineto
49411.8 28974.1 lineto
49468.1 28749.2 lineto
49468.1 28468 lineto
49411.8 28243 lineto
49355.6 28130.5 lineto
49299.4 28074.2 lineto
49186.9 28018 lineto
49074.4 28018 lineto
48961.9 28074.2 lineto
48905.7 28130.5 lineto
48849.4 28243 lineto
48793.2 28468 lineto
48793.2 28749.2 lineto
48849.4 28974.1 lineto
48905.7 29086.6 lineto
48961.9 29142.9 lineto
49074.4 29199.1 lineto
stroke
newpath
49974.3 28130.5 moveto
50030.5 28074.2 lineto
49974.3 28018 lineto
49918 28074.2 lineto
49974.3 28130.5 lineto
49974.3 28018 lineto
stroke
newpath
50761.7 29199.1 moveto
50874.2 29199.1 lineto
50986.6 29142.9 lineto
51042.9 29086.6 lineto
51099.1 28974.1 lineto
51155.4 28749.2 lineto
51155.4 28468 lineto
51099.1 28243 lineto
51042.9 28130.5 lineto
50986.6 28074.2 lineto
50874.2 28018 lineto
50761.7 28018 lineto
50649.2 28074.2 lineto
50592.9 28130.5 lineto
50536.7 28243 lineto
50480.5 28468 lineto
50480.5 28749.2 lineto
50536.7 28974.1 lineto
50592.9 29086.6 lineto
50649.2 29142.9 lineto
50761.7 29199.1 lineto
stroke
newpath
51549.1 29199.1 moveto
52280.2 29199.1 lineto
51886.5 28749.2 lineto
52055.3 28749.2 lineto
52167.7 28692.9 lineto
52224 28636.7 lineto
52280.2 28524.2 lineto
52280.2 28243 lineto
52224 28130.5 lineto
52167.7 28074.2 lineto
52055.3 28018 lineto
51717.8 28018 lineto
51605.3 28074.2 lineto
51549.1 28130.5 lineto
stroke
newpath
53348.9 29199.1 moveto
52786.4 29199.1 lineto
52730.2 28636.7 lineto
52786.4 28692.9 lineto
52898.9 28749.2 lineto
53180.1 28749.2 lineto
53292.6 28692.9 lineto
53348.9 28636.7 lineto
53405.1 28524.2 lineto
53405.1 28243 lineto
53348.9 28130.5 lineto
53292.6 28074.2 lineto
53180.1 28018 lineto
52898.9 28018 lineto
52786.4 28074.2 lineto
52730.2 28130.5 lineto
stroke
newpath
53855 29199.1 moveto
53855 28974.1 lineto
stroke
newpath
54305 29199.1 moveto
54305 28974.1 lineto
stroke
newpath
56048.5 27568.1 moveto
55992.3 27624.3 lineto
55879.8 27793 lineto
55823.5 27905.5 lineto
55767.3 28074.2 lineto
55711.1 28355.5 lineto
55711.1 28580.4 lineto
55767.3 28861.7 lineto
55823.5 29030.4 lineto
55879.8 29142.9 lineto
55992.3 29311.6 lineto
56048.5 29367.8 lineto
stroke
newpath
57004.6 28805.4 moveto
57004.6 28018 lineto
stroke
newpath
56723.4 29255.4 moveto
56442.2 28411.7 lineto
57173.4 28411.7 lineto
stroke
newpath
58523.2 28018 moveto
58523.2 29199.1 lineto
stroke
newpath
59029.4 28018 moveto
59029.4 28636.7 lineto
58973.2 28749.2 lineto
58860.7 28805.4 lineto
58691.9 28805.4 lineto
58579.4 28749.2 lineto
58523.2 28692.9 lineto
stroke
newpath
59760.6 28018 moveto
59648.1 28074.2 lineto
59591.8 28130.5 lineto
59535.6 28243 lineto
59535.6 28580.4 lineto
59591.8 28692.9 lineto
59648.1 28749.2 lineto
59760.6 28805.4 lineto
59929.3 28805.4 lineto
60041.8 28749.2 lineto
60098 28692.9 lineto
60154.3 28580.4 lineto
60154.3 28243 lineto
60098 28130.5 lineto
60041.8 28074.2 lineto
59929.3 28018 lineto
59760.6 28018 lineto
stroke
newpath
60829.2 28018 moveto
60716.7 28074.2 lineto
60660.4 28186.7 lineto
60660.4 29199.1 lineto
stroke
newpath
61729.1 28074.2 moveto
61616.6 28018 lineto
61391.6 28018 lineto
61279.1 28074.2 lineto
61222.9 28186.7 lineto
61222.9 28636.7 lineto
61279.1 28749.2 lineto
61391.6 28805.4 lineto
61616.6 28805.4 lineto
61729.1 28749.2 lineto
61785.3 28636.7 lineto
61785.3 28524.2 lineto
61222.9 28411.7 lineto
stroke
newpath
62235.2 28074.2 moveto
62347.7 28018 lineto
62572.7 28018 lineto
62685.2 28074.2 lineto
62741.4 28186.7 lineto
62741.4 28243 lineto
62685.2 28355.5 lineto
62572.7 28411.7 lineto
62404 28411.7 lineto
62291.5 28468 lineto
62235.2 28580.4 lineto
62235.2 28636.7 lineto
62291.5 28749.2 lineto
62404 28805.4 lineto
62572.7 28805.4 lineto
62685.2 28749.2 lineto
stroke
newpath
63135.1 27568.1 moveto
63191.4 27624.3 lineto
63303.9 27793 lineto
63360.1 27905.5 lineto
63416.3 28074.2 lineto
63472.6 28355.5 lineto
63472.6 28580.4 lineto
63416.3 28861.7 lineto
63360.1 29030.4 lineto
63303.9 29142.9 lineto
63191.4 29311.6 lineto
63135.1 29367.8 lineto
stroke
newpath
37387.6 26782.8 moveto
37598 26993.3 lineto
37387.6 27203.7 lineto
37177.1 26993.3 lineto
37387.6 26782.8 lineto
poly0
0 0 0 setrgbcolor
0 0 0 setrgbcolor
newpath
39344.4 26459 moveto
38669.4 26459 lineto
stroke
newpath
39006.9 26459 moveto
39006.9 27640.1 lineto
38894.4 27471.3 lineto
38781.9 27358.8 lineto
38669.4 27302.6 lineto
stroke
newpath
39850.5 26571.4 moveto
39906.8 26515.2 lineto
39850.5 26459 lineto
39794.3 26515.2 lineto
39850.5 26571.4 lineto
39850.5 26459 lineto
stroke
newpath
40637.9 27640.1 moveto
40750.4 27640.1 lineto
40862.9 27583.8 lineto
40919.2 27527.6 lineto
40975.4 27415.1 lineto
41031.6 27190.1 lineto
41031.6 26908.9 lineto
40975.4 26683.9 lineto
40919.2 26571.4 lineto
40862.9 26515.2 lineto
40750.4 26459 lineto
40637.9 26459 lineto
40525.5 26515.2 lineto
40469.2 26571.4 lineto
40413 26683.9 lineto
40356.7 26908.9 lineto
40356.7 27190.1 lineto
40413 27415.1 lineto
40469.2 27527.6 lineto
40525.5 27583.8 lineto
40637.9 27640.1 lineto
stroke
newpath
41762.8 27640.1 moveto
41875.3 27640.1 lineto
41987.8 27583.8 lineto
42044 27527.6 lineto
42100.3 27415.1 lineto
42156.5 27190.1 lineto
42156.5 26908.9 lineto
42100.3 26683.9 lineto
42044 26571.4 lineto
41987.8 26515.2 lineto
41875.3 26459 lineto
41762.8 26459 lineto
41650.3 26515.2 lineto
41594.1 26571.4 lineto
41537.8 26683.9 lineto
41481.6 26908.9 lineto
41481.6 27190.1 lineto
41537.8 27415.1 lineto
41594.1 27527.6 lineto
41650.3 27583.8 lineto
41762.8 27640.1 lineto
stroke
newpath
42662.7 26459 moveto
42662.7 27246.4 lineto
stroke
newpath
42662.7 27133.9 moveto
42718.9 27190.1 lineto
42831.4 27246.4 lineto
43000.1 27246.4 lineto
43112.6 27190.1 lineto
43168.9 27077.6 lineto
43168.9 26459 lineto
stroke
newpath
43168.9 27077.6 moveto
43225.1 27190.1 lineto
43337.6 27246.4 lineto
43506.3 27246.4 lineto
43618.8 27190.1 lineto
43675.1 27077.6 lineto
43675.1 26459 lineto
stroke
newpath
44237.5 26459 moveto
44237.5 27246.4 lineto
stroke
newpath
44237.5 27133.9 moveto
44293.7 27190.1 lineto
44406.2 27246.4 lineto
44574.9 27246.4 lineto
44687.4 27190.1 lineto
44743.7 27077.6 lineto
44743.7 26459 lineto
stroke
newpath
44743.7 27077.6 moveto
44799.9 27190.1 lineto
44912.4 27246.4 lineto
45081.1 27246.4 lineto
45193.6 27190.1 lineto
45249.9 27077.6 lineto
45249.9 26459 lineto
stroke
newpath
47555.8 27696.3 moveto
46543.5 26177.7 lineto
stroke
newpath
49074.4 27640.1 moveto
49186.9 27640.1 lineto
49299.4 27583.8 lineto
49355.6 27527.6 lineto
49411.8 27415.1 lineto
49468.1 27190.1 lineto
49468.1 26908.9 lineto
49411.8 26683.9 lineto
49355.6 26571.4 lineto
49299.4 26515.2 lineto
49186.9 26459 lineto
49074.4 26459 lineto
48961.9 26515.2 lineto
48905.7 26571.4 lineto
48849.4 26683.9 lineto
48793.2 26908.9 lineto
48793.2 27190.1 lineto
48849.4 27415.1 lineto
48905.7 27527.6 lineto
48961.9 27583.8 lineto
49074.4 27640.1 lineto
stroke
newpath
49974.3 26571.4 moveto
50030.5 26515.2 lineto
49974.3 26459 lineto
49918 26515.2 lineto
49974.3 26571.4 lineto
49974.3 26459 lineto
stroke
newpath
50761.7 27640.1 moveto
50874.2 27640.1 lineto
50986.6 27583.8 lineto
51042.9 27527.6 lineto
51099.1 27415.1 lineto
51155.4 27190.1 lineto
51155.4 26908.9 lineto
51099.1 26683.9 lineto
51042.9 26571.4 lineto
50986.6 26515.2 lineto
50874.2 26459 lineto
50761.7 26459 lineto
50649.2 26515.2 lineto
50592.9 26571.4 lineto
50536.7 26683.9 lineto
50480.5 26908.9 lineto
50480.5 27190.1 lineto
50536.7 27415.1 lineto
50592.9 27527.6 lineto
50649.2 27583.8 lineto
50761.7 27640.1 lineto
stroke
newpath
51549.1 27640.1 moveto
52280.2 27640.1 lineto
51886.5 27190.1 lineto
52055.3 27190.1 lineto
52167.7 27133.9 lineto
52224 27077.6 lineto
52280.2 26965.1 lineto
52280.2 26683.9 lineto
52224 26571.4 lineto
52167.7 26515.2 lineto
52055.3 26459 lineto
51717.8 26459 lineto
51605.3 26515.2 lineto
51549.1 26571.4 lineto
stroke
newpath
52842.7 26459 moveto
53067.6 26459 lineto
53180.1 26515.2 lineto
53236.4 26571.4 lineto
53348.9 26740.2 lineto
53405.1 26965.1 lineto
53405.1 27415.1 lineto
53348.9 27527.6 lineto
53292.6 27583.8 lineto
53180.1 27640.1 lineto
52955.2 27640.1 lineto
52842.7 27583.8 lineto
52786.4 27527.6 lineto
52730.2 27415.1 lineto
52730.2 27133.9 lineto
52786.4 27021.4 lineto
52842.7 26965.1 lineto
52955.2 26908.9 lineto
53180.1 26908.9 lineto
53292.6 26965.1 lineto
53348.9 27021.4 lineto
53405.1 27133.9 lineto
stroke
newpath
53855 27640.1 moveto
53855 27415.1 lineto
stroke
newpath
54305 27640.1 moveto
54305 27415.1 lineto
stroke
newpath
56048.5 26009 moveto
55992.3 26065.3 lineto
55879.8 26234 lineto
55823.5 26346.5 lineto
55767.3 26515.2 lineto
55711.1 26796.4 lineto
55711.1 27021.4 lineto
55767.3 27302.6 lineto
55823.5 27471.3 lineto
55879.8 27583.8 lineto
55992.3 27752.5 lineto
56048.5 27808.8 lineto
stroke
newpath
56442.2 27527.6 moveto
56498.5 27583.8 lineto
56610.9 27640.1 lineto
56892.2 27640.1 lineto
57004.6 27583.8 lineto
57060.9 27527.6 lineto
57117.1 27415.1 lineto
57117.1 27302.6 lineto
57060.9 27133.9 lineto
56386 26459 lineto
57117.1 26459 lineto
stroke
newpath
57679.6 26459 moveto
57904.5 26459 lineto
58017 26515.2 lineto
58073.3 26571.4 lineto
58185.7 26740.2 lineto
58242 26965.1 lineto
58242 27415.1 lineto
58185.7 27527.6 lineto
58129.5 27583.8 lineto
58017 27640.1 lineto
57792 27640.1 lineto
57679.6 27583.8 lineto
57623.3 27527.6 lineto
57567.1 27415.1 lineto
57567.1 27133.9 lineto
57623.3 27021.4 lineto
57679.6 26965.1 lineto
57792 26908.9 lineto
58017 26908.9 lineto
58129.5 26965.1 lineto
58185.7 27021.4 lineto
58242 27133.9 lineto
stroke
newpath
59648.1 26459 moveto
59648.1 27640.1 lineto
stroke
newpath
60154.3 26459 moveto
60154.3 27077.6 lineto
60098 27190.1 lineto
59985.5 27246.4 lineto
59816.8 27246.4 lineto
59704.3 27190.1 lineto
59648.1 27133.9 lineto
stroke
newpath
60885.4 26459 moveto
60772.9 26515.2 lineto
60716.7 26571.4 lineto
60660.4 26683.9 lineto
60660.4 27021.4 lineto
60716.7 27133.9 lineto
60772.9 27190.1 lineto
60885.4 27246.4 lineto
61054.1 27246.4 lineto
61166.6 27190.1 lineto
61222.9 27133.9 lineto
61279.1 27021.4 lineto
61279.1 26683.9 lineto
61222.9 26571.4 lineto
61166.6 26515.2 lineto
61054.1 26459 lineto
60885.4 26459 lineto
stroke
newpath
61954 26459 moveto
61841.5 26515.2 lineto
61785.3 26627.7 lineto
61785.3 27640.1 lineto
stroke
newpath
62853.9 26515.2 moveto
62741.4 26459 lineto
62516.5 26459 lineto
62404 26515.2 lineto
62347.7 26627.7 lineto
62347.7 27077.6 lineto
62404 27190.1 lineto
62516.5 27246.4 lineto
62741.4 27246.4 lineto
62853.9 27190.1 lineto
62910.2 27077.6 lineto
62910.2 26965.1 lineto
62347.7 26852.7 lineto
stroke
newpath
63360.1 26515.2 moveto
63472.6 26459 lineto
63697.6 26459 lineto
63810 26515.2 lineto
63866.3 26627.7 lineto
63866.3 26683.9 lineto
63810 26796.4 lineto
63697.6 26852.7 lineto
63528.8 26852.7 lineto
63416.3 26908.9 lineto
63360.1 27021.4 lineto
63360.1 27077.6 lineto
63416.3 27190.1 lineto
63528.8 27246.4 lineto
63697.6 27246.4 lineto
63810 27190.1 lineto
stroke
newpath
64260 26009 moveto
64316.2 26065.3 lineto
64428.7 26234 lineto
64485 26346.5 lineto
64541.2 26515.2 lineto
64597.4 26796.4 lineto
64597.4 27021.4 lineto
64541.2 27302.6 lineto
64485 27471.3 lineto
64428.7 27583.8 lineto
64316.2 27752.5 lineto
64260 27808.8 lineto
stroke
newpath
37050.9 25707.8 moveto
37598 25160.6 lineto
stroke
newpath
37598 25707.8 moveto
37050.9 25160.6 lineto
stroke
37324.4 25434.2 273.569 cir0
0 0 0 setrgbcolor
0 0 0 setrgbcolor
newpath
39344.4 24899.9 moveto
38669.4 24899.9 lineto
stroke
newpath
39006.9 24899.9 moveto
39006.9 26081 lineto
38894.4 25912.3 lineto
38781.9 25799.8 lineto
38669.4 25743.5 lineto
stroke
newpath
39850.5 25012.4 moveto
39906.8 24956.1 lineto
39850.5 24899.9 lineto
39794.3 24956.1 lineto
39850.5 25012.4 lineto
39850.5 24899.9 lineto
stroke
newpath
40300.5 26081 moveto
41031.6 26081 lineto
40637.9 25631.1 lineto
40806.7 25631.1 lineto
40919.2 25574.8 lineto
40975.4 25518.6 lineto
41031.6 25406.1 lineto
41031.6 25124.9 lineto
40975.4 25012.4 lineto
40919.2 24956.1 lineto
40806.7 24899.9 lineto
40469.2 24899.9 lineto
40356.7 24956.1 lineto
40300.5 25012.4 lineto
stroke
newpath
41762.8 26081 moveto
41875.3 26081 lineto
41987.8 26024.8 lineto
42044 25968.5 lineto
42100.3 25856 lineto
42156.5 25631.1 lineto
42156.5 25349.8 lineto
42100.3 25124.9 lineto
42044 25012.4 lineto
41987.8 24956.1 lineto
41875.3 24899.9 lineto
41762.8 24899.9 lineto
41650.3 24956.1 lineto
41594.1 25012.4 lineto
41537.8 25124.9 lineto
41481.6 25349.8 lineto
41481.6 25631.1 lineto
41537.8 25856 lineto
41594.1 25968.5 lineto
41650.3 26024.8 lineto
41762.8 26081 lineto
stroke
newpath
42662.7 24899.9 moveto
42662.7 25687.3 lineto
stroke
newpath
42662.7 25574.8 moveto
42718.9 25631.1 lineto
42831.4 25687.3 lineto
43000.1 25687.3 lineto
43112.6 25631.1 lineto
43168.9 25518.6 lineto
43168.9 24899.9 lineto
stroke
newpath
43168.9 25518.6 moveto
43225.1 25631.1 lineto
43337.6 25687.3 lineto
43506.3 25687.3 lineto
43618.8 25631.1 lineto
43675.1 25518.6 lineto
43675.1 24899.9 lineto
stroke
newpath
44237.5 24899.9 moveto
44237.5 25687.3 lineto
stroke
newpath
44237.5 25574.8 moveto
44293.7 25631.1 lineto
44406.2 25687.3 lineto
44574.9 25687.3 lineto
44687.4 25631.1 lineto
44743.7 25518.6 lineto
44743.7 24899.9 lineto
stroke
newpath
44743.7 25518.6 moveto
44799.9 25631.1 lineto
44912.4 25687.3 lineto
45081.1 25687.3 lineto
45193.6 25631.1 lineto
45249.9 25518.6 lineto
45249.9 24899.9 lineto
stroke
newpath
47555.8 26137.2 moveto
46543.5 24618.7 lineto
stroke
newpath
49074.4 26081 moveto
49186.9 26081 lineto
49299.4 26024.8 lineto
49355.6 25968.5 lineto
49411.8 25856 lineto
49468.1 25631.1 lineto
49468.1 25349.8 lineto
49411.8 25124.9 lineto
49355.6 25012.4 lineto
49299.4 24956.1 lineto
49186.9 24899.9 lineto
49074.4 24899.9 lineto
48961.9 24956.1 lineto
48905.7 25012.4 lineto
48849.4 25124.9 lineto
48793.2 25349.8 lineto
48793.2 25631.1 lineto
48849.4 25856 lineto
48905.7 25968.5 lineto
48961.9 26024.8 lineto
49074.4 26081 lineto
stroke
newpath
49974.3 25012.4 moveto
50030.5 24956.1 lineto
49974.3 24899.9 lineto
49918 24956.1 lineto
49974.3 25012.4 lineto
49974.3 24899.9 lineto
stroke
newpath
50761.7 26081 moveto
50874.2 26081 lineto
50986.6 26024.8 lineto
51042.9 25968.5 lineto
51099.1 25856 lineto
51155.4 25631.1 lineto
51155.4 25349.8 lineto
51099.1 25124.9 lineto
51042.9 25012.4 lineto
50986.6 24956.1 lineto
50874.2 24899.9 lineto
50761.7 24899.9 lineto
50649.2 24956.1 lineto
50592.9 25012.4 lineto
50536.7 25124.9 lineto
50480.5 25349.8 lineto
50480.5 25631.1 lineto
50536.7 25856 lineto
50592.9 25968.5 lineto
50649.2 26024.8 lineto
50761.7 26081 lineto
stroke
newpath
52224 26081 moveto
51661.6 26081 lineto
51605.3 25518.6 lineto
51661.6 25574.8 lineto
51774 25631.1 lineto
52055.3 25631.1 lineto
52167.7 25574.8 lineto
52224 25518.6 lineto
52280.2 25406.1 lineto
52280.2 25124.9 lineto
52224 25012.4 lineto
52167.7 24956.1 lineto
52055.3 24899.9 lineto
51774 24899.9 lineto
51661.6 24956.1 lineto
51605.3 25012.4 lineto
stroke
newpath
53405.1 24899.9 moveto
52730.2 24899.9 lineto
stroke
newpath
53067.6 24899.9 moveto
53067.6 26081 lineto
52955.2 25912.3 lineto
52842.7 25799.8 lineto
52730.2 25743.5 lineto
stroke
newpath
53855 26081 moveto
53855 25856 lineto
stroke
newpath
54305 26081 moveto
54305 25856 lineto
stroke
newpath
56048.5 24450 moveto
55992.3 24506.2 lineto
55879.8 24674.9 lineto
55823.5 24787.4 lineto
55767.3 24956.1 lineto
55711.1 25237.4 lineto
55711.1 25462.3 lineto
55767.3 25743.5 lineto
55823.5 25912.3 lineto
55879.8 26024.8 lineto
55992.3 26193.5 lineto
56048.5 26249.7 lineto
stroke
newpath
57004.6 25687.3 moveto
57004.6 24899.9 lineto
stroke
newpath
56723.4 26137.2 moveto
56442.2 25293.6 lineto
57173.4 25293.6 lineto
stroke
newpath
58523.2 24899.9 moveto
58523.2 26081 lineto
stroke
newpath
59029.4 24899.9 moveto
59029.4 25518.6 lineto
58973.2 25631.1 lineto
58860.7 25687.3 lineto
58691.9 25687.3 lineto
58579.4 25631.1 lineto
58523.2 25574.8 lineto
stroke
newpath
59760.6 24899.9 moveto
59648.1 24956.1 lineto
59591.8 25012.4 lineto
59535.6 25124.9 lineto
59535.6 25462.3 lineto
59591.8 25574.8 lineto
59648.1 25631.1 lineto
59760.6 25687.3 lineto
59929.3 25687.3 lineto
60041.8 25631.1 lineto
60098 25574.8 lineto
60154.3 25462.3 lineto
60154.3 25124.9 lineto
60098 25012.4 lineto
60041.8 24956.1 lineto
59929.3 24899.9 lineto
59760.6 24899.9 lineto
stroke
newpath
60829.2 24899.9 moveto
60716.7 24956.1 lineto
60660.4 25068.6 lineto
60660.4 26081 lineto
stroke
newpath
61729.1 24956.1 moveto
61616.6 24899.9 lineto
61391.6 24899.9 lineto
61279.1 24956.1 lineto
61222.9 25068.6 lineto
61222.9 25518.6 lineto
61279.1 25631.1 lineto
61391.6 25687.3 lineto
61616.6 25687.3 lineto
61729.1 25631.1 lineto
61785.3 25518.6 lineto
61785.3 25406.1 lineto
61222.9 25293.6 lineto
stroke
newpath
62235.2 24956.1 moveto
62347.7 24899.9 lineto
62572.7 24899.9 lineto
62685.2 24956.1 lineto
62741.4 25068.6 lineto
62741.4 25124.9 lineto
62685.2 25237.4 lineto
62572.7 25293.6 lineto
62404 25293.6 lineto
62291.5 25349.8 lineto
62235.2 25462.3 lineto
62235.2 25518.6 lineto
62291.5 25631.1 lineto
62404 25687.3 lineto
62572.7 25687.3 lineto
62685.2 25631.1 lineto
stroke
newpath
63135.1 24450 moveto
63191.4 24506.2 lineto
63303.9 24674.9 lineto
63360.1 24787.4 lineto
63416.3 24956.1 lineto
63472.6 25237.4 lineto
63472.6 25462.3 lineto
63416.3 25743.5 lineto
63360.1 25912.3 lineto
63303.9 26024.8 lineto
63191.4 26193.5 lineto
63135.1 26249.7 lineto
stroke
newpath
36251.2 24548.5 moveto
37598 23201.7 lineto
stroke
newpath
37598 24548.5 moveto
36251.2 23201.7 lineto
stroke
newpath
36924.6 24548.5 moveto
36924.6 23201.7 lineto
stroke
newpath
36251.2 23875.1 moveto
37598 23875.1 lineto
stroke
0 0 0 setrgbcolor
0 0 0 setrgbcolor
newpath
38613.2 24521.9 moveto
39344.4 24521.9 lineto
38950.7 24072 lineto
39119.4 24072 lineto
39231.9 24015.8 lineto
39288.1 23959.5 lineto
39344.4 23847 lineto
39344.4 23565.8 lineto
39288.1 23453.3 lineto
39231.9 23397.1 lineto
39119.4 23340.8 lineto
38781.9 23340.8 lineto
38669.4 23397.1 lineto
38613.2 23453.3 lineto
stroke
newpath
39850.5 23453.3 moveto
39906.8 23397.1 lineto
39850.5 23340.8 lineto
39794.3 23397.1 lineto
39850.5 23453.3 lineto
39850.5 23340.8 lineto
stroke
newpath
40356.7 24409.5 moveto
40413 24465.7 lineto
40525.5 24521.9 lineto
40806.7 24521.9 lineto
40919.2 24465.7 lineto
40975.4 24409.5 lineto
41031.6 24297 lineto
41031.6 24184.5 lineto
40975.4 24015.8 lineto
40300.5 23340.8 lineto
41031.6 23340.8 lineto
stroke
newpath
41762.8 24521.9 moveto
41875.3 24521.9 lineto
41987.8 24465.7 lineto
42044 24409.5 lineto
42100.3 24297 lineto
42156.5 24072 lineto
42156.5 23790.8 lineto
42100.3 23565.8 lineto
42044 23453.3 lineto
41987.8 23397.1 lineto
41875.3 23340.8 lineto
41762.8 23340.8 lineto
41650.3 23397.1 lineto
41594.1 23453.3 lineto
41537.8 23565.8 lineto
41481.6 23790.8 lineto
41481.6 24072 lineto
41537.8 24297 lineto
41594.1 24409.5 lineto
41650.3 24465.7 lineto
41762.8 24521.9 lineto
stroke
newpath
42662.7 23340.8 moveto
42662.7 24128.2 lineto
stroke
newpath
42662.7 24015.8 moveto
42718.9 24072 lineto
42831.4 24128.2 lineto
43000.1 24128.2 lineto
43112.6 24072 lineto
43168.9 23959.5 lineto
43168.9 23340.8 lineto
stroke
newpath
43168.9 23959.5 moveto
43225.1 24072 lineto
43337.6 24128.2 lineto
43506.3 24128.2 lineto
43618.8 24072 lineto
43675.1 23959.5 lineto
43675.1 23340.8 lineto
stroke
newpath
44237.5 23340.8 moveto
44237.5 24128.2 lineto
stroke
newpath
44237.5 24015.8 moveto
44293.7 24072 lineto
44406.2 24128.2 lineto
44574.9 24128.2 lineto
44687.4 24072 lineto
44743.7 23959.5 lineto
44743.7 23340.8 lineto
stroke
newpath
44743.7 23959.5 moveto
44799.9 24072 lineto
44912.4 24128.2 lineto
45081.1 24128.2 lineto
45193.6 24072 lineto
45249.9 23959.5 lineto
45249.9 23340.8 lineto
stroke
newpath
47555.8 24578.2 moveto
46543.5 23059.6 lineto
stroke
newpath
49074.4 24521.9 moveto
49186.9 24521.9 lineto
49299.4 24465.7 lineto
49355.6 24409.5 lineto
49411.8 24297 lineto
49468.1 24072 lineto
49468.1 23790.8 lineto
49411.8 23565.8 lineto
49355.6 23453.3 lineto
49299.4 23397.1 lineto
49186.9 23340.8 lineto
49074.4 23340.8 lineto
48961.9 23397.1 lineto
48905.7 23453.3 lineto
48849.4 23565.8 lineto
48793.2 23790.8 lineto
48793.2 24072 lineto
48849.4 24297 lineto
48905.7 24409.5 lineto
48961.9 24465.7 lineto
49074.4 24521.9 lineto
stroke
newpath
49974.3 23453.3 moveto
50030.5 23397.1 lineto
49974.3 23340.8 lineto
49918 23397.1 lineto
49974.3 23453.3 lineto
49974.3 23340.8 lineto
stroke
newpath
51155.4 23340.8 moveto
50480.5 23340.8 lineto
stroke
newpath
50817.9 23340.8 moveto
50817.9 24521.9 lineto
50705.4 24353.2 lineto
50592.9 24240.7 lineto
50480.5 24184.5 lineto
stroke
newpath
51605.3 24409.5 moveto
51661.6 24465.7 lineto
51774 24521.9 lineto
52055.3 24521.9 lineto
52167.7 24465.7 lineto
52224 24409.5 lineto
52280.2 24297 lineto
52280.2 24184.5 lineto
52224 24015.8 lineto
51549.1 23340.8 lineto
52280.2 23340.8 lineto
stroke
newpath
53292.6 24521.9 moveto
53067.6 24521.9 lineto
52955.2 24465.7 lineto
52898.9 24409.5 lineto
52786.4 24240.7 lineto
52730.2 24015.8 lineto
52730.2 23565.8 lineto
52786.4 23453.3 lineto
52842.7 23397.1 lineto
52955.2 23340.8 lineto
53180.1 23340.8 lineto
53292.6 23397.1 lineto
53348.9 23453.3 lineto
53405.1 23565.8 lineto
53405.1 23847 lineto
53348.9 23959.5 lineto
53292.6 24015.8 lineto
53180.1 24072 lineto
52955.2 24072 lineto
52842.7 24015.8 lineto
52786.4 23959.5 lineto
52730.2 23847 lineto
stroke
newpath
53855 24521.9 moveto
53855 24297 lineto
stroke
newpath
54305 24521.9 moveto
54305 24297 lineto
stroke
newpath
56048.5 22890.9 moveto
55992.3 22947.1 lineto
55879.8 23115.9 lineto
55823.5 23228.4 lineto
55767.3 23397.1 lineto
55711.1 23678.3 lineto
55711.1 23903.3 lineto
55767.3 24184.5 lineto
55823.5 24353.2 lineto
55879.8 24465.7 lineto
55992.3 24634.4 lineto
56048.5 24690.7 lineto
stroke
newpath
57004.6 24128.2 moveto
57004.6 23340.8 lineto
stroke
newpath
56723.4 24578.2 moveto
56442.2 23734.5 lineto
57173.4 23734.5 lineto
stroke
newpath
58523.2 23340.8 moveto
58523.2 24521.9 lineto
stroke
newpath
59029.4 23340.8 moveto
59029.4 23959.5 lineto
58973.2 24072 lineto
58860.7 24128.2 lineto
58691.9 24128.2 lineto
58579.4 24072 lineto
58523.2 24015.8 lineto
stroke
newpath
59760.6 23340.8 moveto
59648.1 23397.1 lineto
59591.8 23453.3 lineto
59535.6 23565.8 lineto
59535.6 23903.3 lineto
59591.8 24015.8 lineto
59648.1 24072 lineto
59760.6 24128.2 lineto
59929.3 24128.2 lineto
60041.8 24072 lineto
60098 24015.8 lineto
60154.3 23903.3 lineto
60154.3 23565.8 lineto
60098 23453.3 lineto
60041.8 23397.1 lineto
59929.3 23340.8 lineto
59760.6 23340.8 lineto
stroke
newpath
60829.2 23340.8 moveto
60716.7 23397.1 lineto
60660.4 23509.6 lineto
60660.4 24521.9 lineto
stroke
newpath
61729.1 23397.1 moveto
61616.6 23340.8 lineto
61391.6 23340.8 lineto
61279.1 23397.1 lineto
61222.9 23509.6 lineto
61222.9 23959.5 lineto
61279.1 24072 lineto
61391.6 24128.2 lineto
61616.6 24128.2 lineto
61729.1 24072 lineto
61785.3 23959.5 lineto
61785.3 23847 lineto
61222.9 23734.5 lineto
stroke
newpath
62235.2 23397.1 moveto
62347.7 23340.8 lineto
62572.7 23340.8 lineto
62685.2 23397.1 lineto
62741.4 23509.6 lineto
62741.4 23565.8 lineto
62685.2 23678.3 lineto
62572.7 23734.5 lineto
62404 23734.5 lineto
62291.5 23790.8 lineto
62235.2 23903.3 lineto
62235.2 23959.5 lineto
62291.5 24072 lineto
62404 24128.2 lineto
62572.7 24128.2 lineto
62685.2 24072 lineto
stroke
newpath
63135.1 22890.9 moveto
63191.4 22947.1 lineto
63303.9 23115.9 lineto
63360.1 23228.4 lineto
63416.3 23397.1 lineto
63472.6 23678.3 lineto
63472.6 23903.3 lineto
63416.3 24184.5 lineto
63360.1 24353.2 lineto
63303.9 24465.7 lineto
63191.4 24634.4 lineto
63135.1 24690.7 lineto
stroke
showpage
grestore
%%EOF
