EESchema Schematic File Version 4
EELAYER 30 0
EELAYER END
$Descr A4 11693 8268
encoding utf-8
Sheet 1 1
Title "esp-meterkast"
Date "2020-05-20"
Rev "001"
Comp "Marten"
Comment1 ""
Comment2 ""
Comment3 ""
Comment4 ""
$EndDescr
$Comp
L esp32_poe_iso:ESP32_POE_ISO U1
U 1 1 5EC31838
P 4100 3800
F 0 "U1" H 4250 4725 50  0000 C CNN
F 1 "ESP32_POE_ISO" H 4250 4634 50  0000 C CNN
F 2 "olimex_poe_esp:ESP32_POE_ISO" H 3850 3900 50  0001 C CNN
F 3 "" H 3850 3900 50  0001 C CNN
	1    4100 3800
	1    0    0    -1  
$EndComp
$Comp
L Sensor_Gas:CCS811 U2
U 1 1 5EC32295
P 7500 3400
F 0 "U2" H 7500 4081 50  0000 C CNN
F 1 "CCS811" H 7500 3990 50  0000 C CNN
F 2 "olimex_poe_esp:CCS811" H 7500 2800 50  0001 C CNN
F 3 "http://ams.com/eng/Products/Environmental-Sensors/Air-Quality-Sensors/CCS811" H 7500 3200 50  0001 C CNN
	1    7500 3400
	1    0    0    -1  
$EndComp
Wire Wire Line
	7500 3900 7500 4350
Wire Wire Line
	7100 3700 7050 3700
Wire Wire Line
	7050 3700 7050 4350
Wire Wire Line
	7050 4350 7500 4350
NoConn ~ 7900 3200
NoConn ~ 7900 3300
NoConn ~ 7900 3500
NoConn ~ 7100 3600
NoConn ~ 7100 3100
NoConn ~ 7100 3200
NoConn ~ 5150 3100
NoConn ~ 3350 3850
NoConn ~ 3350 3700
NoConn ~ 3350 3550
$Comp
L power:+5V #PWR0101
U 1 1 5EC3A59A
P 6700 1800
F 0 "#PWR0101" H 6700 1650 50  0001 C CNN
F 1 "+5V" H 6715 1973 50  0000 C CNN
F 2 "" H 6700 1800 50  0001 C CNN
F 3 "" H 6700 1800 50  0001 C CNN
	1    6700 1800
	1    0    0    -1  
$EndComp
$Comp
L power:GND #PWR0102
U 1 1 5EC3AA60
P 7500 4350
F 0 "#PWR0102" H 7500 4100 50  0001 C CNN
F 1 "GND" H 7505 4177 50  0000 C CNN
F 2 "" H 7500 4350 50  0001 C CNN
F 3 "" H 7500 4350 50  0001 C CNN
	1    7500 4350
	1    0    0    -1  
$EndComp
$Comp
L Connector:Conn_01x03_Male DALLAS_TEMP1
U 1 1 5EC471C2
P 2050 4300
F 0 "DALLAS_TEMP1" H 2022 4232 50  0000 R CNN
F 1 "Conn_01x03_Male" H 2022 4323 50  0000 R CNN
F 2 "Connector_PinHeader_2.54mm:PinHeader_1x03_P2.54mm_Vertical" H 2050 4300 50  0001 C CNN
F 3 "~" H 2050 4300 50  0001 C CNN
	1    2050 4300
	1    0    0    1   
$EndComp
$Comp
L Device:R R1
U 1 1 5EC4AF1D
P 2400 4100
F 0 "R1" V 2193 4100 50  0000 C CNN
F 1 "4.7K" V 2284 4100 50  0000 C CNN
F 2 "Resistor_THT:R_Axial_DIN0204_L3.6mm_D1.6mm_P5.08mm_Horizontal" V 2330 4100 50  0001 C CNN
F 3 "~" H 2400 4100 50  0001 C CNN
	1    2400 4100
	0    1    1    0   
$EndComp
Wire Wire Line
	2250 4200 2550 4200
Connection ~ 2250 4300
Wire Wire Line
	2250 4100 2250 4300
Wire Wire Line
	2550 4100 2550 4200
Connection ~ 2550 4200
Wire Wire Line
	2550 4200 2700 4200
Wire Wire Line
	2250 4950 2700 4950
Wire Wire Line
	2250 4650 2700 4650
Wire Wire Line
	2250 4750 3250 4750
NoConn ~ 2250 4850
$Comp
L Connector:Conn_01x04_Male DHT1
U 1 1 5EC50F8C
P 2050 4850
F 0 "DHT1" H 2022 4732 50  0000 R CNN
F 1 "Conn_01x04_Male" H 2022 4823 50  0000 R CNN
F 2 "Connector_PinHeader_2.54mm:PinHeader_1x04_P2.54mm_Vertical" H 2050 4850 50  0001 C CNN
F 3 "~" H 2050 4850 50  0001 C CNN
	1    2050 4850
	1    0    0    1   
$EndComp
$Comp
L Connector:Conn_01x03_Male WS_2812
U 1 1 5EC5BFFB
P 2100 3650
F 0 "WS_2812" H 2208 3931 50  0000 C CNN
F 1 "Conn_01x03_Male" H 2208 3840 50  0000 C CNN
F 2 "Connector_PinHeader_2.54mm:PinHeader_1x03_P2.54mm_Vertical" H 2100 3650 50  0001 C CNN
F 3 "~" H 2100 3650 50  0001 C CNN
	1    2100 3650
	1    0    0    -1  
$EndComp
$Comp
L ESP32-PoE_Rev_D:vl53l1x U3
U 1 1 5EC639E5
P 7400 1700
F 0 "U3" H 7375 1825 50  0000 C CNN
F 1 "vl53l1x" H 7375 1734 50  0000 C CNN
F 2 "git:VL53L1X" H 7400 1700 50  0001 C CNN
F 3 "" H 7400 1700 50  0001 C CNN
	1    7400 1700
	1    0    0    -1  
$EndComp
NoConn ~ 7700 1800
NoConn ~ 7700 1900
NoConn ~ 7700 2000
NoConn ~ 7700 2100
NoConn ~ 7700 2200
NoConn ~ 7700 2300
NoConn ~ 7050 2300
NoConn ~ 7050 2200
Wire Wire Line
	7050 1900 6400 1900
Wire Wire Line
	7050 2000 6850 2000
Wire Wire Line
	6850 2000 6850 3400
Wire Wire Line
	6850 3400 7100 3400
Wire Wire Line
	7050 2100 6950 2100
Wire Wire Line
	6950 2100 6950 3300
Wire Wire Line
	7100 3300 6950 3300
Wire Wire Line
	7050 1800 6700 1800
$Comp
L Connector:4P4C P1
U 1 1 5EC53524
P 1700 2750
F 0 "P1" H 1757 3217 50  0000 C CNN
F 1 "4P4C" H 1757 3126 50  0000 C CNN
F 2 "Connector_RJ:RJ14_Connfly_DS1133-S4_Horizontal" V 1700 2800 50  0001 C CNN
F 3 "~" V 1700 2800 50  0001 C CNN
	1    1700 2750
	1    0    0    -1  
$EndComp
$Comp
L Device:R R2
U 1 1 5EC564B4
P 2500 1950
F 0 "R2" H 2570 1996 50  0000 L CNN
F 1 "1k" H 2570 1905 50  0000 L CNN
F 2 "Resistor_THT:R_Axial_DIN0204_L3.6mm_D1.6mm_P5.08mm_Horizontal" V 2430 1950 50  0001 C CNN
F 3 "~" H 2500 1950 50  0001 C CNN
	1    2500 1950
	1    0    0    -1  
$EndComp
$Comp
L Device:R R3
U 1 1 5EC57AAF
P 3050 1950
F 0 "R3" H 3120 1996 50  0000 L CNN
F 1 "1k" H 3120 1905 50  0000 L CNN
F 2 "Resistor_THT:R_Axial_DIN0204_L3.6mm_D1.6mm_P5.08mm_Horizontal" V 2980 1950 50  0001 C CNN
F 3 "~" H 3050 1950 50  0001 C CNN
	1    3050 1950
	1    0    0    -1  
$EndComp
$Comp
L Transistor_BJT:BC547 Q1
U 1 1 5EC583E6
P 2700 2450
F 0 "Q1" H 2891 2496 50  0000 L CNN
F 1 "BC547" H 2891 2405 50  0000 L CNN
F 2 "Package_TO_SOT_THT:TO-92_Inline" H 2900 2375 50  0001 L CIN
F 3 "http://www.fairchildsemi.com/ds/BC/BC547.pdf" H 2700 2450 50  0001 L CNN
	1    2700 2450
	1    0    0    -1  
$EndComp
Wire Wire Line
	2100 2550 2350 2550
Wire Wire Line
	2350 2550 2350 1800
Wire Wire Line
	2350 1800 2500 1800
Wire Wire Line
	2500 2100 2500 2450
Wire Wire Line
	2100 2750 2550 2750
NoConn ~ 2100 2650
Wire Wire Line
	2800 2650 2800 2750
Wire Wire Line
	2800 2250 2800 2100
Wire Wire Line
	3050 1800 3150 1800
Wire Wire Line
	3150 1800 3150 3250
Wire Wire Line
	3150 3250 3350 3250
Wire Wire Line
	2250 4300 3350 4300
Wire Wire Line
	3350 4450 3250 4450
Wire Wire Line
	3250 4450 3250 4750
Wire Wire Line
	2800 2100 3050 2100
Wire Wire Line
	3350 4000 3050 4000
Wire Wire Line
	3050 4000 3050 2100
Connection ~ 3050 2100
$Comp
L Connector:Conn_01x03_Male MIC1
U 1 1 5EC78158
P 3600 1550
F 0 "MIC1" V 3662 1694 50  0000 L CNN
F 1 "Conn_01x03_Male" V 3753 1694 50  0000 L CNN
F 2 "Connector_PinHeader_2.54mm:PinHeader_1x03_P2.54mm_Vertical" H 3600 1550 50  0001 C CNN
F 3 "~" H 3600 1550 50  0001 C CNN
	1    3600 1550
	0    1    1    0   
$EndComp
$Comp
L power:GND #PWR0103
U 1 1 5EC7C676
P 3600 1900
F 0 "#PWR0103" H 3600 1650 50  0001 C CNN
F 1 "GND" H 3605 1727 50  0000 C CNN
F 2 "" H 3600 1900 50  0001 C CNN
F 3 "" H 3600 1900 50  0001 C CNN
	1    3600 1900
	1    0    0    -1  
$EndComp
$Comp
L Connector:Conn_01x04_Male MQ1
U 1 1 5EC80CED
P 4900 1450
F 0 "MQ1" V 4962 1594 50  0000 L CNN
F 1 "Conn_01x04_Male" V 5053 1594 50  0000 L CNN
F 2 "Connector_PinHeader_2.54mm:PinHeader_1x04_P2.54mm_Vertical" H 4900 1450 50  0001 C CNN
F 3 "~" H 4900 1450 50  0001 C CNN
	1    4900 1450
	0    1    1    0   
$EndComp
$Comp
L power:GND #PWR0104
U 1 1 5EC87F51
P 5000 1800
F 0 "#PWR0104" H 5000 1550 50  0001 C CNN
F 1 "GND" H 5005 1627 50  0000 C CNN
F 2 "" H 5000 1800 50  0001 C CNN
F 3 "" H 5000 1800 50  0001 C CNN
	1    5000 1800
	1    0    0    -1  
$EndComp
Wire Wire Line
	5000 1650 5000 1800
Wire Wire Line
	4800 1650 4800 2800
Wire Wire Line
	4800 2800 5500 2800
Wire Wire Line
	5500 2800 5500 3400
Wire Wire Line
	5500 3400 5150 3400
Wire Wire Line
	4900 1650 4900 2650
Wire Wire Line
	4900 2650 5600 2650
Wire Wire Line
	5600 2650 5600 3550
Wire Wire Line
	5600 3550 5150 3550
$Comp
L power:+5V #PWR0105
U 1 1 5EC8FF92
P 4700 1800
F 0 "#PWR0105" H 4700 1650 50  0001 C CNN
F 1 "+5V" H 4715 1973 50  0000 C CNN
F 2 "" H 4700 1800 50  0001 C CNN
F 3 "" H 4700 1800 50  0001 C CNN
	1    4700 1800
	1    0    0    1   
$EndComp
$Comp
L power:+5V #PWR0106
U 1 1 5EC90757
P 3700 1900
F 0 "#PWR0106" H 3700 1750 50  0001 C CNN
F 1 "+5V" H 3715 2073 50  0000 C CNN
F 2 "" H 3700 1900 50  0001 C CNN
F 3 "" H 3700 1900 50  0001 C CNN
	1    3700 1900
	-1   0    0    1   
$EndComp
Wire Wire Line
	4700 1650 4700 1800
Wire Wire Line
	3600 1750 3600 1900
Wire Wire Line
	3700 1750 3700 1900
$Comp
L power:+5V #PWR0107
U 1 1 5ECAFFAA
P 2250 2950
F 0 "#PWR0107" H 2250 2800 50  0001 C CNN
F 1 "+5V" H 2265 3123 50  0000 C CNN
F 2 "" H 2250 2950 50  0001 C CNN
F 3 "" H 2250 2950 50  0001 C CNN
	1    2250 2950
	-1   0    0    1   
$EndComp
Wire Wire Line
	2100 2850 2250 2850
Wire Wire Line
	2250 2850 2250 2950
$Comp
L power:GND #PWR0108
U 1 1 5ECB732A
P 2550 2950
F 0 "#PWR0108" H 2550 2700 50  0001 C CNN
F 1 "GND" H 2555 2777 50  0000 C CNN
F 2 "" H 2550 2950 50  0001 C CNN
F 3 "" H 2550 2950 50  0001 C CNN
	1    2550 2950
	1    0    0    -1  
$EndComp
Wire Wire Line
	2550 2750 2550 2950
Connection ~ 2550 2750
Wire Wire Line
	2550 2750 2800 2750
Wire Wire Line
	3500 1750 3500 2900
Wire Wire Line
	3500 2900 5400 2900
Wire Wire Line
	5400 2900 5400 3250
Wire Wire Line
	5400 3250 5150 3250
$Comp
L power:+5V #PWR0109
U 1 1 5ECBCEF7
P 3250 2950
F 0 "#PWR0109" H 3250 2800 50  0001 C CNN
F 1 "+5V" H 3265 3123 50  0000 C CNN
F 2 "" H 3250 2950 50  0001 C CNN
F 3 "" H 3250 2950 50  0001 C CNN
	1    3250 2950
	1    0    0    -1  
$EndComp
$Comp
L power:+5V #PWR0110
U 1 1 5ECBDD46
P 2550 3450
F 0 "#PWR0110" H 2550 3300 50  0001 C CNN
F 1 "+5V" H 2565 3623 50  0000 C CNN
F 2 "" H 2550 3450 50  0001 C CNN
F 3 "" H 2550 3450 50  0001 C CNN
	1    2550 3450
	1    0    0    -1  
$EndComp
Wire Wire Line
	3350 3100 3250 3100
Wire Wire Line
	3250 3100 3250 2950
Wire Wire Line
	2300 3550 2550 3550
Wire Wire Line
	2550 3550 2550 3450
$Comp
L power:+5V #PWR0111
U 1 1 5ECC4997
P 2700 4200
F 0 "#PWR0111" H 2700 4050 50  0001 C CNN
F 1 "+5V" H 2715 4373 50  0000 C CNN
F 2 "" H 2700 4200 50  0001 C CNN
F 3 "" H 2700 4200 50  0001 C CNN
	1    2700 4200
	1    0    0    -1  
$EndComp
$Comp
L power:+5V #PWR0112
U 1 1 5ECC4DE7
P 2700 4650
F 0 "#PWR0112" H 2700 4500 50  0001 C CNN
F 1 "+5V" H 2715 4823 50  0000 C CNN
F 2 "" H 2700 4650 50  0001 C CNN
F 3 "" H 2700 4650 50  0001 C CNN
	1    2700 4650
	1    0    0    -1  
$EndComp
$Comp
L power:GND #PWR0113
U 1 1 5ECC506E
P 2700 4950
F 0 "#PWR0113" H 2700 4700 50  0001 C CNN
F 1 "GND" H 2705 4777 50  0000 C CNN
F 2 "" H 2700 4950 50  0001 C CNN
F 3 "" H 2700 4950 50  0001 C CNN
	1    2700 4950
	1    0    0    -1  
$EndComp
$Comp
L power:GND #PWR0114
U 1 1 5ECC55AD
P 2550 4400
F 0 "#PWR0114" H 2550 4150 50  0001 C CNN
F 1 "GND" H 2555 4227 50  0000 C CNN
F 2 "" H 2550 4400 50  0001 C CNN
F 3 "" H 2550 4400 50  0001 C CNN
	1    2550 4400
	1    0    0    -1  
$EndComp
Wire Wire Line
	2550 4400 2250 4400
$Comp
L power:GND #PWR0115
U 1 1 5ECC8811
P 2300 3750
F 0 "#PWR0115" H 2300 3500 50  0001 C CNN
F 1 "GND" H 2305 3577 50  0000 C CNN
F 2 "" H 2300 3750 50  0001 C CNN
F 3 "" H 2300 3750 50  0001 C CNN
	1    2300 3750
	1    0    0    -1  
$EndComp
$Comp
L power:GND #PWR0116
U 1 1 5ECC8B6F
P 3200 3400
F 0 "#PWR0116" H 3200 3150 50  0001 C CNN
F 1 "GND" H 3205 3227 50  0000 C CNN
F 2 "" H 3200 3400 50  0001 C CNN
F 3 "" H 3200 3400 50  0001 C CNN
	1    3200 3400
	1    0    0    -1  
$EndComp
Wire Wire Line
	3350 3400 3200 3400
Connection ~ 7500 4350
$Comp
L power:GND #PWR0117
U 1 1 5ECD4EE1
P 6400 1900
F 0 "#PWR0117" H 6400 1650 50  0001 C CNN
F 1 "GND" H 6405 1727 50  0000 C CNN
F 2 "" H 6400 1900 50  0001 C CNN
F 3 "" H 6400 1900 50  0001 C CNN
	1    6400 1900
	1    0    0    -1  
$EndComp
$Comp
L power:+5V #PWR0118
U 1 1 5ECDAE72
P 7500 2600
F 0 "#PWR0118" H 7500 2450 50  0001 C CNN
F 1 "+5V" H 7515 2773 50  0000 C CNN
F 2 "" H 7500 2600 50  0001 C CNN
F 3 "" H 7500 2600 50  0001 C CNN
	1    7500 2600
	1    0    0    -1  
$EndComp
Wire Wire Line
	7500 2900 7500 2600
Wire Wire Line
	6950 4450 6950 3300
Connection ~ 6950 3300
Wire Wire Line
	5150 4000 6850 4000
Wire Wire Line
	6850 4000 6850 3400
Connection ~ 6850 3400
Wire Wire Line
	3350 4150 2950 4150
Wire Wire Line
	2950 4150 2950 3650
Wire Wire Line
	2300 3650 2950 3650
Wire Wire Line
	6950 4450 5150 4450
$Comp
L PC814:PC814 OK1
U 1 1 5EC5CD8A
P 5550 5150
F 0 "OK1" V 5646 4917 50  0000 R CNN
F 1 "PC814" V 5555 4917 50  0000 R CNN
F 2 "Package_DIP:DIP-4_W7.62mm" H 5550 5150 50  0001 L BNN
F 3 "" H 5550 5150 50  0001 L BNN
F 4 "unknown" H 5550 5150 50  0001 L BNN "Field4"
F 5 "9707662" H 5550 5150 50  0001 L BNN "Field5"
F 6 "" H 5550 5150 50  0001 L BNN "Field6"
	1    5550 5150
	0    -1   -1   0   
$EndComp
$Comp
L PC814:PC814 OK2
U 1 1 5EC701C3
P 6400 5150
F 0 "OK2" V 6496 4917 50  0000 R CNN
F 1 "PC814" V 6405 4917 50  0000 R CNN
F 2 "Package_DIP:DIP-4_W7.62mm" H 6400 5150 50  0001 L BNN
F 3 "" H 6400 5150 50  0001 L BNN
F 4 "unknown" H 6400 5150 50  0001 L BNN "Field4"
F 5 "9707662" H 6400 5150 50  0001 L BNN "Field5"
F 6 "" H 6400 5150 50  0001 L BNN "Field6"
	1    6400 5150
	0    -1   -1   0   
$EndComp
$Comp
L Device:R R4
U 1 1 5EC78C5B
P 5450 5850
F 0 "R4" H 5520 5896 50  0000 L CNN
F 1 "220k" H 5520 5805 50  0000 L CNN
F 2 "Resistor_THT:R_Axial_DIN0207_L6.3mm_D2.5mm_P7.62mm_Horizontal" V 5380 5850 50  0001 C CNN
F 3 "~" H 5450 5850 50  0001 C CNN
	1    5450 5850
	1    0    0    -1  
$EndComp
$Comp
L Device:R R5
U 1 1 5EC79209
P 5650 5850
F 0 "R5" H 5720 5896 50  0000 L CNN
F 1 "220k" H 5720 5805 50  0000 L CNN
F 2 "Resistor_THT:R_Axial_DIN0207_L6.3mm_D2.5mm_P7.62mm_Horizontal" V 5580 5850 50  0001 C CNN
F 3 "~" H 5650 5850 50  0001 C CNN
	1    5650 5850
	1    0    0    -1  
$EndComp
$Comp
L Device:R R6
U 1 1 5EC7A3C3
P 6300 5850
F 0 "R6" H 6370 5896 50  0000 L CNN
F 1 "220k" H 6370 5805 50  0000 L CNN
F 2 "Resistor_THT:R_Axial_DIN0207_L6.3mm_D2.5mm_P7.62mm_Horizontal" V 6230 5850 50  0001 C CNN
F 3 "~" H 6300 5850 50  0001 C CNN
	1    6300 5850
	1    0    0    -1  
$EndComp
$Comp
L Device:R R7
U 1 1 5EC7AC66
P 6500 5850
F 0 "R7" H 6570 5896 50  0000 L CNN
F 1 "220k" H 6570 5805 50  0000 L CNN
F 2 "Resistor_THT:R_Axial_DIN0207_L6.3mm_D2.5mm_P7.62mm_Horizontal" V 6430 5850 50  0001 C CNN
F 3 "~" H 6500 5850 50  0001 C CNN
	1    6500 5850
	1    0    0    -1  
$EndComp
$Comp
L Connector:Screw_Terminal_01x02 J2
U 1 1 5EC7B670
P 5550 6250
F 0 "J2" V 5422 6330 50  0000 L CNN
F 1 "Screw_Terminal_01x02" V 5513 6330 50  0000 L CNN
F 2 "TerminalBlock_4Ucon:TerminalBlock_4Ucon_1x02_P3.50mm_Vertical" H 5550 6250 50  0001 C CNN
F 3 "~" H 5550 6250 50  0001 C CNN
	1    5550 6250
	0    1    1    0   
$EndComp
$Comp
L Connector:Screw_Terminal_01x02 J3
U 1 1 5EC7D50B
P 6400 6250
F 0 "J3" V 6272 6330 50  0000 L CNN
F 1 "Screw_Terminal_01x02" V 6363 6330 50  0000 L CNN
F 2 "TerminalBlock_4Ucon:TerminalBlock_4Ucon_1x02_P3.50mm_Vertical" H 6400 6250 50  0001 C CNN
F 3 "~" H 6400 6250 50  0001 C CNN
	1    6400 6250
	0    1    1    0   
$EndComp
$Comp
L power:GND #PWR0119
U 1 1 5EC7FF99
P 6800 4650
F 0 "#PWR0119" H 6800 4400 50  0001 C CNN
F 1 "GND" H 6805 4477 50  0000 C CNN
F 2 "" H 6800 4650 50  0001 C CNN
F 3 "" H 6800 4650 50  0001 C CNN
	1    6800 4650
	1    0    0    -1  
$EndComp
$Comp
L power:GND #PWR0120
U 1 1 5EC80784
P 5900 4650
F 0 "#PWR0120" H 5900 4400 50  0001 C CNN
F 1 "GND" H 5905 4477 50  0000 C CNN
F 2 "" H 5900 4650 50  0001 C CNN
F 3 "" H 5900 4650 50  0001 C CNN
	1    5900 4650
	1    0    0    -1  
$EndComp
Wire Wire Line
	6500 4650 6800 4650
Wire Wire Line
	5650 4650 5900 4650
Wire Wire Line
	5450 4650 5450 3850
Wire Wire Line
	5450 3850 5150 3850
Wire Wire Line
	6300 4650 6300 3700
Wire Wire Line
	6300 3700 5150 3700
Wire Wire Line
	5450 5550 5450 5700
Wire Wire Line
	5650 5550 5650 5700
Wire Wire Line
	6300 5550 6300 5700
Wire Wire Line
	6500 5550 6500 5700
Wire Wire Line
	5450 6000 5450 6050
Wire Wire Line
	5650 6050 5550 6050
Wire Wire Line
	6300 6000 6300 6050
Wire Wire Line
	6500 6000 6500 6050
Wire Wire Line
	6500 6050 6400 6050
Wire Wire Line
	5650 6000 5650 6050
$Comp
L Connector:Conn_01x04_Male J1
U 1 1 5ECA7AB1
P 4100 5300
F 0 "J1" V 4254 5012 50  0000 R CNN
F 1 "Conn_01x04_Male" V 4163 5012 50  0000 R CNN
F 2 "Connector_PinHeader_2.54mm:PinHeader_1x04_P2.54mm_Vertical" H 4100 5300 50  0001 C CNN
F 3 "~" H 4100 5300 50  0001 C CNN
	1    4100 5300
	0    -1   -1   0   
$EndComp
$Comp
L power:GND #PWR0121
U 1 1 5ECAE493
P 4500 4900
F 0 "#PWR0121" H 4500 4650 50  0001 C CNN
F 1 "GND" H 4505 4727 50  0000 C CNN
F 2 "" H 4500 4900 50  0001 C CNN
F 3 "" H 4500 4900 50  0001 C CNN
	1    4500 4900
	1    0    0    -1  
$EndComp
$Comp
L power:+5V #PWR0122
U 1 1 5ECAEB98
P 4000 4900
F 0 "#PWR0122" H 4000 4750 50  0001 C CNN
F 1 "+5V" H 4015 5073 50  0000 C CNN
F 2 "" H 4000 4900 50  0001 C CNN
F 3 "" H 4000 4900 50  0001 C CNN
	1    4000 4900
	1    0    0    -1  
$EndComp
Wire Wire Line
	5150 4150 5300 4150
Wire Wire Line
	5300 4150 5300 4750
Wire Wire Line
	5300 4750 4200 4750
Wire Wire Line
	4200 4750 4200 5100
Wire Wire Line
	4100 5100 4100 4650
Wire Wire Line
	4100 4650 5200 4650
Wire Wire Line
	5200 4650 5200 4300
Wire Wire Line
	5200 4300 5150 4300
Wire Wire Line
	4000 4900 4000 5100
Wire Wire Line
	4300 4900 4500 4900
Wire Wire Line
	4300 4900 4300 5100
$EndSCHEMATC
