%TF.GenerationSoftware,KiCad,Pcbnew,5.1.6-c6e7f7d~86~ubuntu18.04.1*%
%TF.CreationDate,2020-05-23T14:20:12+02:00*%
%TF.ProjectId,esp32,65737033-322e-46b6-9963-61645f706362,rev?*%
%TF.SameCoordinates,Original*%
%TF.FileFunction,Soldermask,Top*%
%TF.FilePolarity,Negative*%
%FSLAX46Y46*%
G04 Gerber Fmt 4.6, Leading zero omitted, Abs format (unit mm)*
G04 Created by KiCad (PCBNEW 5.1.6-c6e7f7d~86~ubuntu18.04.1) date 2020-05-23 14:20:12*
%MOMM*%
%LPD*%
G01*
G04 APERTURE LIST*
%ADD10O,1.700000X1.700000*%
%ADD11R,1.700000X1.700000*%
%ADD12C,1.700000*%
%ADD13O,1.500000X1.500000*%
%ADD14C,1.500000*%
%ADD15O,1.800000X1.800000*%
%ADD16R,1.800000X1.800000*%
%ADD17O,2.100000X1.300000*%
%ADD18C,2.100000*%
%ADD19C,2.700000*%
%ADD20R,2.700000X2.700000*%
%ADD21C,2.400000*%
%ADD22R,1.600000X1.600000*%
%ADD23C,1.600000*%
%ADD24O,1.600000X1.150000*%
%ADD25R,1.600000X1.150000*%
G04 APERTURE END LIST*
D10*
%TO.C,OK2*%
X166370000Y-78740000D03*
X173990000Y-76200000D03*
X166370000Y-76200000D03*
D11*
X173990000Y-78740000D03*
%TD*%
%TO.C,OK1*%
X173990000Y-91440000D03*
D10*
X166370000Y-88900000D03*
X173990000Y-88900000D03*
X166370000Y-91440000D03*
%TD*%
%TO.C,R6*%
X184150000Y-80010000D03*
D12*
X176530000Y-80010000D03*
%TD*%
D10*
%TO.C,R7*%
X184150000Y-73660000D03*
D12*
X176530000Y-73660000D03*
%TD*%
%TO.C,R5*%
X176530000Y-87630000D03*
D10*
X184150000Y-87630000D03*
%TD*%
%TO.C,R4*%
X184150000Y-93980000D03*
D12*
X176530000Y-93980000D03*
%TD*%
D13*
%TO.C,R3*%
X128270000Y-87630000D03*
D14*
X123190000Y-87630000D03*
%TD*%
D13*
%TO.C,R2*%
X118110000Y-52070000D03*
D14*
X113030000Y-52070000D03*
%TD*%
D13*
%TO.C,R1*%
X109220000Y-87630000D03*
D14*
X104140000Y-87630000D03*
%TD*%
D15*
%TO.C,DALLAS_TEMP1*%
X104140000Y-95250000D03*
X106680000Y-95250000D03*
D16*
X109220000Y-95250000D03*
%TD*%
%TO.C,J1*%
X148590000Y-118110000D03*
D15*
X151130000Y-118110000D03*
X153670000Y-118110000D03*
X156210000Y-118110000D03*
%TD*%
D17*
%TO.C,U1*%
X118110000Y-113030000D03*
X143510000Y-113030000D03*
X118110000Y-110490000D03*
X143510000Y-110490000D03*
X118110000Y-107950000D03*
X143510000Y-107950000D03*
X118110000Y-105410000D03*
X143510000Y-105410000D03*
X118110000Y-102870000D03*
X143510000Y-102870000D03*
X118110000Y-100330000D03*
X143510000Y-100330000D03*
X118110000Y-97790000D03*
X143510000Y-97790000D03*
X118110000Y-95250000D03*
X143510000Y-95250000D03*
X118110000Y-92710000D03*
X143510000Y-92710000D03*
X118110000Y-90170000D03*
X143510000Y-90170000D03*
%TD*%
D16*
%TO.C,DHT1*%
X110490000Y-106680000D03*
D15*
X107950000Y-106680000D03*
X105410000Y-106680000D03*
X102870000Y-106680000D03*
%TD*%
D18*
%TO.C,U2*%
X162560000Y-104140000D03*
X162560000Y-106680000D03*
X162560000Y-109220000D03*
X162560000Y-111760000D03*
X162560000Y-114300000D03*
X162560000Y-116840000D03*
X162560000Y-119380000D03*
X162560000Y-121920000D03*
%TD*%
D17*
%TO.C,U3*%
X193040000Y-104140000D03*
X180340000Y-104140000D03*
X193040000Y-106680000D03*
X180340000Y-106680000D03*
X193040000Y-109220000D03*
X180340000Y-109220000D03*
X193040000Y-111760000D03*
X180340000Y-111760000D03*
X193040000Y-114300000D03*
X180340000Y-114300000D03*
X193040000Y-116840000D03*
X180340000Y-116840000D03*
%TD*%
D16*
%TO.C,WS_2812*%
X104140000Y-82550000D03*
D15*
X106680000Y-82550000D03*
X109220000Y-82550000D03*
%TD*%
D19*
%TO.C,J2*%
X191770000Y-92400000D03*
D20*
X191770000Y-88900000D03*
%TD*%
%TO.C,J3*%
X190500000Y-74930000D03*
D19*
X190500000Y-78430000D03*
%TD*%
D21*
%TO.C,P1*%
X104380000Y-61620000D03*
D22*
X106680000Y-57150000D03*
D23*
X109220000Y-56130000D03*
X106680000Y-55110000D03*
D21*
X104380000Y-49620000D03*
D23*
X109220000Y-54090000D03*
%TD*%
D24*
%TO.C,Q1*%
X115570000Y-57150000D03*
X115570000Y-55880000D03*
D25*
X115570000Y-58420000D03*
%TD*%
D16*
%TO.C,MIC1*%
X162560000Y-48260000D03*
D15*
X162560000Y-50800000D03*
X162560000Y-53340000D03*
%TD*%
D16*
%TO.C,MQ1*%
X176530000Y-55880000D03*
D15*
X176530000Y-53340000D03*
X176530000Y-50800000D03*
X176530000Y-48260000D03*
%TD*%
M02*
