<?xml version="1.0" standalone="no"?>
 <!DOCTYPE svg PUBLIC "-//W3C//DTD SVG 1.1//EN" 
 "http://www.w3.org/Graphics/SVG/1.1/DTD/svg11.dtd"> 
<svg
  xmlns:svg="http://www.w3.org/2000/svg"
  xmlns="http://www.w3.org/2000/svg"
  xmlns:xlink="http://www.w3.org/1999/xlink"
  version="1.1"
  width="29.700220cm" height="21.000720cm" viewBox="0 0 116930 82680">
<title>SVG Picture created as esp32-B_Cu.svg date 2020/05/20 13:39:08 </title>
  <desc>Picture generated by PCBNEW </desc>
<g style="fill:#000000; fill-opacity:1;stroke:#000000; stroke-opacity:1;
stroke-linecap:round; stroke-linejoin:round;"
 transform="translate(0 0) scale(1 1)">
</g>
<g style="fill:#000000; fill-opacity:0.0; 
stroke:#000000; stroke-width:-0.000393701; stroke-opacity:1; 
stroke-linecap:round; stroke-linejoin:round;">
</g>
<g style="fill:#000000; fill-opacity:0.0; 
stroke:#000000; stroke-width:39.3701; stroke-opacity:1; 
stroke-linecap:round; stroke-linejoin:round;">
</g>
<g style="fill:#000000; fill-opacity:0.0; 
stroke:#000000; stroke-width:59.0551; stroke-opacity:1; 
stroke-linecap:round; stroke-linejoin:round;">
<rect x="69685.9" y="65357.2" width="42519.7" height="12598.4" rx="0" />
</g>
<g style="fill:#000000; fill-opacity:0.0; 
stroke:#000000; stroke-width:39.3701; stroke-opacity:1; 
stroke-linecap:round; stroke-linejoin:round;">
</g>
<g style="fill:#000000; fill-opacity:0.0; 
stroke:#000000; stroke-width:59.0551; stroke-opacity:1; 
stroke-linecap:round; stroke-linejoin:round;">
<rect x="3937.01" y="3937.01" width="109056" height="74806" rx="0" />
</g>
<g style="fill:#000000; fill-opacity:0.0; 
stroke:#000000; stroke-width:39.3701; stroke-opacity:1; 
stroke-linecap:round; stroke-linejoin:round;">
</g>
<g style="fill:#000000; fill-opacity:0.0; 
stroke:#000000; stroke-width:59.0551; stroke-opacity:1; 
stroke-linecap:round; stroke-linejoin:round;">
<rect x="4724.41" y="4724.41" width="107481" height="73231.2" rx="0" />
</g>
<g style="fill:#000000; fill-opacity:0.0; 
stroke:#000000; stroke-width:39.3701; stroke-opacity:1; 
stroke-linecap:round; stroke-linejoin:round;">
</g>
<g style="fill:#000000; fill-opacity:0.0; 
stroke:#000000; stroke-width:59.0551; stroke-opacity:1; 
stroke-linecap:round; stroke-linejoin:round;">
<path d="M23622 4724
L23622 3937
" />
</g>
<g style="fill:#000000; fill-opacity:0.0; 
stroke:#000000; stroke-width:39.3701; stroke-opacity:1; 
stroke-linecap:round; stroke-linejoin:round;">
</g>
<g style="fill:#000000; fill-opacity:0.0; 
stroke:#000000; stroke-width:59.0551; stroke-opacity:1; 
stroke-linecap:round; stroke-linejoin:round;">
<path d="M43307 4724
L43307 3937
" />
</g>
<g style="fill:#000000; fill-opacity:0.0; 
stroke:#000000; stroke-width:39.3701; stroke-opacity:1; 
stroke-linecap:round; stroke-linejoin:round;">
</g>
<g style="fill:#000000; fill-opacity:0.0; 
stroke:#000000; stroke-width:59.0551; stroke-opacity:1; 
stroke-linecap:round; stroke-linejoin:round;">
<path d="M62992 4724
L62992 3937
" />
</g>
<g style="fill:#000000; fill-opacity:0.0; 
stroke:#000000; stroke-width:39.3701; stroke-opacity:1; 
stroke-linecap:round; stroke-linejoin:round;">
</g>
<g style="fill:#000000; fill-opacity:0.0; 
stroke:#000000; stroke-width:59.0551; stroke-opacity:1; 
stroke-linecap:round; stroke-linejoin:round;">
<path d="M82677 4724
L82677 3937
" />
</g>
<g style="fill:#000000; fill-opacity:0.0; 
stroke:#000000; stroke-width:39.3701; stroke-opacity:1; 
stroke-linecap:round; stroke-linejoin:round;">
</g>
<g style="fill:#000000; fill-opacity:0.0; 
stroke:#000000; stroke-width:59.0551; stroke-opacity:1; 
stroke-linecap:round; stroke-linejoin:round;">
<path d="M102362 4724
L102362 3937
" />
</g>
<g style="fill:#000000; fill-opacity:0.0; 
stroke:#000000; stroke-width:39.3701; stroke-opacity:1; 
stroke-linecap:round; stroke-linejoin:round;">
</g>
<g style="fill:#000000; fill-opacity:0.0; 
stroke:#000000; stroke-width:59.0551; stroke-opacity:1; 
stroke-linecap:round; stroke-linejoin:round;">
<text x="13779.5" y="4586.61"
textLength="546.494" font-size="682.415" lengthAdjust="spacingAndGlyphs"
text-anchor="start" opacity="0">1</text>
<path d="M14199 4562
L13906 4562
" />
<path d="M14052 4562
L14052 4050
L14004 4123
L13955 4172
L13906 4196
" />
</g>
<g style="fill:#000000; fill-opacity:0.0; 
stroke:#000000; stroke-width:39.3701; stroke-opacity:1; 
stroke-linecap:round; stroke-linejoin:round;">
</g>
<g style="fill:#000000; fill-opacity:0.0; 
stroke:#000000; stroke-width:59.0551; stroke-opacity:1; 
stroke-linecap:round; stroke-linejoin:round;">
<text x="33464.6" y="4586.61"
textLength="546.494" font-size="682.415" lengthAdjust="spacingAndGlyphs"
text-anchor="start" opacity="0">2</text>
<path d="M33591 4099
L33615 4074
L33664 4050
L33786 4050
L33835 4074
L33859 4099
L33884 4147
L33884 4196
L33859 4269
L33567 4562
L33884 4562
" />
</g>
<g style="fill:#000000; fill-opacity:0.0; 
stroke:#000000; stroke-width:39.3701; stroke-opacity:1; 
stroke-linecap:round; stroke-linejoin:round;">
</g>
<g style="fill:#000000; fill-opacity:0.0; 
stroke:#000000; stroke-width:59.0551; stroke-opacity:1; 
stroke-linecap:round; stroke-linejoin:round;">
<text x="53149.6" y="4586.61"
textLength="546.494" font-size="682.415" lengthAdjust="spacingAndGlyphs"
text-anchor="start" opacity="0">3</text>
<path d="M53252 4050
L53569 4050
L53398 4245
L53471 4245
L53520 4269
L53544 4294
L53569 4342
L53569 4464
L53544 4513
L53520 4537
L53471 4562
L53325 4562
L53276 4537
L53252 4513
" />
</g>
<g style="fill:#000000; fill-opacity:0.0; 
stroke:#000000; stroke-width:39.3701; stroke-opacity:1; 
stroke-linecap:round; stroke-linejoin:round;">
</g>
<g style="fill:#000000; fill-opacity:0.0; 
stroke:#000000; stroke-width:59.0551; stroke-opacity:1; 
stroke-linecap:round; stroke-linejoin:round;">
<text x="72834.6" y="4586.61"
textLength="546.494" font-size="682.415" lengthAdjust="spacingAndGlyphs"
text-anchor="start" opacity="0">4</text>
<path d="M73205 4221
L73205 4562
" />
<path d="M73083 4026
L72961 4391
L73278 4391
" />
</g>
<g style="fill:#000000; fill-opacity:0.0; 
stroke:#000000; stroke-width:39.3701; stroke-opacity:1; 
stroke-linecap:round; stroke-linejoin:round;">
</g>
<g style="fill:#000000; fill-opacity:0.0; 
stroke:#000000; stroke-width:59.0551; stroke-opacity:1; 
stroke-linecap:round; stroke-linejoin:round;">
<text x="92519.7" y="4586.61"
textLength="546.494" font-size="682.415" lengthAdjust="spacingAndGlyphs"
text-anchor="start" opacity="0">5</text>
<path d="M92914 4050
L92671 4050
L92646 4294
L92671 4269
L92719 4245
L92841 4245
L92890 4269
L92914 4294
L92939 4342
L92939 4464
L92914 4513
L92890 4537
L92841 4562
L92719 4562
L92671 4537
L92646 4513
" />
</g>
<g style="fill:#000000; fill-opacity:0.0; 
stroke:#000000; stroke-width:39.3701; stroke-opacity:1; 
stroke-linecap:round; stroke-linejoin:round;">
</g>
<g style="fill:#000000; fill-opacity:0.0; 
stroke:#000000; stroke-width:59.0551; stroke-opacity:1; 
stroke-linecap:round; stroke-linejoin:round;">
<text x="112205" y="4586.61"
textLength="546.494" font-size="682.415" lengthAdjust="spacingAndGlyphs"
text-anchor="start" opacity="0">6</text>
<path d="M112575 4050
L112477 4050
L112429 4074
L112404 4099
L112356 4172
L112331 4269
L112331 4464
L112356 4513
L112380 4537
L112429 4562
L112526 4562
L112575 4537
L112599 4513
L112624 4464
L112624 4342
L112599 4294
L112575 4269
L112526 4245
L112429 4245
L112380 4269
L112356 4294
L112331 4342
" />
</g>
<g style="fill:#000000; fill-opacity:0.0; 
stroke:#000000; stroke-width:39.3701; stroke-opacity:1; 
stroke-linecap:round; stroke-linejoin:round;">
</g>
<g style="fill:#000000; fill-opacity:0.0; 
stroke:#000000; stroke-width:59.0551; stroke-opacity:1; 
stroke-linecap:round; stroke-linejoin:round;">
<path d="M23622 77955
L23622 78742
" />
</g>
<g style="fill:#000000; fill-opacity:0.0; 
stroke:#000000; stroke-width:39.3701; stroke-opacity:1; 
stroke-linecap:round; stroke-linejoin:round;">
</g>
<g style="fill:#000000; fill-opacity:0.0; 
stroke:#000000; stroke-width:59.0551; stroke-opacity:1; 
stroke-linecap:round; stroke-linejoin:round;">
<path d="M43307 77955
L43307 78742
" />
</g>
<g style="fill:#000000; fill-opacity:0.0; 
stroke:#000000; stroke-width:39.3701; stroke-opacity:1; 
stroke-linecap:round; stroke-linejoin:round;">
</g>
<g style="fill:#000000; fill-opacity:0.0; 
stroke:#000000; stroke-width:59.0551; stroke-opacity:1; 
stroke-linecap:round; stroke-linejoin:round;">
<path d="M62992 77955
L62992 78742
" />
</g>
<g style="fill:#000000; fill-opacity:0.0; 
stroke:#000000; stroke-width:39.3701; stroke-opacity:1; 
stroke-linecap:round; stroke-linejoin:round;">
</g>
<g style="fill:#000000; fill-opacity:0.0; 
stroke:#000000; stroke-width:59.0551; stroke-opacity:1; 
stroke-linecap:round; stroke-linejoin:round;">
<path d="M82677 77955
L82677 78742
" />
</g>
<g style="fill:#000000; fill-opacity:0.0; 
stroke:#000000; stroke-width:39.3701; stroke-opacity:1; 
stroke-linecap:round; stroke-linejoin:round;">
</g>
<g style="fill:#000000; fill-opacity:0.0; 
stroke:#000000; stroke-width:59.0551; stroke-opacity:1; 
stroke-linecap:round; stroke-linejoin:round;">
<path d="M102362 77955
L102362 78742
" />
</g>
<g style="fill:#000000; fill-opacity:0.0; 
stroke:#000000; stroke-width:39.3701; stroke-opacity:1; 
stroke-linecap:round; stroke-linejoin:round;">
</g>
<g style="fill:#000000; fill-opacity:0.0; 
stroke:#000000; stroke-width:59.0551; stroke-opacity:1; 
stroke-linecap:round; stroke-linejoin:round;">
<text x="13779.5" y="78605.2"
textLength="546.494" font-size="682.415" lengthAdjust="spacingAndGlyphs"
text-anchor="start" opacity="0">1</text>
<path d="M14199 78580
L13906 78580
" />
<path d="M14052 78580
L14052 78069
L14004 78142
L13955 78190
L13906 78215
" />
</g>
<g style="fill:#000000; fill-opacity:0.0; 
stroke:#000000; stroke-width:39.3701; stroke-opacity:1; 
stroke-linecap:round; stroke-linejoin:round;">
</g>
<g style="fill:#000000; fill-opacity:0.0; 
stroke:#000000; stroke-width:59.0551; stroke-opacity:1; 
stroke-linecap:round; stroke-linejoin:round;">
<text x="33464.6" y="78605.2"
textLength="546.494" font-size="682.415" lengthAdjust="spacingAndGlyphs"
text-anchor="start" opacity="0">2</text>
<path d="M33591 78117
L33615 78093
L33664 78069
L33786 78069
L33835 78093
L33859 78117
L33884 78166
L33884 78215
L33859 78288
L33567 78580
L33884 78580
" />
</g>
<g style="fill:#000000; fill-opacity:0.0; 
stroke:#000000; stroke-width:39.3701; stroke-opacity:1; 
stroke-linecap:round; stroke-linejoin:round;">
</g>
<g style="fill:#000000; fill-opacity:0.0; 
stroke:#000000; stroke-width:59.0551; stroke-opacity:1; 
stroke-linecap:round; stroke-linejoin:round;">
<text x="53149.6" y="78605.2"
textLength="546.494" font-size="682.415" lengthAdjust="spacingAndGlyphs"
text-anchor="start" opacity="0">3</text>
<path d="M53252 78069
L53569 78069
L53398 78263
L53471 78263
L53520 78288
L53544 78312
L53569 78361
L53569 78483
L53544 78532
L53520 78556
L53471 78580
L53325 78580
L53276 78556
L53252 78532
" />
</g>
<g style="fill:#000000; fill-opacity:0.0; 
stroke:#000000; stroke-width:39.3701; stroke-opacity:1; 
stroke-linecap:round; stroke-linejoin:round;">
</g>
<g style="fill:#000000; fill-opacity:0.0; 
stroke:#000000; stroke-width:59.0551; stroke-opacity:1; 
stroke-linecap:round; stroke-linejoin:round;">
<text x="72834.6" y="78605.2"
textLength="546.494" font-size="682.415" lengthAdjust="spacingAndGlyphs"
text-anchor="start" opacity="0">4</text>
<path d="M73205 78239
L73205 78580
" />
<path d="M73083 78044
L72961 78410
L73278 78410
" />
</g>
<g style="fill:#000000; fill-opacity:0.0; 
stroke:#000000; stroke-width:39.3701; stroke-opacity:1; 
stroke-linecap:round; stroke-linejoin:round;">
</g>
<g style="fill:#000000; fill-opacity:0.0; 
stroke:#000000; stroke-width:59.0551; stroke-opacity:1; 
stroke-linecap:round; stroke-linejoin:round;">
<text x="92519.7" y="78605.2"
textLength="546.494" font-size="682.415" lengthAdjust="spacingAndGlyphs"
text-anchor="start" opacity="0">5</text>
<path d="M92914 78069
L92671 78069
L92646 78312
L92671 78288
L92719 78263
L92841 78263
L92890 78288
L92914 78312
L92939 78361
L92939 78483
L92914 78532
L92890 78556
L92841 78580
L92719 78580
L92671 78556
L92646 78532
" />
</g>
<g style="fill:#000000; fill-opacity:0.0; 
stroke:#000000; stroke-width:39.3701; stroke-opacity:1; 
stroke-linecap:round; stroke-linejoin:round;">
</g>
<g style="fill:#000000; fill-opacity:0.0; 
stroke:#000000; stroke-width:59.0551; stroke-opacity:1; 
stroke-linecap:round; stroke-linejoin:round;">
<text x="112205" y="78605.2"
textLength="546.494" font-size="682.415" lengthAdjust="spacingAndGlyphs"
text-anchor="start" opacity="0">6</text>
<path d="M112575 78069
L112477 78069
L112429 78093
L112404 78117
L112356 78190
L112331 78288
L112331 78483
L112356 78532
L112380 78556
L112429 78580
L112526 78580
L112575 78556
L112599 78532
L112624 78483
L112624 78361
L112599 78312
L112575 78288
L112526 78263
L112429 78263
L112380 78288
L112356 78312
L112331 78361
" />
</g>
<g style="fill:#000000; fill-opacity:0.0; 
stroke:#000000; stroke-width:39.3701; stroke-opacity:1; 
stroke-linecap:round; stroke-linejoin:round;">
</g>
<g style="fill:#000000; fill-opacity:0.0; 
stroke:#000000; stroke-width:59.0551; stroke-opacity:1; 
stroke-linecap:round; stroke-linejoin:round;">
<path d="M3937 23622
L4724 23622
" />
</g>
<g style="fill:#000000; fill-opacity:0.0; 
stroke:#000000; stroke-width:39.3701; stroke-opacity:1; 
stroke-linecap:round; stroke-linejoin:round;">
</g>
<g style="fill:#000000; fill-opacity:0.0; 
stroke:#000000; stroke-width:59.0551; stroke-opacity:1; 
stroke-linecap:round; stroke-linejoin:round;">
<path d="M3937 43307
L4724 43307
" />
</g>
<g style="fill:#000000; fill-opacity:0.0; 
stroke:#000000; stroke-width:39.3701; stroke-opacity:1; 
stroke-linecap:round; stroke-linejoin:round;">
</g>
<g style="fill:#000000; fill-opacity:0.0; 
stroke:#000000; stroke-width:59.0551; stroke-opacity:1; 
stroke-linecap:round; stroke-linejoin:round;">
<path d="M3937 62992
L4724 62992
" />
</g>
<g style="fill:#000000; fill-opacity:0.0; 
stroke:#000000; stroke-width:39.3701; stroke-opacity:1; 
stroke-linecap:round; stroke-linejoin:round;">
</g>
<g style="fill:#000000; fill-opacity:0.0; 
stroke:#000000; stroke-width:59.0551; stroke-opacity:1; 
stroke-linecap:round; stroke-linejoin:round;">
<text x="4330.71" y="14035.4"
textLength="497.75" font-size="682.415" lengthAdjust="spacingAndGlyphs"
text-anchor="middle" opacity="0">A</text>
<path d="M4208 13864
L4452 13864
" />
<path d="M4160 14011
L4330 13499
L4501 14011
" />
</g>
<g style="fill:#000000; fill-opacity:0.0; 
stroke:#000000; stroke-width:39.3701; stroke-opacity:1; 
stroke-linecap:round; stroke-linejoin:round;">
</g>
<g style="fill:#000000; fill-opacity:0.0; 
stroke:#000000; stroke-width:59.0551; stroke-opacity:1; 
stroke-linecap:round; stroke-linejoin:round;">
<text x="4330.71" y="33720.5"
textLength="570.866" font-size="682.415" lengthAdjust="spacingAndGlyphs"
text-anchor="middle" opacity="0">B</text>
<path d="M4367 33428
L4440 33452
L4464 33476
L4489 33525
L4489 33598
L4464 33647
L4440 33671
L4391 33696
L4196 33696
L4196 33184
L4367 33184
L4416 33208
L4440 33233
L4464 33281
L4464 33330
L4440 33379
L4416 33403
L4367 33428
L4196 33428
" />
</g>
<g style="fill:#000000; fill-opacity:0.0; 
stroke:#000000; stroke-width:39.3701; stroke-opacity:1; 
stroke-linecap:round; stroke-linejoin:round;">
</g>
<g style="fill:#000000; fill-opacity:0.0; 
stroke:#000000; stroke-width:59.0551; stroke-opacity:1; 
stroke-linecap:round; stroke-linejoin:round;">
<text x="4330.71" y="53405.5"
textLength="570.866" font-size="682.415" lengthAdjust="spacingAndGlyphs"
text-anchor="middle" opacity="0">C</text>
<path d="M4489 53332
L4464 53356
L4391 53381
L4342 53381
L4269 53356
L4221 53308
L4196 53259
L4172 53161
L4172 53088
L4196 52991
L4221 52942
L4269 52893
L4342 52869
L4391 52869
L4464 52893
L4489 52918
" />
</g>
<g style="fill:#000000; fill-opacity:0.0; 
stroke:#000000; stroke-width:39.3701; stroke-opacity:1; 
stroke-linecap:round; stroke-linejoin:round;">
</g>
<g style="fill:#000000; fill-opacity:0.0; 
stroke:#000000; stroke-width:59.0551; stroke-opacity:1; 
stroke-linecap:round; stroke-linejoin:round;">
<text x="4330.71" y="73090.6"
textLength="570.866" font-size="682.415" lengthAdjust="spacingAndGlyphs"
text-anchor="middle" opacity="0">D</text>
<path d="M4196 73066
L4196 72554
L4318 72554
L4391 72578
L4440 72627
L4464 72676
L4489 72773
L4489 72846
L4464 72944
L4440 72993
L4391 73041
L4318 73066
L4196 73066
" />
</g>
<g style="fill:#000000; fill-opacity:0.0; 
stroke:#000000; stroke-width:39.3701; stroke-opacity:1; 
stroke-linecap:round; stroke-linejoin:round;">
</g>
<g style="fill:#000000; fill-opacity:0.0; 
stroke:#000000; stroke-width:59.0551; stroke-opacity:1; 
stroke-linecap:round; stroke-linejoin:round;">
<path d="M112992 23622
L112205 23622
" />
</g>
<g style="fill:#000000; fill-opacity:0.0; 
stroke:#000000; stroke-width:39.3701; stroke-opacity:1; 
stroke-linecap:round; stroke-linejoin:round;">
</g>
<g style="fill:#000000; fill-opacity:0.0; 
stroke:#000000; stroke-width:59.0551; stroke-opacity:1; 
stroke-linecap:round; stroke-linejoin:round;">
<path d="M112992 43307
L112205 43307
" />
</g>
<g style="fill:#000000; fill-opacity:0.0; 
stroke:#000000; stroke-width:39.3701; stroke-opacity:1; 
stroke-linecap:round; stroke-linejoin:round;">
</g>
<g style="fill:#000000; fill-opacity:0.0; 
stroke:#000000; stroke-width:59.0551; stroke-opacity:1; 
stroke-linecap:round; stroke-linejoin:round;">
<path d="M112992 62992
L112205 62992
" />
</g>
<g style="fill:#000000; fill-opacity:0.0; 
stroke:#000000; stroke-width:39.3701; stroke-opacity:1; 
stroke-linecap:round; stroke-linejoin:round;">
</g>
<g style="fill:#000000; fill-opacity:0.0; 
stroke:#000000; stroke-width:59.0551; stroke-opacity:1; 
stroke-linecap:round; stroke-linejoin:round;">
<text x="112599" y="14035.4"
textLength="497.75" font-size="682.415" lengthAdjust="spacingAndGlyphs"
text-anchor="middle" opacity="0">A</text>
<path d="M112477 13864
L112721 13864
" />
<path d="M112428 14011
L112599 13499
L112769 14011
" />
</g>
<g style="fill:#000000; fill-opacity:0.0; 
stroke:#000000; stroke-width:39.3701; stroke-opacity:1; 
stroke-linecap:round; stroke-linejoin:round;">
</g>
<g style="fill:#000000; fill-opacity:0.0; 
stroke:#000000; stroke-width:59.0551; stroke-opacity:1; 
stroke-linecap:round; stroke-linejoin:round;">
<text x="112599" y="33720.5"
textLength="570.866" font-size="682.415" lengthAdjust="spacingAndGlyphs"
text-anchor="middle" opacity="0">B</text>
<path d="M112635 33428
L112708 33452
L112733 33476
L112757 33525
L112757 33598
L112733 33647
L112708 33671
L112660 33696
L112465 33696
L112465 33184
L112635 33184
L112684 33208
L112708 33233
L112733 33281
L112733 33330
L112708 33379
L112684 33403
L112635 33428
L112465 33428
" />
</g>
<g style="fill:#000000; fill-opacity:0.0; 
stroke:#000000; stroke-width:39.3701; stroke-opacity:1; 
stroke-linecap:round; stroke-linejoin:round;">
</g>
<g style="fill:#000000; fill-opacity:0.0; 
stroke:#000000; stroke-width:59.0551; stroke-opacity:1; 
stroke-linecap:round; stroke-linejoin:round;">
<text x="112599" y="53405.5"
textLength="570.866" font-size="682.415" lengthAdjust="spacingAndGlyphs"
text-anchor="middle" opacity="0">C</text>
<path d="M112757 53332
L112733 53356
L112660 53381
L112611 53381
L112538 53356
L112489 53308
L112465 53259
L112440 53161
L112440 53088
L112465 52991
L112489 52942
L112538 52893
L112611 52869
L112660 52869
L112733 52893
L112757 52918
" />
</g>
<g style="fill:#000000; fill-opacity:0.0; 
stroke:#000000; stroke-width:39.3701; stroke-opacity:1; 
stroke-linecap:round; stroke-linejoin:round;">
</g>
<g style="fill:#000000; fill-opacity:0.0; 
stroke:#000000; stroke-width:59.0551; stroke-opacity:1; 
stroke-linecap:round; stroke-linejoin:round;">
<text x="112599" y="73090.6"
textLength="570.866" font-size="682.415" lengthAdjust="spacingAndGlyphs"
text-anchor="middle" opacity="0">D</text>
<path d="M112465 73066
L112465 72554
L112587 72554
L112660 72578
L112708 72627
L112733 72676
L112757 72773
L112757 72846
L112733 72944
L112708 72993
L112660 73041
L112587 73066
L112465 73066
" />
</g>
<g style="fill:#000000; fill-opacity:0.0; 
stroke:#000000; stroke-width:39.3701; stroke-opacity:1; 
stroke-linecap:round; stroke-linejoin:round;">
</g>
<g style="fill:#000000; fill-opacity:0.0; 
stroke:#000000; stroke-width:59.0551; stroke-opacity:1; 
stroke-linecap:round; stroke-linejoin:round;">
<text x="78741" y="76321.7"
textLength="2758.72" font-size="787.402" lengthAdjust="spacingAndGlyphs"
text-anchor="start" opacity="0">Date: </text>
<path d="M78911 76293
L78911 75703
L79051 75703
L79136 75731
L79192 75787
L79220 75843
L79248 75956
L79248 76040
L79220 76153
L79192 76209
L79136 76265
L79051 76293
L78911 76293
" />
<path d="M79754 76293
L79754 75984
L79726 75928
L79670 75899
L79557 75899
L79501 75928
" />
<path d="M79754 76265
L79698 76293
L79557 76293
L79501 76265
L79473 76209
L79473 76153
L79501 76096
L79557 76068
L79698 76068
L79754 76040
" />
<path d="M79951 75899
L80176 75899
" />
<path d="M80036 75703
L80036 76209
L80064 76265
L80120 76293
L80176 76293
" />
<path d="M80598 76265
L80542 76293
L80429 76293
L80373 76265
L80345 76209
L80345 75984
L80373 75928
L80429 75899
L80542 75899
L80598 75928
L80626 75984
L80626 76040
L80345 76096
" />
<path d="M80879 76237
L80907 76265
L80879 76293
L80851 76265
L80879 76237
L80879 76293
" />
<path d="M80879 75928
L80907 75956
L80879 75984
L80851 75956
L80879 75928
L80879 75984
" />
</g>
<g style="fill:#000000; fill-opacity:0.0; 
stroke:#000000; stroke-width:39.3701; stroke-opacity:1; 
stroke-linecap:round; stroke-linejoin:round;">
</g>
<g style="fill:#000000; fill-opacity:0.0; 
stroke:#000000; stroke-width:59.0551; stroke-opacity:1; 
stroke-linecap:round; stroke-linejoin:round;">
<path d="M69685 76577
L112205 76577
" />
</g>
<g style="fill:#000000; fill-opacity:0.0; 
stroke:#000000; stroke-width:39.3701; stroke-opacity:1; 
stroke-linecap:round; stroke-linejoin:round;">
</g>
<g style="fill:#000000; fill-opacity:0.0; 
stroke:#000000; stroke-width:59.0551; stroke-opacity:1; 
stroke-linecap:round; stroke-linejoin:round;">
<text x="70079.6" y="77424.1"
textLength="23259.3" font-size="787.402" lengthAdjust="spacingAndGlyphs"
text-anchor="start" opacity="0">KiCad E.D.A.  kicad 5.1.6-c6e7f7d~86~ubuntu18.04.1</text>
<path d="M70249 77395
L70249 76805
" />
<path d="M70587 77395
L70334 77058
" />
<path d="M70587 76805
L70249 77142
" />
<path d="M70840 77395
L70840 77002
" />
<path d="M70840 76805
L70812 76833
L70840 76861
L70868 76833
L70840 76805
L70840 76861
" />
<path d="M71458 77339
L71430 77367
L71346 77395
L71290 77395
L71205 77367
L71149 77311
L71121 77255
L71093 77142
L71093 77058
L71121 76946
L71149 76889
L71205 76833
L71290 76805
L71346 76805
L71430 76833
L71458 76861
" />
<path d="M71965 77395
L71965 77086
L71937 77030
L71880 77002
L71768 77002
L71712 77030
" />
<path d="M71965 77367
L71908 77395
L71768 77395
L71712 77367
L71683 77311
L71683 77255
L71712 77199
L71768 77171
L71908 77171
L71965 77142
" />
<path d="M72499 77395
L72499 76805
" />
<path d="M72499 77367
L72443 77395
L72330 77395
L72274 77367
L72246 77339
L72218 77283
L72218 77114
L72246 77058
L72274 77030
L72330 77002
L72443 77002
L72499 77030
" />
<path d="M73230 77086
L73427 77086
" />
<path d="M73511 77395
L73230 77395
L73230 76805
L73511 76805
" />
<path d="M73764 77339
L73793 77367
L73764 77395
L73736 77367
L73764 77339
L73764 77395
" />
<path d="M74046 77395
L74046 76805
L74186 76805
L74271 76833
L74327 76889
L74355 76946
L74383 77058
L74383 77142
L74355 77255
L74327 77311
L74271 77367
L74186 77395
L74046 77395
" />
<path d="M74636 77339
L74664 77367
L74636 77395
L74608 77367
L74636 77339
L74636 77395
" />
<path d="M74889 77227
L75171 77227
" />
<path d="M74833 77395
L75030 76805
L75227 77395
" />
<path d="M75424 77339
L75452 77367
L75424 77395
L75395 77367
L75424 77339
L75424 77395
" />
<path d="M76605 77395
L76605 76805
" />
<path d="M76661 77171
L76830 77395
" />
<path d="M76830 77002
L76605 77227
" />
<path d="M77083 77395
L77083 77002
" />
<path d="M77083 76805
L77055 76833
L77083 76861
L77111 76833
L77083 76805
L77083 76861
" />
<path d="M77617 77367
L77561 77395
L77448 77395
L77392 77367
L77364 77339
L77336 77283
L77336 77114
L77364 77058
L77392 77030
L77448 77002
L77561 77002
L77617 77030
" />
<path d="M78123 77395
L78123 77086
L78095 77030
L78039 77002
L77926 77002
L77870 77030
" />
<path d="M78123 77367
L78067 77395
L77926 77395
L77870 77367
L77842 77311
L77842 77255
L77870 77199
L77926 77171
L78067 77171
L78123 77142
" />
<path d="M78658 77395
L78658 76805
" />
<path d="M78658 77367
L78601 77395
L78489 77395
L78433 77367
L78404 77339
L78376 77283
L78376 77114
L78404 77058
L78433 77030
L78489 77002
L78601 77002
L78658 77030
" />
<path d="M79670 76805
L79389 76805
L79361 77086
L79389 77058
L79445 77030
L79586 77030
L79642 77058
L79670 77086
L79698 77142
L79698 77283
L79670 77339
L79642 77367
L79586 77395
L79445 77395
L79389 77367
L79361 77339
" />
<path d="M79951 77339
L79979 77367
L79951 77395
L79923 77367
L79951 77339
L79951 77395
" />
<path d="M80542 77395
L80204 77395
" />
<path d="M80373 77395
L80373 76805
L80317 76889
L80260 76946
L80204 76974
" />
<path d="M80795 77339
L80823 77367
L80795 77395
L80767 77367
L80795 77339
L80795 77395
" />
<path d="M81329 76805
L81217 76805
L81160 76833
L81132 76861
L81076 76946
L81048 77058
L81048 77283
L81076 77339
L81104 77367
L81160 77395
L81273 77395
L81329 77367
L81357 77339
L81385 77283
L81385 77142
L81357 77086
L81329 77058
L81273 77030
L81160 77030
L81104 77058
L81076 77086
L81048 77142
" />
<path d="M81638 77171
L82088 77171
" />
<path d="M82623 77367
L82566 77395
L82454 77395
L82398 77367
L82370 77339
L82341 77283
L82341 77114
L82370 77058
L82398 77030
L82454 77002
L82566 77002
L82623 77030
" />
<path d="M83129 76805
L83016 76805
L82960 76833
L82932 76861
L82876 76946
L82848 77058
L82848 77283
L82876 77339
L82904 77367
L82960 77395
L83073 77395
L83129 77367
L83157 77339
L83185 77283
L83185 77142
L83157 77086
L83129 77058
L83073 77030
L82960 77030
L82904 77058
L82876 77086
L82848 77142
" />
<path d="M83663 77367
L83607 77395
L83494 77395
L83438 77367
L83410 77311
L83410 77086
L83438 77030
L83494 77002
L83607 77002
L83663 77030
L83691 77086
L83691 77142
L83410 77199
" />
<path d="M83888 76805
L84282 76805
L84029 77395
" />
<path d="M84422 77002
L84647 77002
" />
<path d="M84507 77395
L84507 76889
L84535 76833
L84591 76805
L84647 76805
" />
<path d="M84788 76805
L85182 76805
L84929 77395
" />
<path d="M85660 77395
L85660 76805
" />
<path d="M85660 77367
L85604 77395
L85491 77395
L85435 77367
L85407 77339
L85379 77283
L85379 77114
L85407 77058
L85435 77030
L85491 77002
L85604 77002
L85660 77030
" />
<path d="M85800 76644
L86363 76644
" />
<path d="M86025 77058
L85969 77030
L85941 77002
L85913 76946
L85913 76917
L85941 76861
L85969 76833
L86025 76805
L86138 76805
L86194 76833
L86222 76861
L86250 76917
L86250 76946
L86222 77002
L86194 77030
L86138 77058
L86025 77058
L85969 77086
L85941 77114
L85913 77171
L85913 77283
L85941 77339
L85969 77367
L86025 77395
L86138 77395
L86194 77367
L86222 77339
L86250 77283
L86250 77171
L86222 77114
L86194 77086
L86138 77058
" />
<path d="M86363 76644
L86925 76644
" />
<path d="M86757 76805
L86644 76805
L86588 76833
L86560 76861
L86503 76946
L86475 77058
L86475 77283
L86503 77339
L86532 77367
L86588 77395
L86700 77395
L86757 77367
L86785 77339
L86813 77283
L86813 77142
L86785 77086
L86757 77058
L86700 77030
L86588 77030
L86532 77058
L86503 77086
L86475 77142
" />
<path d="M87319 77002
L87319 77395
" />
<path d="M87066 77002
L87066 77311
L87094 77367
L87150 77395
L87235 77395
L87291 77367
L87319 77339
" />
<path d="M87600 77395
L87600 76805
" />
<path d="M87600 77030
L87656 77002
L87769 77002
L87825 77030
L87853 77058
L87881 77114
L87881 77283
L87853 77339
L87825 77367
L87769 77395
L87656 77395
L87600 77367
" />
<path d="M88388 77002
L88388 77395
" />
<path d="M88135 77002
L88135 77311
L88163 77367
L88219 77395
L88303 77395
L88359 77367
L88388 77339
" />
<path d="M88669 77002
L88669 77395
" />
<path d="M88669 77058
L88697 77030
L88753 77002
L88838 77002
L88894 77030
L88922 77086
L88922 77395
" />
<path d="M89119 77002
L89344 77002
" />
<path d="M89203 76805
L89203 77311
L89231 77367
L89287 77395
L89344 77395
" />
<path d="M89794 77002
L89794 77395
" />
<path d="M89541 77002
L89541 77311
L89569 77367
L89625 77395
L89709 77395
L89766 77367
L89794 77339
" />
<path d="M90384 77395
L90047 77395
" />
<path d="M90215 77395
L90215 76805
L90159 76889
L90103 76946
L90047 76974
" />
<path d="M90722 77058
L90665 77030
L90637 77002
L90609 76946
L90609 76917
L90637 76861
L90665 76833
L90722 76805
L90834 76805
L90890 76833
L90919 76861
L90947 76917
L90947 76946
L90919 77002
L90890 77030
L90834 77058
L90722 77058
L90665 77086
L90637 77114
L90609 77171
L90609 77283
L90637 77339
L90665 77367
L90722 77395
L90834 77395
L90890 77367
L90919 77339
L90947 77283
L90947 77171
L90919 77114
L90890 77086
L90834 77058
" />
<path d="M91200 77339
L91228 77367
L91200 77395
L91172 77367
L91200 77339
L91200 77395
" />
<path d="M91593 76805
L91650 76805
L91706 76833
L91734 76861
L91762 76917
L91790 77030
L91790 77171
L91762 77283
L91734 77339
L91706 77367
L91650 77395
L91593 77395
L91537 77367
L91509 77339
L91481 77283
L91453 77171
L91453 77030
L91481 76917
L91509 76861
L91537 76833
L91593 76805
" />
<path d="M92296 77002
L92296 77395
" />
<path d="M92156 76777
L92015 77199
L92381 77199
" />
<path d="M92606 77339
L92634 77367
L92606 77395
L92578 77367
L92606 77339
L92606 77395
" />
<path d="M93196 77395
L92859 77395
" />
<path d="M93028 77395
L93028 76805
L92971 76889
L92915 76946
L92859 76974
" />
</g>
<g style="fill:#000000; fill-opacity:0.0; 
stroke:#000000; stroke-width:39.3701; stroke-opacity:1; 
stroke-linecap:round; stroke-linejoin:round;">
</g>
<g style="fill:#000000; fill-opacity:0.0; 
stroke:#000000; stroke-width:59.0551; stroke-opacity:1; 
stroke-linecap:round; stroke-linejoin:round;">
<path d="M69685 75396
L112205 75396
" />
</g>
<g style="fill:#000000; fill-opacity:0.0; 
stroke:#000000; stroke-width:39.3701; stroke-opacity:1; 
stroke-linecap:round; stroke-linejoin:round;">
</g>
<g style="fill:#000000; fill-opacity:0.0; 
stroke:#000000; stroke-width:118.11; stroke-opacity:1; 
stroke-linecap:round; stroke-linejoin:round;">
<text x="103544" y="76321.7"
textLength="2336.9" font-size="787.402" lengthAdjust="spacingAndGlyphs"
text-anchor="start" opacity="0">Rev: </text>
<path d="M104099 76293
L103902 76012
" />
<path d="M103761 76293
L103761 75703
L103986 75703
L104042 75731
L104070 75759
L104099 75815
L104099 75899
L104070 75956
L104042 75984
L103986 76012
L103761 76012
" />
<path d="M104577 76265
L104520 76293
L104408 76293
L104352 76265
L104323 76209
L104323 75984
L104352 75928
L104408 75899
L104520 75899
L104577 75928
L104605 75984
L104605 76040
L104323 76096
" />
<path d="M104802 75899
L104942 76293
L105083 75899
" />
<path d="M105308 76237
L105336 76265
L105308 76293
L105280 76265
L105308 76237
L105308 76293
" />
<path d="M105308 75928
L105336 75956
L105308 75984
L105280 75956
L105308 75928
L105308 75984
" />
</g>
<g style="fill:#000000; fill-opacity:0.0; 
stroke:#000000; stroke-width:39.3701; stroke-opacity:1; 
stroke-linecap:round; stroke-linejoin:round;">
</g>
<g style="fill:#000000; fill-opacity:0.0; 
stroke:#000000; stroke-width:59.0551; stroke-opacity:1; 
stroke-linecap:round; stroke-linejoin:round;">
<text x="70079.6" y="76321.7"
textLength="3781.21" font-size="787.402" lengthAdjust="spacingAndGlyphs"
text-anchor="start" opacity="0">Size: A4</text>
<path d="M70221 76265
L70305 76293
L70446 76293
L70502 76265
L70530 76237
L70559 76181
L70559 76124
L70530 76068
L70502 76040
L70446 76012
L70334 75984
L70277 75956
L70249 75928
L70221 75871
L70221 75815
L70249 75759
L70277 75731
L70334 75703
L70474 75703
L70559 75731
" />
<path d="M70812 76293
L70812 75899
" />
<path d="M70812 75703
L70784 75731
L70812 75759
L70840 75731
L70812 75703
L70812 75759
" />
<path d="M71037 75899
L71346 75899
L71037 76293
L71346 76293
" />
<path d="M71796 76265
L71740 76293
L71627 76293
L71571 76265
L71543 76209
L71543 75984
L71571 75928
L71627 75899
L71740 75899
L71796 75928
L71824 75984
L71824 76040
L71543 76096
" />
<path d="M72077 76237
L72105 76265
L72077 76293
L72049 76265
L72077 76237
L72077 76293
" />
<path d="M72077 75928
L72105 75956
L72077 75984
L72049 75956
L72077 75928
L72077 75984
" />
<path d="M72780 76124
L73061 76124
" />
<path d="M72724 76293
L72921 75703
L73118 76293
" />
<path d="M73568 75899
L73568 76293
" />
<path d="M73427 75674
L73286 76096
L73652 76096
" />
</g>
<g style="fill:#000000; fill-opacity:0.0; 
stroke:#000000; stroke-width:39.3701; stroke-opacity:1; 
stroke-linecap:round; stroke-linejoin:round;">
</g>
<g style="fill:#000000; fill-opacity:0.0; 
stroke:#000000; stroke-width:59.0551; stroke-opacity:1; 
stroke-linecap:round; stroke-linejoin:round;">
<text x="103544" y="77424.1"
textLength="3349.27" font-size="787.402" lengthAdjust="spacingAndGlyphs"
text-anchor="start" opacity="0">Id: 1/1</text>
<path d="M103714 77395
L103714 76805
" />
<path d="M104248 77395
L104248 76805
" />
<path d="M104248 77367
L104192 77395
L104079 77395
L104023 77367
L103995 77339
L103967 77283
L103967 77114
L103995 77058
L104023 77030
L104079 77002
L104192 77002
L104248 77030
" />
<path d="M104529 77339
L104557 77367
L104529 77395
L104501 77367
L104529 77339
L104529 77395
" />
<path d="M104529 77030
L104557 77058
L104529 77086
L104501 77058
L104529 77030
L104529 77086
" />
<path d="M105570 77395
L105232 77395
" />
<path d="M105401 77395
L105401 76805
L105345 76889
L105289 76946
L105232 76974
" />
<path d="M106245 76777
L105739 77536
" />
<path d="M106751 77395
L106413 77395
" />
<path d="M106582 77395
L106582 76805
L106526 76889
L106470 76946
L106413 76974
" />
</g>
<g style="fill:#000000; fill-opacity:0.0; 
stroke:#000000; stroke-width:39.3701; stroke-opacity:1; 
stroke-linecap:round; stroke-linejoin:round;">
</g>
<g style="fill:#000000; fill-opacity:0.0; 
stroke:#000000; stroke-width:59.0551; stroke-opacity:1; 
stroke-linecap:round; stroke-linejoin:round;">
<path d="M69685 73821
L112205 73821
" />
</g>
<g style="fill:#000000; fill-opacity:0.0; 
stroke:#000000; stroke-width:39.3701; stroke-opacity:1; 
stroke-linecap:round; stroke-linejoin:round;">
</g>
<g style="fill:#000000; fill-opacity:0.0; 
stroke:#000000; stroke-width:157.48; stroke-opacity:1; 
stroke-linecap:round; stroke-linejoin:round;">
<text x="70079.6" y="74924.1"
textLength="3701.14" font-size="1049.87" lengthAdjust="spacingAndGlyphs"
text-anchor="start" opacity="0">Title: </text>
<path d="M70360 74099
L70810 74099
" />
<path d="M70486 74886
L70585 74099
" />
<path d="M70974 74886
L71039 74361
" />
<path d="M71072 74099
L71030 74136
L71063 74174
L71105 74136
L71072 74099
L71063 74174
" />
<path d="M71302 74361
L71602 74361
" />
<path d="M71447 74099
L71363 74774
L71391 74849
L71461 74886
L71536 74886
" />
<path d="M71911 74886
L71841 74849
L71813 74774
L71897 74099
" />
<path d="M72516 74849
L72436 74886
L72286 74886
L72216 74849
L72187 74774
L72225 74474
L72272 74399
L72352 74361
L72501 74361
L72572 74399
L72600 74474
L72591 74549
L72206 74624
" />
<path d="M72895 74811
L72928 74849
L72886 74886
L72853 74849
L72895 74811
L72886 74886
" />
<path d="M72947 74399
L72980 74436
L72937 74474
L72905 74436
L72947 74399
L72937 74474
" />
</g>
<g style="fill:#000000; fill-opacity:0.0; 
stroke:#000000; stroke-width:39.3701; stroke-opacity:1; 
stroke-linecap:round; stroke-linejoin:round;">
</g>
<g style="fill:#000000; fill-opacity:0.0; 
stroke:#000000; stroke-width:59.0551; stroke-opacity:1; 
stroke-linecap:round; stroke-linejoin:round;">
<text x="70079.6" y="73408.3"
textLength="9822.27" font-size="787.402" lengthAdjust="spacingAndGlyphs"
text-anchor="start" opacity="0">File: esp32.kicad_pcb</text>
<path d="M70446 73070
L70249 73070
" />
<path d="M70249 73380
L70249 72789
L70530 72789
" />
<path d="M70755 73380
L70755 72986
" />
<path d="M70755 72789
L70727 72817
L70755 72845
L70784 72817
L70755 72789
L70755 72845
" />
<path d="M71121 73380
L71065 73352
L71037 73295
L71037 72789
" />
<path d="M71571 73352
L71515 73380
L71402 73380
L71346 73352
L71318 73295
L71318 73070
L71346 73014
L71402 72986
L71515 72986
L71571 73014
L71599 73070
L71599 73127
L71318 73183
" />
<path d="M71852 73323
L71880 73352
L71852 73380
L71824 73352
L71852 73323
L71852 73380
" />
<path d="M71852 73014
L71880 73042
L71852 73070
L71824 73042
L71852 73014
L71852 73070
" />
<path d="M72808 73352
L72752 73380
L72640 73380
L72583 73352
L72555 73295
L72555 73070
L72583 73014
L72640 72986
L72752 72986
L72808 73014
L72836 73070
L72836 73127
L72555 73183
" />
<path d="M73061 73352
L73118 73380
L73230 73380
L73286 73352
L73314 73295
L73314 73267
L73286 73211
L73230 73183
L73146 73183
L73090 73155
L73061 73099
L73061 73070
L73090 73014
L73146 72986
L73230 72986
L73286 73014
" />
<path d="M73568 72986
L73568 73577
" />
<path d="M73568 73014
L73624 72986
L73736 72986
L73793 73014
L73821 73042
L73849 73099
L73849 73267
L73821 73323
L73793 73352
L73736 73380
L73624 73380
L73568 73352
" />
<path d="M74046 72789
L74411 72789
L74214 73014
L74299 73014
L74355 73042
L74383 73070
L74411 73127
L74411 73267
L74383 73323
L74355 73352
L74299 73380
L74130 73380
L74074 73352
L74046 73323
" />
<path d="M74636 72845
L74664 72817
L74721 72789
L74861 72789
L74917 72817
L74946 72845
L74974 72902
L74974 72958
L74946 73042
L74608 73380
L74974 73380
" />
<path d="M75227 73323
L75255 73352
L75227 73380
L75199 73352
L75227 73323
L75227 73380
" />
<path d="M75508 73380
L75508 72789
" />
<path d="M75564 73155
L75733 73380
" />
<path d="M75733 72986
L75508 73211
" />
<path d="M75986 73380
L75986 72986
" />
<path d="M75986 72789
L75958 72817
L75986 72845
L76014 72817
L75986 72789
L75986 72845
" />
<path d="M76520 73352
L76464 73380
L76352 73380
L76295 73352
L76267 73323
L76239 73267
L76239 73099
L76267 73042
L76295 73014
L76352 72986
L76464 72986
L76520 73014
" />
<path d="M77027 73380
L77027 73070
L76998 73014
L76942 72986
L76830 72986
L76773 73014
" />
<path d="M77027 73352
L76970 73380
L76830 73380
L76773 73352
L76745 73295
L76745 73239
L76773 73183
L76830 73155
L76970 73155
L77027 73127
" />
<path d="M77561 73380
L77561 72789
" />
<path d="M77561 73352
L77505 73380
L77392 73380
L77336 73352
L77308 73323
L77280 73267
L77280 73099
L77308 73042
L77336 73014
L77392 72986
L77505 72986
L77561 73014
" />
<path d="M77701 73436
L78151 73436
" />
<path d="M78292 72986
L78292 73577
" />
<path d="M78292 73014
L78348 72986
L78461 72986
L78517 73014
L78545 73042
L78573 73099
L78573 73267
L78545 73323
L78517 73352
L78461 73380
L78348 73380
L78292 73352
" />
<path d="M79079 73352
L79023 73380
L78911 73380
L78854 73352
L78826 73323
L78798 73267
L78798 73099
L78826 73042
L78854 73014
L78911 72986
L79023 72986
L79079 73014
" />
<path d="M79332 73380
L79332 72789
" />
<path d="M79332 73014
L79389 72986
L79501 72986
L79557 73014
L79586 73042
L79614 73099
L79614 73267
L79586 73323
L79557 73352
L79501 73380
L79389 73380
L79332 73352
" />
</g>
<g style="fill:#000000; fill-opacity:0.0; 
stroke:#000000; stroke-width:39.3701; stroke-opacity:1; 
stroke-linecap:round; stroke-linejoin:round;">
</g>
<g style="fill:#000000; fill-opacity:0.0; 
stroke:#000000; stroke-width:59.0551; stroke-opacity:1; 
stroke-linecap:round; stroke-linejoin:round;">
<path d="M69685 71459
L112205 71459
" />
</g>
<g style="fill:#000000; fill-opacity:0.0; 
stroke:#000000; stroke-width:39.3701; stroke-opacity:1; 
stroke-linecap:round; stroke-linejoin:round;">
</g>
<g style="fill:#000000; fill-opacity:0.0; 
stroke:#000000; stroke-width:59.0551; stroke-opacity:1; 
stroke-linecap:round; stroke-linejoin:round;">
<text x="70079.6" y="72345.4"
textLength="3236.78" font-size="787.402" lengthAdjust="spacingAndGlyphs"
text-anchor="start" opacity="0">Sheet: </text>
<path d="M70221 72289
L70305 72317
L70446 72317
L70502 72289
L70530 72260
L70559 72204
L70559 72148
L70530 72092
L70502 72064
L70446 72036
L70334 72007
L70277 71979
L70249 71951
L70221 71895
L70221 71839
L70249 71782
L70277 71754
L70334 71726
L70474 71726
L70559 71754
" />
<path d="M70812 72317
L70812 71726
" />
<path d="M71065 72317
L71065 72007
L71037 71951
L70980 71923
L70896 71923
L70840 71951
L70812 71979
" />
<path d="M71571 72289
L71515 72317
L71402 72317
L71346 72289
L71318 72232
L71318 72007
L71346 71951
L71402 71923
L71515 71923
L71571 71951
L71599 72007
L71599 72064
L71318 72120
" />
<path d="M72077 72289
L72021 72317
L71908 72317
L71852 72289
L71824 72232
L71824 72007
L71852 71951
L71908 71923
L72021 71923
L72077 71951
L72105 72007
L72105 72064
L71824 72120
" />
<path d="M72274 71923
L72499 71923
" />
<path d="M72358 71726
L72358 72232
L72386 72289
L72443 72317
L72499 72317
" />
<path d="M72696 72260
L72724 72289
L72696 72317
L72668 72289
L72696 72260
L72696 72317
" />
<path d="M72696 71951
L72724 71979
L72696 72007
L72668 71979
L72696 71951
L72696 72007
" />
</g>
<g style="fill:#000000; fill-opacity:0.0; 
stroke:#000000; stroke-width:39.3701; stroke-opacity:1; 
stroke-linecap:round; stroke-linejoin:round;">
</g>
<g style="fill:#000000; fill-opacity:0.0; 
stroke:#000000; stroke-width:59.0551; stroke-opacity:1; 
stroke-linecap:round; stroke-linejoin:round;">
<path d="M77559 75396
L77559 76577
" />
</g>
<g style="fill:#000000; fill-opacity:0.0; 
stroke:#000000; stroke-width:39.3701; stroke-opacity:1; 
stroke-linecap:round; stroke-linejoin:round;">
</g>
<g style="fill:#000000; fill-opacity:0.0; 
stroke:#000000; stroke-width:59.0551; stroke-opacity:1; 
stroke-linecap:round; stroke-linejoin:round;">
<path d="M102756 75396
L102756 77955
" />
<g >
</g>
<g style="fill:#848400; fill-opacity:0.0; 
stroke:#848400; stroke-width:59.0551; stroke-opacity:1; 
stroke-linecap:round; stroke-linejoin:round;">
</g>
<g style="fill:#848400; fill-opacity:0.0; 
stroke:#848400; stroke-width:0; stroke-opacity:1; 
stroke-linecap:round; stroke-linejoin:round;">
</g>
<g style="fill:#848400; fill-opacity:1.0; 
stroke:#848400; stroke-width:0; stroke-opacity:1; 
stroke-linecap:round; stroke-linejoin:round;">
<path style="fill:#848400; fill-opacity:1.0; 
stroke:#848400; stroke-width:0; stroke-opacity:1; 
stroke-linecap:round; stroke-linejoin:round;fill-rule:evenodd;"
d="M 43165.4,41665.4
43834.6,41665.4
43834.6,42334.6
43165.4,42334.6
Z" /> 
</g>
<g style="fill:#848400; fill-opacity:1.0; 
stroke:#848400; stroke-width:669.291; stroke-opacity:1; 
stroke-linecap:round; stroke-linejoin:round;">
</g>
<g style="fill:#848400; fill-opacity:0.0; 
stroke:#848400; stroke-width:669.291; stroke-opacity:1; 
stroke-linecap:round; stroke-linejoin:round;">
<path d="M42500 42000
L42500 42000
" />
<path d="M41500 42000
L41500 42000
" />
<path d="M40500 42000
L40500 42000
" />
</g>
<g >
</g>
<g style="fill:#848400; fill-opacity:0.0; 
stroke:#848400; stroke-width:669.291; stroke-opacity:1; 
stroke-linecap:round; stroke-linejoin:round;">
</g>
<g style="fill:#848400; fill-opacity:0.0; 
stroke:#848400; stroke-width:472.441; stroke-opacity:1; 
stroke-linecap:round; stroke-linejoin:round;">
<path d="M46657 44500
L46342 44500
" />
<path d="M56657 44500
L56342 44500
" />
<path d="M46657 43500
L46342 43500
" />
<path d="M56657 43500
L56342 43500
" />
<path d="M46657 42500
L46342 42500
" />
<path d="M56657 42500
L56342 42500
" />
<path d="M46657 41500
L46342 41500
" />
<path d="M56657 41500
L56342 41500
" />
<path d="M46657 40500
L46342 40500
" />
<path d="M56657 40500
L56342 40500
" />
<path d="M46657 39500
L46342 39500
" />
<path d="M56657 39500
L56342 39500
" />
<path d="M46657 38500
L46342 38500
" />
<path d="M56657 38500
L56342 38500
" />
<path d="M46657 37500
L46342 37500
" />
<path d="M56657 37500
L56342 37500
" />
<path d="M46657 36500
L46342 36500
" />
<path d="M56657 36500
L56342 36500
" />
<path d="M46657 35500
L46342 35500
" />
<path d="M56657 35500
L56342 35500
" />
</g>
<g >
</g>
<g style="fill:#848400; fill-opacity:0.0; 
stroke:#848400; stroke-width:472.441; stroke-opacity:1; 
stroke-linecap:round; stroke-linejoin:round;">
</g>
<g style="fill:#848400; fill-opacity:0.0; 
stroke:#848400; stroke-width:0; stroke-opacity:1; 
stroke-linecap:round; stroke-linejoin:round;">
</g>
<g style="fill:#848400; fill-opacity:1.0; 
stroke:#848400; stroke-width:0; stroke-opacity:1; 
stroke-linecap:round; stroke-linejoin:round;">
<path style="fill:#848400; fill-opacity:1.0; 
stroke:#848400; stroke-width:0; stroke-opacity:1; 
stroke-linecap:round; stroke-linejoin:round;fill-rule:evenodd;"
d="M 42659.4,37100.4
43340.6,37100.4
43340.6,37899.6
42659.4,37899.6
Z" /> 
</g>
<g style="fill:#848400; fill-opacity:1.0; 
stroke:#848400; stroke-width:681.102; stroke-opacity:1; 
stroke-linecap:round; stroke-linejoin:round;">
</g>
<g style="fill:#848400; fill-opacity:0.0; 
stroke:#848400; stroke-width:681.102; stroke-opacity:1; 
stroke-linecap:round; stroke-linejoin:round;">
<path d="M42000 37440
L42000 37559
" />
<path d="M41000 37440
L41000 37559
" />
</g>
<g >
</g>
<g style="fill:#848400; fill-opacity:0.0; 
stroke:#848400; stroke-width:681.102; stroke-opacity:1; 
stroke-linecap:round; stroke-linejoin:round;">
</g>
<g style="fill:#848400; fill-opacity:1.0; 
stroke:#848400; stroke-width:0; stroke-opacity:1; 
stroke-linecap:round; stroke-linejoin:round;">
<circle cx="41000" cy="34500" r="275.591" /> 
</g>
<g style="fill:#848400; fill-opacity:1.0; 
stroke:#848400; stroke-width:39.3701; stroke-opacity:1; 
stroke-linecap:round; stroke-linejoin:round;">
</g>
<g style="fill:#848400; fill-opacity:1.0; 
stroke:#848400; stroke-width:551.181; stroke-opacity:1; 
stroke-linecap:round; stroke-linejoin:round;">
</g>
<g style="fill:#848400; fill-opacity:0.0; 
stroke:#848400; stroke-width:551.181; stroke-opacity:1; 
stroke-linecap:round; stroke-linejoin:round;">
<path d="M41748 34500
L41748 34500
" />
</g>
<g >
</g>
<g style="fill:#848400; fill-opacity:0.0; 
stroke:#848400; stroke-width:551.181; stroke-opacity:1; 
stroke-linecap:round; stroke-linejoin:round;">
</g>
<g style="fill:#848400; fill-opacity:1.0; 
stroke:#848400; stroke-width:0; stroke-opacity:1; 
stroke-linecap:round; stroke-linejoin:round;">
<circle cx="58500" cy="41000" r="393.701" /> 
</g>
<g style="fill:#848400; fill-opacity:1.0; 
stroke:#848400; stroke-width:39.3701; stroke-opacity:1; 
stroke-linecap:round; stroke-linejoin:round;">
</g>
<g style="fill:#848400; fill-opacity:1.0; 
stroke:#848400; stroke-width:0; stroke-opacity:1; 
stroke-linecap:round; stroke-linejoin:round;">
<circle cx="58500" cy="42000" r="393.701" /> 
</g>
<g style="fill:#848400; fill-opacity:1.0; 
stroke:#848400; stroke-width:39.3701; stroke-opacity:1; 
stroke-linecap:round; stroke-linejoin:round;">
</g>
<g style="fill:#848400; fill-opacity:1.0; 
stroke:#848400; stroke-width:0; stroke-opacity:1; 
stroke-linecap:round; stroke-linejoin:round;">
<circle cx="58500" cy="43000" r="393.701" /> 
</g>
<g style="fill:#848400; fill-opacity:1.0; 
stroke:#848400; stroke-width:39.3701; stroke-opacity:1; 
stroke-linecap:round; stroke-linejoin:round;">
</g>
<g style="fill:#848400; fill-opacity:1.0; 
stroke:#848400; stroke-width:0; stroke-opacity:1; 
stroke-linecap:round; stroke-linejoin:round;">
<circle cx="58500" cy="44000" r="393.701" /> 
</g>
<g style="fill:#848400; fill-opacity:1.0; 
stroke:#848400; stroke-width:39.3701; stroke-opacity:1; 
stroke-linecap:round; stroke-linejoin:round;">
</g>
<g style="fill:#848400; fill-opacity:1.0; 
stroke:#848400; stroke-width:0; stroke-opacity:1; 
stroke-linecap:round; stroke-linejoin:round;">
<circle cx="58500" cy="45000" r="393.701" /> 
</g>
<g style="fill:#848400; fill-opacity:1.0; 
stroke:#848400; stroke-width:39.3701; stroke-opacity:1; 
stroke-linecap:round; stroke-linejoin:round;">
</g>
<g style="fill:#848400; fill-opacity:1.0; 
stroke:#848400; stroke-width:0; stroke-opacity:1; 
stroke-linecap:round; stroke-linejoin:round;">
<circle cx="58500" cy="46000" r="393.701" /> 
</g>
<g style="fill:#848400; fill-opacity:1.0; 
stroke:#848400; stroke-width:39.3701; stroke-opacity:1; 
stroke-linecap:round; stroke-linejoin:round;">
</g>
<g style="fill:#848400; fill-opacity:1.0; 
stroke:#848400; stroke-width:0; stroke-opacity:1; 
stroke-linecap:round; stroke-linejoin:round;">
<circle cx="58500" cy="47000" r="393.701" /> 
</g>
<g style="fill:#848400; fill-opacity:1.0; 
stroke:#848400; stroke-width:39.3701; stroke-opacity:1; 
stroke-linecap:round; stroke-linejoin:round;">
</g>
<g style="fill:#848400; fill-opacity:1.0; 
stroke:#848400; stroke-width:0; stroke-opacity:1; 
stroke-linecap:round; stroke-linejoin:round;">
<circle cx="58500" cy="48000" r="393.701" /> 
</g>
<g style="fill:#848400; fill-opacity:1.0; 
stroke:#848400; stroke-width:39.3701; stroke-opacity:1; 
stroke-linecap:round; stroke-linejoin:round;">
</g>
<g >
</g>
<g style="fill:#848400; fill-opacity:1.0; 
stroke:#848400; stroke-width:39.3701; stroke-opacity:1; 
stroke-linecap:round; stroke-linejoin:round;">
</g>
<g style="fill:#848400; fill-opacity:1.0; 
stroke:#848400; stroke-width:472.441; stroke-opacity:1; 
stroke-linecap:round; stroke-linejoin:round;">
</g>
<g style="fill:#848400; fill-opacity:0.0; 
stroke:#848400; stroke-width:472.441; stroke-opacity:1; 
stroke-linecap:round; stroke-linejoin:round;">
<path d="M73157 41000
L72842 41000
" />
<path d="M68157 41000
L67842 41000
" />
<path d="M73157 42000
L72842 42000
" />
<path d="M68157 42000
L67842 42000
" />
<path d="M73157 43000
L72842 43000
" />
<path d="M68157 43000
L67842 43000
" />
<path d="M73157 44000
L72842 44000
" />
<path d="M68157 44000
L67842 44000
" />
<path d="M73157 45000
L72842 45000
" />
<path d="M68157 45000
L67842 45000
" />
<path d="M73157 46000
L72842 46000
" />
<path d="M68157 46000
L67842 46000
" />
</g>
<g >
</g>
<g style="fill:#848400; fill-opacity:0.0; 
stroke:#848400; stroke-width:472.441; stroke-opacity:1; 
stroke-linecap:round; stroke-linejoin:round;">
</g>
<g style="fill:#848400; fill-opacity:0.0; 
stroke:#848400; stroke-width:0; stroke-opacity:1; 
stroke-linecap:round; stroke-linejoin:round;">
</g>
<g style="fill:#848400; fill-opacity:1.0; 
stroke:#848400; stroke-width:0; stroke-opacity:1; 
stroke-linecap:round; stroke-linejoin:round;">
<path style="fill:#848400; fill-opacity:1.0; 
stroke:#848400; stroke-width:0; stroke-opacity:1; 
stroke-linecap:round; stroke-linejoin:round;fill-rule:evenodd;"
d="M 41334.6,32334.6
40665.4,32334.6
40665.4,31665.4
41334.6,31665.4
Z" /> 
</g>
<g style="fill:#848400; fill-opacity:1.0; 
stroke:#848400; stroke-width:669.291; stroke-opacity:1; 
stroke-linecap:round; stroke-linejoin:round;">
</g>
<g style="fill:#848400; fill-opacity:0.0; 
stroke:#848400; stroke-width:669.291; stroke-opacity:1; 
stroke-linecap:round; stroke-linejoin:round;">
<path d="M42000 32000
L42000 32000
" />
<path d="M43000 32000
L43000 32000
" />
</g>
<g >
</g>
<g style="fill:#C2C2C2; fill-opacity:0.0; 
stroke:#C2C2C2; stroke-width:669.291; stroke-opacity:1; 
stroke-linecap:round; stroke-linejoin:round;">
</g>
<g style="fill:#C2C2C2; fill-opacity:1.0; 
stroke:#C2C2C2; stroke-width:0; stroke-opacity:1; 
stroke-linecap:round; stroke-linejoin:round;">
<circle cx="40500" cy="16000" r="669.291" /> 
</g>
<g style="fill:#C2C2C2; fill-opacity:1.0; 
stroke:#C2C2C2; stroke-width:39.3701; stroke-opacity:1; 
stroke-linecap:round; stroke-linejoin:round;">
</g>
<g style="fill:#C2C2C2; fill-opacity:1.0; 
stroke:#C2C2C2; stroke-width:0; stroke-opacity:1; 
stroke-linecap:round; stroke-linejoin:round;">
<circle cx="75500" cy="16000" r="669.291" /> 
</g>
<g style="fill:#C2C2C2; fill-opacity:1.0; 
stroke:#C2C2C2; stroke-width:39.3701; stroke-opacity:1; 
stroke-linecap:round; stroke-linejoin:round;">
</g>
<g style="fill:#C2C2C2; fill-opacity:1.0; 
stroke:#C2C2C2; stroke-width:0; stroke-opacity:1; 
stroke-linecap:round; stroke-linejoin:round;">
<circle cx="75500" cy="51000" r="669.291" /> 
</g>
<g style="fill:#C2C2C2; fill-opacity:1.0; 
stroke:#C2C2C2; stroke-width:39.3701; stroke-opacity:1; 
stroke-linecap:round; stroke-linejoin:round;">
</g>
<g style="fill:#C2C2C2; fill-opacity:1.0; 
stroke:#C2C2C2; stroke-width:0; stroke-opacity:1; 
stroke-linecap:round; stroke-linejoin:round;">
<circle cx="40500" cy="51000" r="669.291" /> 
</g>
<g style="fill:#C2C2C2; fill-opacity:1.0; 
stroke:#C2C2C2; stroke-width:39.3701; stroke-opacity:1; 
stroke-linecap:round; stroke-linejoin:round;">
</g>
<g >
</g>
<g >
</g>
<g style="fill:#008400; fill-opacity:1.0; 
stroke:#008400; stroke-width:39.3701; stroke-opacity:1; 
stroke-linecap:round; stroke-linejoin:round;">
</g>
<g style="fill:#008400; fill-opacity:1.0; 
stroke:#008400; stroke-width:100; stroke-opacity:1; 
stroke-linecap:round; stroke-linejoin:round;">
<path style="fill:#008400; fill-opacity:1.0; 
stroke:#008400; stroke-width:100; stroke-opacity:1; 
stroke-linecap:round; stroke-linejoin:round;fill-rule:evenodd;"
d="M 74685.3,15564.6
74616,15731.9
74580.7,15909.5
74580.7,16090.5
74616,16268.1
74685.3,16435.4
74785.9,16586
74914,16714.1
75064.6,16814.7
75231.9,16884
75409.5,16919.3
75590.5,16919.3
75768.1,16884
75935.4,16814.7
76086,16714.1
76214.1,16586
76314.7,16435.4
76384,16268.1
76419.3,16090.5
76419.3,15909.5
76384,15731.9
76314.7,15564.6
76304.9,15550
76450,15550
76450,44950
73641.1,44950
73636.7,44904.7
73608.9,44813
73563.7,44728.6
73503,44654.5
73428.9,44593.8
73344.4,44548.6
73252.8,44520.8
73181.4,44513.8
72818.6,44513.8
72747.2,44520.8
72655.6,44548.6
72571.1,44593.8
72497,44654.5
72436.3,44728.6
72391.1,44813
72363.3,44904.7
72358.9,44950
68641.1,44950
68636.7,44904.7
68608.9,44813
68563.7,44728.6
68503,44654.5
68428.9,44593.8
68344.4,44548.6
68252.8,44520.8
68181.4,44513.8
67818.6,44513.8
67747.2,44520.8
67655.6,44548.6
67571.1,44593.8
67497,44654.5
67436.3,44728.6
67391.1,44813
67363.3,44904.7
67358.9,44950
59142.9,44950
59129.1,44849.7
59087.7,44729.9
59051.1,44661.4
58947,44623.7
58620.7,44950
58379.3,44950
58053,44623.7
57948.9,44661.4
57893.4,44775.4
57861.3,44898.1
57858.1,44950
56847,44950
56928.9,44906.2
57003,44845.5
57063.7,44771.4
57108.9,44687
57136.7,44595.3
57146.1,44500
57136.7,44404.7
57108.9,44313
57063.7,44228.6
57003,44154.5
56928.9,44093.8
56844.4,44048.6
56752.8,44020.8
56681.4,44013.8
56318.6,44013.8
56247.2,44020.8
56155.6,44048.6
56071.1,44093.8
55997,44154.5
55936.3,44228.6
55891.1,44313
55863.3,44404.7
55853.9,44500
55863.3,44595.3
55891.1,44687
55936.3,44771.4
55997,44845.5
56071.1,44906.2
56153,44950
46847,44950
46928.9,44906.2
47003,44845.5
47063.7,44771.4
47108.9,44687
47136.7,44595.3
47146.1,44500
47136.7,44404.7
47108.9,44313
47063.7,44228.6
47003,44154.5
46928.9,44093.8
46844.4,44048.6
46752.8,44020.8
46681.4,44013.8
46318.6,44013.8
46247.2,44020.8
46155.6,44048.6
46071.1,44093.8
45997,44154.5
45936.3,44228.6
45891.1,44313
45863.3,44404.7
45853.9,44500
45863.3,44595.3
45891.1,44687
45936.3,44771.4
45997,44845.5
46071.1,44906.2
46153,44950
39550.9,44950
39575.4,43500
45853.9,43500
45863.3,43595.3
45891.1,43687
45936.3,43771.4
45997,43845.5
46071.1,43906.2
46155.6,43951.4
46247.2,43979.2
46318.6,43986.2
46681.4,43986.2
46752.8,43979.2
46844.4,43951.4
46928.9,43906.2
47003,43845.5
47063.7,43771.4
47108.9,43687
47136.7,43595.3
47146.1,43500
55853.9,43500
55863.3,43595.3
55891.1,43687
55936.3,43771.4
55997,43845.5
56071.1,43906.2
56155.6,43951.4
56247.2,43979.2
56318.6,43986.2
56681.4,43986.2
56752.8,43979.2
56844.4,43951.4
56928.9,43906.2
57003,43845.5
57063.7,43771.4
57108.9,43687
57136.7,43595.3
57146.1,43500
57136.7,43404.7
57108.9,43313
57063.7,43228.6
57003,43154.5
56928.9,43093.8
56844.4,43048.6
56752.8,43020.8
56681.4,43013.8
56318.6,43013.8
56247.2,43020.8
56155.6,43048.6
56071.1,43093.8
55997,43154.5
55936.3,43228.6
55891.1,43313
55863.3,43404.7
55853.9,43500
47146.1,43500
47136.7,43404.7
47108.9,43313
47063.7,43228.6
47003,43154.5
46928.9,43093.8
46844.4,43048.6
46752.8,43020.8
46681.4,43013.8
46318.6,43013.8
46247.2,43020.8
46155.6,43048.6
46071.1,43093.8
45997,43154.5
45936.3,43228.6
45891.1,43313
45863.3,43404.7
45853.9,43500
39575.4,43500
39601.8,41942.4
39915.4,41942.4
39915.4,42057.6
39937.8,42170.5
39981.9,42276.9
40045.9,42372.7
40127.3,42454.1
40223.1,42518.1
40329.5,42562.2
40442.4,42584.6
40557.6,42584.6
40670.5,42562.2
40776.9,42518.1
40872.7,42454.1
40954.1,42372.7
41000,42304
41045.9,42372.7
41127.3,42454.1
41223.1,42518.1
41329.5,42562.2
41442.4,42584.6
41557.6,42584.6
41670.5,42562.2
41776.9,42518.1
41872.7,42454.1
41954.1,42372.7
42000,42304
42045.9,42372.7
42127.3,42454.1
42223.1,42518.1
42329.5,42562.2
42442.4,42584.6
42557.6,42584.6
42670.5,42562.2
42776.9,42518.1
42872.7,42454.1
42924.6,42402.2
42933.3,42430.8
42956.5,42474.2
42987.7,42512.3
43025.8,42543.5
43069.2,42566.7
43116.3,42581
43165.4,42585.9
43387.5,42584.6
43450,42522.1
43450,42050
43550,42050
43550,42522.1
43612.5,42584.6
43834.6,42585.9
43883.7,42581
43930.8,42566.7
43974.2,42543.5
44012.3,42512.3
44022.4,42500
45853.9,42500
45863.3,42595.3
45891.1,42687
45936.3,42771.4
45997,42845.5
46071.1,42906.2
46155.6,42951.4
46247.2,42979.2
46318.6,42986.2
46681.4,42986.2
46752.8,42979.2
46844.4,42951.4
46928.9,42906.2
47003,42845.5
47063.7,42771.4
47108.9,42687
47136.7,42595.3
47146.1,42500
55853.9,42500
55863.3,42595.3
55891.1,42687
55936.3,42771.4
55997,42845.5
56071.1,42906.2
56155.6,42951.4
56247.2,42979.2
56318.6,42986.2
56681.4,42986.2
56752.8,42979.2
56844.4,42951.4
56872.1,42936.6
57856.3,42936.6
57856.3,43063.4
57881,43187.8
57929.6,43304.9
58000,43410.3
58089.7,43500
58089.7,43500
58089.7,43500
58000,43589.7
57929.6,43695.1
57881,43812.2
57856.3,43936.6
57856.3,44063.4
57881,44187.8
57929.6,44304.9
58000,44410.3
58089.7,44500
58132.5,44528.6
58123.7,44553
58500,44929.3
58876.3,44553
58867.5,44528.6
58910.3,44500
59000,44410.3
59070.4,44304.9
59119,44187.8
59143.7,44063.4
59143.7,44000
67353.9,44000
67363.3,44095.3
67391.1,44187
67436.3,44271.4
67497,44345.5
67571.1,44406.2
67655.6,44451.4
67747.2,44479.2
67818.6,44486.2
68181.4,44486.2
68252.8,44479.2
68344.4,44451.4
68428.9,44406.2
68503,44345.5
68563.7,44271.4
68608.9,44187
68636.7,44095.3
68646.1,44000
72353.9,44000
72363.3,44095.3
72391.1,44187
72436.3,44271.4
72497,44345.5
72571.1,44406.2
72655.6,44451.4
72747.2,44479.2
72818.6,44486.2
73181.4,44486.2
73252.8,44479.2
73344.4,44451.4
73428.9,44406.2
73503,44345.5
73563.7,44271.4
73608.9,44187
73636.7,44095.3
73646.1,44000
73636.7,43904.7
73608.9,43813
73563.7,43728.6
73503,43654.5
73428.9,43593.8
73344.4,43548.6
73252.8,43520.8
73181.4,43513.8
72818.6,43513.8
72747.2,43520.8
72655.6,43548.6
72571.1,43593.8
72497,43654.5
72436.3,43728.6
72391.1,43813
72363.3,43904.7
72353.9,44000
68646.1,44000
68636.7,43904.7
68608.9,43813
68563.7,43728.6
68503,43654.5
68428.9,43593.8
68344.4,43548.6
68252.8,43520.8
68181.4,43513.8
67818.6,43513.8
67747.2,43520.8
67655.6,43548.6
67571.1,43593.8
67497,43654.5
67436.3,43728.6
67391.1,43813
67363.3,43904.7
67353.9,44000
59143.7,44000
59143.7,43936.6
59119,43812.2
59070.4,43695.1
59000,43589.7
58910.3,43500
58910.3,43500
58910.3,43500
59000,43410.3
59070.4,43304.9
59119,43187.8
59143.7,43063.4
59143.7,43000
67353.9,43000
67363.3,43095.3
67391.1,43187
67436.3,43271.4
67497,43345.5
67571.1,43406.2
67655.6,43451.4
67747.2,43479.2
67818.6,43486.2
68181.4,43486.2
68252.8,43479.2
68344.4,43451.4
68428.9,43406.2
68503,43345.5
68563.7,43271.4
68608.9,43187
68636.7,43095.3
68646.1,43000
72353.9,43000
72363.3,43095.3
72391.1,43187
72436.3,43271.4
72497,43345.5
72571.1,43406.2
72655.6,43451.4
72747.2,43479.2
72818.6,43486.2
73181.4,43486.2
73252.8,43479.2
73344.4,43451.4
73428.9,43406.2
73503,43345.5
73563.7,43271.4
73608.9,43187
73636.7,43095.3
73646.1,43000
73636.7,42904.7
73608.9,42813
73563.7,42728.6
73503,42654.5
73428.9,42593.8
73344.4,42548.6
73252.8,42520.8
73181.4,42513.8
72818.6,42513.8
72747.2,42520.8
72655.6,42548.6
72571.1,42593.8
72497,42654.5
72436.3,42728.6
72391.1,42813
72363.3,42904.7
72353.9,43000
68646.1,43000
68636.7,42904.7
68608.9,42813
68563.7,42728.6
68503,42654.5
68428.9,42593.8
68344.4,42548.6
68252.8,42520.8
68181.4,42513.8
67818.6,42513.8
67747.2,42520.8
67655.6,42548.6
67571.1,42593.8
67497,42654.5
67436.3,42728.6
67391.1,42813
67363.3,42904.7
67353.9,43000
59143.7,43000
59143.7,42936.6
59119,42812.2
59070.4,42695.1
59000,42589.7
58910.3,42500
58867.5,42471.4
58876.3,42447
58500,42070.7
58123.7,42447
58132.5,42471.4
58089.7,42500
58000,42589.7
57929.6,42695.1
57881,42812.2
57856.3,42936.6
56872.1,42936.6
56928.9,42906.2
57003,42845.5
57063.7,42771.4
57108.9,42687
57136.7,42595.3
57146.1,42500
57136.7,42404.7
57108.9,42313
57063.7,42228.6
57003,42154.5
56928.9,42093.8
56844.4,42048.6
56765.4,42024.6
57853.7,42024.6
57870.9,42150.3
57912.3,42270.1
57948.9,42338.6
58053,42376.3
58429.3,42000
58570.7,42000
58947,42376.3
59051.1,42338.6
59106.6,42224.6
59132.7,42125
67372.7,42125
67374.2,42139.9
67410.5,42228.6
67463.4,42308.5
67530.8,42376.5
67610.3,42430.1
67698.6,42467.1
67792.5,42486.2
67950,42486.2
67950,42050
68050,42050
68050,42486.2
68207.5,42486.2
68301.4,42467.1
68389.7,42430.1
68469.2,42376.5
68536.6,42308.5
68589.5,42228.6
68625.8,42139.9
68627.3,42125
68578.2,42050
68050,42050
67950,42050
67421.8,42050
67372.7,42125
59132.7,42125
59138.7,42101.9
59144.9,42000
72353.9,42000
72363.3,42095.3
72391.1,42187
72436.3,42271.4
72497,42345.5
72571.1,42406.2
72655.6,42451.4
72747.2,42479.2
72818.6,42486.2
73181.4,42486.2
73252.8,42479.2
73344.4,42451.4
73428.9,42406.2
73503,42345.5
73563.7,42271.4
73608.9,42187
73636.7,42095.3
73646.1,42000
73636.7,41904.7
73608.9,41813
73563.7,41728.6
73503,41654.5
73428.9,41593.8
73344.4,41548.6
73252.8,41520.8
73181.4,41513.8
72818.6,41513.8
72747.2,41520.8
72655.6,41548.6
72571.1,41593.8
72497,41654.5
72436.3,41728.6
72391.1,41813
72363.3,41904.7
72353.9,42000
59144.9,42000
59146.3,41975.4
59132.6,41875
67372.7,41875
67421.8,41950
67950,41950
67950,41513.8
68050,41513.8
68050,41950
68578.2,41950
68627.3,41875
68625.8,41860.1
68589.5,41771.4
68536.6,41691.5
68469.2,41623.5
68389.7,41569.9
68301.4,41532.9
68207.5,41513.8
68050,41513.8
67950,41513.8
67792.5,41513.8
67698.6,41532.9
67610.3,41569.9
67530.8,41623.5
67463.4,41691.5
67410.5,41771.4
67374.2,41860.1
67372.7,41875
59132.6,41875
59129.1,41849.7
59087.7,41729.9
59051.1,41661.4
58947,41623.7
58570.7,42000
58429.3,42000
58053,41623.7
57948.9,41661.4
57893.4,41775.4
57861.3,41898.1
57853.7,42024.6
56765.4,42024.6
56752.8,42020.8
56681.4,42013.8
56318.6,42013.8
56247.2,42020.8
56155.6,42048.6
56071.1,42093.8
55997,42154.5
55936.3,42228.6
55891.1,42313
55863.3,42404.7
55853.9,42500
47146.1,42500
47136.7,42404.7
47108.9,42313
47063.7,42228.6
47003,42154.5
46928.9,42093.8
46844.4,42048.6
46752.8,42020.8
46681.4,42013.8
46318.6,42013.8
46247.2,42020.8
46155.6,42048.6
46071.1,42093.8
45997,42154.5
45936.3,42228.6
45891.1,42313
45863.3,42404.7
45853.9,42500
44022.4,42500
44043.5,42474.2
44066.7,42430.8
44081,42383.7
44085.9,42334.6
44084.6,42112.5
44022.1,42050
43550,42050
43450,42050
43442.1,42050
43442.1,41950
43450,41950
43450,41477.9
43550,41477.9
43550,41950
44022.1,41950
44084.6,41887.5
44085.9,41665.4
44081,41616.3
44066.7,41569.2
44043.5,41525.8
44022.4,41500
45853.9,41500
45863.3,41595.3
45891.1,41687
45936.3,41771.4
45997,41845.5
46071.1,41906.2
46155.6,41951.4
46247.2,41979.2
46318.6,41986.2
46681.4,41986.2
46752.8,41979.2
46844.4,41951.4
46928.9,41906.2
47003,41845.5
47063.7,41771.4
47108.9,41687
47136.7,41595.3
47146.1,41500
55853.9,41500
55863.3,41595.3
55891.1,41687
55936.3,41771.4
55997,41845.5
56071.1,41906.2
56155.6,41951.4
56247.2,41979.2
56318.6,41986.2
56681.4,41986.2
56752.8,41979.2
56844.4,41951.4
56928.9,41906.2
57003,41845.5
57063.7,41771.4
57108.9,41687
57136.7,41595.3
57146.1,41500
57136.7,41404.7
57108.9,41313
57063.7,41228.6
57003,41154.5
56928.9,41093.8
56844.4,41048.6
56752.8,41020.8
56681.4,41013.8
56318.6,41013.8
56247.2,41020.8
56155.6,41048.6
56071.1,41093.8
55997,41154.5
55936.3,41228.6
55891.1,41313
55863.3,41404.7
55853.9,41500
47146.1,41500
47136.7,41404.7
47108.9,41313
47063.7,41228.6
47003,41154.5
46928.9,41093.8
46844.4,41048.6
46752.8,41020.8
46681.4,41013.8
46318.6,41013.8
46247.2,41020.8
46155.6,41048.6
46071.1,41093.8
45997,41154.5
45936.3,41228.6
45891.1,41313
45863.3,41404.7
45853.9,41500
44022.4,41500
44012.3,41487.7
43974.2,41456.5
43930.8,41433.3
43883.7,41419
43834.6,41414.1
43612.5,41415.4
43550,41477.9
43450,41477.9
43387.5,41415.4
43165.4,41414.1
43116.3,41419
43069.2,41433.3
43025.8,41456.5
42987.7,41487.7
42956.5,41525.8
42933.3,41569.2
42924.6,41597.8
42872.7,41545.9
42776.9,41481.9
42670.5,41437.8
42557.6,41415.4
42442.4,41415.4
42329.5,41437.8
42223.1,41481.9
42127.3,41545.9
42045.9,41627.3
42000,41696
41954.1,41627.3
41872.7,41545.9
41776.9,41481.9
41670.5,41437.8
41557.6,41415.4
41442.4,41415.4
41329.5,41437.8
41223.1,41481.9
41127.3,41545.9
41045.9,41627.3
41000,41696
40954.1,41627.3
40872.7,41545.9
40776.9,41481.9
40670.5,41437.8
40557.6,41415.4
40442.4,41415.4
40329.5,41437.8
40223.1,41481.9
40127.3,41545.9
40045.9,41627.3
39981.9,41723.1
39937.8,41829.5
39915.4,41942.4
39601.8,41942.4
39626.3,40500
45853.9,40500
45863.3,40595.3
45891.1,40687
45936.3,40771.4
45997,40845.5
46071.1,40906.2
46155.6,40951.4
46247.2,40979.2
46318.6,40986.2
46681.4,40986.2
46752.8,40979.2
46844.4,40951.4
46928.9,40906.2
47003,40845.5
47063.7,40771.4
47108.9,40687
47136.7,40595.3
47146.1,40500
55853.9,40500
55863.3,40595.3
55891.1,40687
55936.3,40771.4
55997,40845.5
56071.1,40906.2
56155.6,40951.4
56247.2,40979.2
56318.6,40986.2
56681.4,40986.2
56752.8,40979.2
56844.4,40951.4
56872.1,40936.6
57856.3,40936.6
57856.3,41063.4
57881,41187.8
57929.6,41304.9
58000,41410.3
58089.7,41500
58132.5,41528.6
58123.7,41553
58500,41929.3
58876.3,41553
58867.5,41528.6
58910.3,41500
59000,41410.3
59070.4,41304.9
59119,41187.8
59143.7,41063.4
59143.7,41000
67353.9,41000
67363.3,41095.3
67391.1,41187
67436.3,41271.4
67497,41345.5
67571.1,41406.2
67655.6,41451.4
67747.2,41479.2
67818.6,41486.2
68181.4,41486.2
68252.8,41479.2
68344.4,41451.4
68428.9,41406.2
68503,41345.5
68563.7,41271.4
68608.9,41187
68636.7,41095.3
68646.1,41000
72353.9,41000
72363.3,41095.3
72391.1,41187
72436.3,41271.4
72497,41345.5
72571.1,41406.2
72655.6,41451.4
72747.2,41479.2
72818.6,41486.2
73181.4,41486.2
73252.8,41479.2
73344.4,41451.4
73428.9,41406.2
73503,41345.5
73563.7,41271.4
73608.9,41187
73636.7,41095.3
73646.1,41000
73636.7,40904.7
73608.9,40813
73563.7,40728.6
73503,40654.5
73428.9,40593.8
73344.4,40548.6
73252.8,40520.8
73181.4,40513.8
72818.6,40513.8
72747.2,40520.8
72655.6,40548.6
72571.1,40593.8
72497,40654.5
72436.3,40728.6
72391.1,40813
72363.3,40904.7
72353.9,41000
68646.1,41000
68636.7,40904.7
68608.9,40813
68563.7,40728.6
68503,40654.5
68428.9,40593.8
68344.4,40548.6
68252.8,40520.8
68181.4,40513.8
67818.6,40513.8
67747.2,40520.8
67655.6,40548.6
67571.1,40593.8
67497,40654.5
67436.3,40728.6
67391.1,40813
67363.3,40904.7
67353.9,41000
59143.7,41000
59143.7,40936.6
59119,40812.2
59070.4,40695.1
59000,40589.7
58910.3,40500
58804.9,40429.6
58687.8,40381
58563.4,40356.3
58436.6,40356.3
58312.2,40381
58195.1,40429.6
58089.7,40500
58000,40589.7
57929.6,40695.1
57881,40812.2
57856.3,40936.6
56872.1,40936.6
56928.9,40906.2
57003,40845.5
57063.7,40771.4
57108.9,40687
57136.7,40595.3
57146.1,40500
57136.7,40404.7
57108.9,40313
57063.7,40228.6
57003,40154.5
56928.9,40093.8
56844.4,40048.6
56752.8,40020.8
56681.4,40013.8
56318.6,40013.8
56247.2,40020.8
56155.6,40048.6
56071.1,40093.8
55997,40154.5
55936.3,40228.6
55891.1,40313
55863.3,40404.7
55853.9,40500
47146.1,40500
47136.7,40404.7
47108.9,40313
47063.7,40228.6
47003,40154.5
46928.9,40093.8
46844.4,40048.6
46752.8,40020.8
46681.4,40013.8
46318.6,40013.8
46247.2,40020.8
46155.6,40048.6
46071.1,40093.8
45997,40154.5
45936.3,40228.6
45891.1,40313
45863.3,40404.7
45853.9,40500
39626.3,40500
39643.2,39500
45853.9,39500
45863.3,39595.3
45891.1,39687
45936.3,39771.4
45997,39845.5
46071.1,39906.2
46155.6,39951.4
46247.2,39979.2
46318.6,39986.2
46681.4,39986.2
46752.8,39979.2
46844.4,39951.4
46928.9,39906.2
47003,39845.5
47063.7,39771.4
47108.9,39687
47136.7,39595.3
47146.1,39500
55853.9,39500
55863.3,39595.3
55891.1,39687
55936.3,39771.4
55997,39845.5
56071.1,39906.2
56155.6,39951.4
56247.2,39979.2
56318.6,39986.2
56681.4,39986.2
56752.8,39979.2
56844.4,39951.4
56928.9,39906.2
57003,39845.5
57063.7,39771.4
57108.9,39687
57136.7,39595.3
57146.1,39500
57136.7,39404.7
57108.9,39313
57063.7,39228.6
57003,39154.5
56928.9,39093.8
56844.4,39048.6
56752.8,39020.8
56681.4,39013.8
56318.6,39013.8
56247.2,39020.8
56155.6,39048.6
56071.1,39093.8
55997,39154.5
55936.3,39228.6
55891.1,39313
55863.3,39404.7
55853.9,39500
47146.1,39500
47136.7,39404.7
47108.9,39313
47063.7,39228.6
47003,39154.5
46928.9,39093.8
46844.4,39048.6
46752.8,39020.8
46681.4,39013.8
46318.6,39013.8
46247.2,39020.8
46155.6,39048.6
46071.1,39093.8
45997,39154.5
45936.3,39228.6
45891.1,39313
45863.3,39404.7
45853.9,39500
39643.2,39500
39660.2,38500
45853.9,38500
45863.3,38595.3
45891.1,38687
45936.3,38771.4
45997,38845.5
46071.1,38906.2
46155.6,38951.4
46247.2,38979.2
46318.6,38986.2
46681.4,38986.2
46752.8,38979.2
46844.4,38951.4
46928.9,38906.2
47003,38845.5
47063.7,38771.4
47108.9,38687
47136.7,38595.3
47146.1,38500
55853.9,38500
55863.3,38595.3
55891.1,38687
55936.3,38771.4
55997,38845.5
56071.1,38906.2
56155.6,38951.4
56247.2,38979.2
56318.6,38986.2
56681.4,38986.2
56752.8,38979.2
56844.4,38951.4
56928.9,38906.2
57003,38845.5
57063.7,38771.4
57108.9,38687
57136.7,38595.3
57146.1,38500
57136.7,38404.7
57108.9,38313
57063.7,38228.6
57003,38154.5
56928.9,38093.8
56844.4,38048.6
56752.8,38020.8
56681.4,38013.8
56318.6,38013.8
56247.2,38020.8
56155.6,38048.6
56071.1,38093.8
55997,38154.5
55936.3,38228.6
55891.1,38313
55863.3,38404.7
55853.9,38500
47146.1,38500
47136.7,38404.7
47108.9,38313
47063.7,38228.6
47003,38154.5
46928.9,38093.8
46844.4,38048.6
46752.8,38020.8
46681.4,38013.8
46318.6,38013.8
46247.2,38020.8
46155.6,38048.6
46071.1,38093.8
45997,38154.5
45936.3,38228.6
45891.1,38313
45863.3,38404.7
45853.9,38500
39660.2,38500
39678.6,37411.9
40409.4,37411.9
40409.4,37588.1
40418,37674.8
40451.8,37786.1
40506.6,37888.7
40580.4,37978.7
40670.3,38052.5
40772.9,38107.3
40884.2,38141.1
41000,38152.5
41115.8,38141.1
41227.1,38107.3
41329.7,38052.5
41419.6,37978.7
41493.4,37888.7
41500,37876.4
41506.6,37888.7
41580.4,37978.7
41670.3,38052.5
41772.9,38107.3
41884.2,38141.1
42000,38152.5
42115.8,38141.1
42227.1,38107.3
42329.7,38052.5
42419.6,37978.7
42421.5,37976.4
42427.4,37995.7
42450.6,38039.2
42481.8,38077.2
42519.9,38108.5
42563.3,38131.7
42610.4,38146
42659.4,38150.8
42887.5,38149.6
42950,38087.1
42950,37550
43050,37550
43050,38087.1
43112.5,38149.6
43340.6,38150.8
43389.6,38146
43436.7,38131.7
43480.1,38108.5
43518.2,38077.2
43549.4,38039.2
43572.6,37995.7
43586.9,37948.6
43591.8,37899.6
43590.6,37625
45872.7,37625
45874.2,37639.9
45910.5,37728.6
45963.4,37808.5
46030.8,37876.5
46110.3,37930.1
46198.6,37967.1
46292.5,37986.2
46450,37986.2
46450,37550
46550,37550
46550,37986.2
46707.5,37986.2
46801.4,37967.1
46889.7,37930.1
46969.2,37876.5
47036.6,37808.5
47089.5,37728.6
47125.8,37639.9
47127.3,37625
47078.2,37550
46550,37550
46450,37550
45921.8,37550
45872.7,37625
43590.6,37625
43590.6,37612.5
43528.1,37550
43050,37550
42950,37550
42942.1,37550
42942.1,37500
55853.9,37500
55863.3,37595.3
55891.1,37687
55936.3,37771.4
55997,37845.5
56071.1,37906.2
56155.6,37951.4
56247.2,37979.2
56318.6,37986.2
56681.4,37986.2
56752.8,37979.2
56844.4,37951.4
56928.9,37906.2
57003,37845.5
57063.7,37771.4
57108.9,37687
57136.7,37595.3
57146.1,37500
57136.7,37404.7
57108.9,37313
57063.7,37228.6
57003,37154.5
56928.9,37093.8
56844.4,37048.6
56752.8,37020.8
56681.4,37013.8
56318.6,37013.8
56247.2,37020.8
56155.6,37048.6
56071.1,37093.8
55997,37154.5
55936.3,37228.6
55891.1,37313
55863.3,37404.7
55853.9,37500
42942.1,37500
42942.1,37450
42950,37450
42950,36912.9
43050,36912.9
43050,37450
43528.1,37450
43590.6,37387.5
43590.6,37375
45872.7,37375
45921.8,37450
46450,37450
46450,37013.8
46550,37013.8
46550,37450
47078.2,37450
47127.3,37375
47125.8,37360.1
47089.5,37271.4
47036.6,37191.5
46969.2,37123.5
46889.7,37069.9
46801.4,37032.9
46707.5,37013.8
46550,37013.8
46450,37013.8
46292.5,37013.8
46198.6,37032.9
46110.3,37069.9
46030.8,37123.5
45963.4,37191.5
45910.5,37271.4
45874.2,37360.1
45872.7,37375
43590.6,37375
43591.8,37100.4
43586.9,37051.4
43572.6,37004.3
43549.4,36960.8
43518.2,36922.8
43480.1,36891.5
43436.7,36868.3
43389.6,36854
43340.6,36849.2
43112.5,36850.4
43050,36912.9
42950,36912.9
42887.5,36850.4
42659.4,36849.2
42610.4,36854
42563.3,36868.3
42519.9,36891.5
42481.8,36922.8
42450.6,36960.8
42427.4,37004.3
42421.5,37023.6
42419.6,37021.3
42329.7,36947.5
42227.1,36892.7
42115.8,36858.9
42000,36847.5
41884.2,36858.9
41772.9,36892.7
41670.3,36947.5
41580.4,37021.3
41506.6,37111.3
41500,37123.6
41493.4,37111.3
41419.6,37021.3
41329.7,36947.5
41227.1,36892.7
41115.8,36858.9
41000,36847.5
40884.2,36858.9
40772.9,36892.7
40670.3,36947.5
40580.4,37021.3
40506.6,37111.3
40451.8,37213.9
40418,37325.2
40409.4,37411.9
39678.6,37411.9
39694.1,36500
45853.9,36500
45863.3,36595.3
45891.1,36687
45936.3,36771.4
45997,36845.5
46071.1,36906.2
46155.6,36951.4
46247.2,36979.2
46318.6,36986.2
46681.4,36986.2
46752.8,36979.2
46844.4,36951.4
46928.9,36906.2
47003,36845.5
47063.7,36771.4
47108.9,36687
47136.7,36595.3
47146.1,36500
55853.9,36500
55863.3,36595.3
55891.1,36687
55936.3,36771.4
55997,36845.5
56071.1,36906.2
56155.6,36951.4
56247.2,36979.2
56318.6,36986.2
56681.4,36986.2
56752.8,36979.2
56844.4,36951.4
56928.9,36906.2
57003,36845.5
57063.7,36771.4
57108.9,36687
57136.7,36595.3
57146.1,36500
57136.7,36404.7
57108.9,36313
57063.7,36228.6
57003,36154.5
56928.9,36093.8
56844.4,36048.6
56752.8,36020.8
56681.4,36013.8
56318.6,36013.8
56247.2,36020.8
56155.6,36048.6
56071.1,36093.8
55997,36154.5
55936.3,36228.6
55891.1,36313
55863.3,36404.7
55853.9,36500
47146.1,36500
47136.7,36404.7
47108.9,36313
47063.7,36228.6
47003,36154.5
46928.9,36093.8
46844.4,36048.6
46752.8,36020.8
46681.4,36013.8
46318.6,36013.8
46247.2,36020.8
46155.6,36048.6
46071.1,36093.8
45997,36154.5
45936.3,36228.6
45891.1,36313
45863.3,36404.7
45853.9,36500
39694.1,36500
39711,35500
45853.9,35500
45863.3,35595.3
45891.1,35687
45936.3,35771.4
45997,35845.5
46071.1,35906.2
46155.6,35951.4
46247.2,35979.2
46318.6,35986.2
46681.4,35986.2
46752.8,35979.2
46844.4,35951.4
46928.9,35906.2
47003,35845.5
47063.7,35771.4
47108.9,35687
47136.7,35595.3
47146.1,35500
55853.9,35500
55863.3,35595.3
55891.1,35687
55936.3,35771.4
55997,35845.5
56071.1,35906.2
56155.6,35951.4
56247.2,35979.2
56318.6,35986.2
56681.4,35986.2
56752.8,35979.2
56844.4,35951.4
56928.9,35906.2
57003,35845.5
57063.7,35771.4
57108.9,35687
57136.7,35595.3
57146.1,35500
57136.7,35404.7
57108.9,35313
57063.7,35228.6
57003,35154.5
56928.9,35093.8
56844.4,35048.6
56752.8,35020.8
56681.4,35013.8
56318.6,35013.8
56247.2,35020.8
56155.6,35048.6
56071.1,35093.8
55997,35154.5
55936.3,35228.6
55891.1,35313
55863.3,35404.7
55853.9,35500
47146.1,35500
47136.7,35404.7
47108.9,35313
47063.7,35228.6
47003,35154.5
46928.9,35093.8
46844.4,35048.6
46752.8,35020.8
46681.4,35013.8
46318.6,35013.8
46247.2,35020.8
46155.6,35048.6
46071.1,35093.8
45997,35154.5
45936.3,35228.6
45891.1,35313
45863.3,35404.7
45853.9,35500
39711,35500
39728.9,34448.2
40474.4,34448.2
40474.4,34551.8
40494.6,34653.3
40534.2,34749
40591.7,34835
40665,34908.3
40751,34965.8
40846.7,35005.4
40948.2,35025.6
41051.8,35025.6
41153.3,35005.4
41249,34965.8
41335,34908.3
41374,34869.3
41413,34908.3
41499.1,34965.8
41594.7,35005.4
41696.3,35025.6
41799.8,35025.6
41901.3,35005.4
41997,34965.8
42083.1,34908.3
42156.3,34835
42213.8,34749
42253.4,34653.3
42273.6,34551.8
42273.6,34448.2
42253.4,34346.7
42213.8,34251
42156.3,34165
42083.1,34091.7
41997,34034.2
41901.3,33994.6
41799.8,33974.4
41696.3,33974.4
41594.7,33994.6
41499.1,34034.2
41413,34091.7
41374,34130.7
41335,34091.7
41249,34034.2
41153.3,33994.6
41051.8,33974.4
40948.2,33974.4
40846.7,33994.6
40751,34034.2
40665,34091.7
40591.7,34165
40534.2,34251
40494.6,34346.7
40474.4,34448.2
39728.9,34448.2
39776,31665.4
40414.1,31665.4
40414.1,32334.6
40419,32383.7
40433.3,32430.8
40456.5,32474.2
40487.7,32512.3
40525.8,32543.5
40569.2,32566.7
40616.3,32581
40665.4,32585.9
41334.6,32585.9
41383.7,32581
41430.8,32566.7
41474.2,32543.5
41512.3,32512.3
41543.5,32474.2
41566.7,32430.8
41575.4,32402.2
41627.3,32454.1
41723.1,32518.1
41829.5,32562.2
41942.4,32584.6
42057.6,32584.6
42170.5,32562.2
42276.9,32518.1
42372.7,32454.1
42454.1,32372.7
42502,32301
42529.5,32347
42606.2,32432.1
42698.1,32500.6
42801.5,32549.9
42859.5,32567.5
42950,32519.7
42950,32050
43050,32050
43050,32519.7
43140.5,32567.5
43198.5,32549.9
43301.9,32500.6
43393.8,32432.1
43470.5,32347
43529.2,32248.5
43567.5,32140.5
43520,32050
43050,32050
42950,32050
42942.1,32050
42942.1,31950
42950,31950
42950,31480.3
43050,31480.3
43050,31950
43520,31950
43567.5,31859.5
43529.2,31751.5
43470.5,31653
43393.8,31567.9
43301.9,31499.4
43198.5,31450.1
43140.5,31432.5
43050,31480.3
42950,31480.3
42859.5,31432.5
42801.5,31450.1
42698.1,31499.4
42606.2,31567.9
42529.5,31653
42502,31699
42454.1,31627.3
42372.7,31545.9
42276.9,31481.9
42170.5,31437.8
42057.6,31415.4
41942.4,31415.4
41829.5,31437.8
41723.1,31481.9
41627.3,31545.9
41575.4,31597.8
41566.7,31569.2
41543.5,31525.8
41512.3,31487.7
41474.2,31456.5
41430.8,31433.3
41383.7,31419
41334.6,31414.1
40665.4,31414.1
40616.3,31419
40569.2,31433.3
40525.8,31456.5
40487.7,31487.7
40456.5,31525.8
40433.3,31569.2
40419,31616.3
40414.1,31665.4
39776,31665.4
40024.6,17000
46950,17000
46950,34000
46951,34009.8
46953.8,34019.1
46958.4,34027.8
46964.6,34035.4
46972.2,34041.6
46980.9,34046.2
46990.2,34049
47000,34050
57000,34050
57009.8,34049
57019.1,34046.2
57027.8,34041.6
57035.4,34035.4
57041.6,34027.8
57046.2,34019.1
57049,34009.8
57050,34000
57050,17000
57049,16990.2
57046.2,16980.9
57041.6,16972.2
57035.4,16964.6
57027.8,16958.4
57019.1,16953.8
57009.8,16951
57000,16950
47000,16950
46990.2,16951
46980.9,16953.8
46972.2,16958.4
46964.6,16964.6
46958.4,16972.2
46953.8,16980.9
46951,16990.2
46950,17000
40024.6,17000
40028.1,16790.3
40064.6,16814.7
40231.9,16884
40409.5,16919.3
40590.5,16919.3
40768.1,16884
40935.4,16814.7
41086,16714.1
41214.1,16586
41314.7,16435.4
41384,16268.1
41419.3,16090.5
41419.3,15909.5
41384,15731.9
41314.7,15564.6
41304.9,15550
74695.1,15550
Z" /> 
</g>
</g>
<g style="fill:#FFFFFF; fill-opacity:1.0; 
stroke:#FFFFFF; stroke-width:100; stroke-opacity:1; 
stroke-linecap:round; stroke-linejoin:round;">
</g>
<g style="fill:#FFFFFF; fill-opacity:1.0; 
stroke:#FFFFFF; stroke-width:0; stroke-opacity:1; 
stroke-linecap:round; stroke-linejoin:round;">
<circle cx="40500" cy="16000" r="629.921" /> 
</g>
<g style="fill:#FFFFFF; fill-opacity:1.0; 
stroke:#FFFFFF; stroke-width:39.3701; stroke-opacity:1; 
stroke-linecap:round; stroke-linejoin:round;">
</g>
<g style="fill:#FFFFFF; fill-opacity:1.0; 
stroke:#FFFFFF; stroke-width:0; stroke-opacity:1; 
stroke-linecap:round; stroke-linejoin:round;">
<circle cx="75500" cy="16000" r="629.921" /> 
</g>
<g style="fill:#FFFFFF; fill-opacity:1.0; 
stroke:#FFFFFF; stroke-width:39.3701; stroke-opacity:1; 
stroke-linecap:round; stroke-linejoin:round;">
</g>
<g style="fill:#FFFFFF; fill-opacity:1.0; 
stroke:#FFFFFF; stroke-width:0; stroke-opacity:1; 
stroke-linecap:round; stroke-linejoin:round;">
<circle cx="75500" cy="51000" r="629.921" /> 
</g>
<g style="fill:#FFFFFF; fill-opacity:1.0; 
stroke:#FFFFFF; stroke-width:39.3701; stroke-opacity:1; 
stroke-linecap:round; stroke-linejoin:round;">
</g>
<g style="fill:#FFFFFF; fill-opacity:1.0; 
stroke:#FFFFFF; stroke-width:0; stroke-opacity:1; 
stroke-linecap:round; stroke-linejoin:round;">
<circle cx="40500" cy="51000" r="629.921" /> 
</g>
<g style="fill:#FFFFFF; fill-opacity:1.0; 
stroke:#FFFFFF; stroke-width:39.3701; stroke-opacity:1; 
stroke-linecap:round; stroke-linejoin:round;">
</g>
<g style="fill:#FFFFFF; fill-opacity:1.0; 
stroke:#FFFFFF; stroke-width:0; stroke-opacity:1; 
stroke-linecap:round; stroke-linejoin:round;">
<circle cx="43500" cy="42000" r="196.85" /> 
</g>
<g style="fill:#FFFFFF; fill-opacity:1.0; 
stroke:#FFFFFF; stroke-width:39.3701; stroke-opacity:1; 
stroke-linecap:round; stroke-linejoin:round;">
</g>
<g style="fill:#FFFFFF; fill-opacity:1.0; 
stroke:#FFFFFF; stroke-width:0; stroke-opacity:1; 
stroke-linecap:round; stroke-linejoin:round;">
<circle cx="42500" cy="42000" r="196.85" /> 
</g>
<g style="fill:#FFFFFF; fill-opacity:1.0; 
stroke:#FFFFFF; stroke-width:39.3701; stroke-opacity:1; 
stroke-linecap:round; stroke-linejoin:round;">
</g>
<g style="fill:#FFFFFF; fill-opacity:1.0; 
stroke:#FFFFFF; stroke-width:0; stroke-opacity:1; 
stroke-linecap:round; stroke-linejoin:round;">
<circle cx="41500" cy="42000" r="196.85" /> 
</g>
<g style="fill:#FFFFFF; fill-opacity:1.0; 
stroke:#FFFFFF; stroke-width:39.3701; stroke-opacity:1; 
stroke-linecap:round; stroke-linejoin:round;">
</g>
<g style="fill:#FFFFFF; fill-opacity:1.0; 
stroke:#FFFFFF; stroke-width:0; stroke-opacity:1; 
stroke-linecap:round; stroke-linejoin:round;">
<circle cx="40500" cy="42000" r="196.85" /> 
</g>
<g style="fill:#FFFFFF; fill-opacity:1.0; 
stroke:#FFFFFF; stroke-width:39.3701; stroke-opacity:1; 
stroke-linecap:round; stroke-linejoin:round;">
</g>
<g style="fill:#FFFFFF; fill-opacity:1.0; 
stroke:#FFFFFF; stroke-width:0; stroke-opacity:1; 
stroke-linecap:round; stroke-linejoin:round;">
<circle cx="46500" cy="44500" r="157.48" /> 
</g>
<g style="fill:#FFFFFF; fill-opacity:1.0; 
stroke:#FFFFFF; stroke-width:39.3701; stroke-opacity:1; 
stroke-linecap:round; stroke-linejoin:round;">
</g>
<g style="fill:#FFFFFF; fill-opacity:1.0; 
stroke:#FFFFFF; stroke-width:0; stroke-opacity:1; 
stroke-linecap:round; stroke-linejoin:round;">
<circle cx="56500" cy="44500" r="157.48" /> 
</g>
<g style="fill:#FFFFFF; fill-opacity:1.0; 
stroke:#FFFFFF; stroke-width:39.3701; stroke-opacity:1; 
stroke-linecap:round; stroke-linejoin:round;">
</g>
<g style="fill:#FFFFFF; fill-opacity:1.0; 
stroke:#FFFFFF; stroke-width:0; stroke-opacity:1; 
stroke-linecap:round; stroke-linejoin:round;">
<circle cx="46500" cy="43500" r="157.48" /> 
</g>
<g style="fill:#FFFFFF; fill-opacity:1.0; 
stroke:#FFFFFF; stroke-width:39.3701; stroke-opacity:1; 
stroke-linecap:round; stroke-linejoin:round;">
</g>
<g style="fill:#FFFFFF; fill-opacity:1.0; 
stroke:#FFFFFF; stroke-width:0; stroke-opacity:1; 
stroke-linecap:round; stroke-linejoin:round;">
<circle cx="56500" cy="43500" r="157.48" /> 
</g>
<g style="fill:#FFFFFF; fill-opacity:1.0; 
stroke:#FFFFFF; stroke-width:39.3701; stroke-opacity:1; 
stroke-linecap:round; stroke-linejoin:round;">
</g>
<g style="fill:#FFFFFF; fill-opacity:1.0; 
stroke:#FFFFFF; stroke-width:0; stroke-opacity:1; 
stroke-linecap:round; stroke-linejoin:round;">
<circle cx="46500" cy="42500" r="157.48" /> 
</g>
<g style="fill:#FFFFFF; fill-opacity:1.0; 
stroke:#FFFFFF; stroke-width:39.3701; stroke-opacity:1; 
stroke-linecap:round; stroke-linejoin:round;">
</g>
<g style="fill:#FFFFFF; fill-opacity:1.0; 
stroke:#FFFFFF; stroke-width:0; stroke-opacity:1; 
stroke-linecap:round; stroke-linejoin:round;">
<circle cx="56500" cy="42500" r="157.48" /> 
</g>
<g style="fill:#FFFFFF; fill-opacity:1.0; 
stroke:#FFFFFF; stroke-width:39.3701; stroke-opacity:1; 
stroke-linecap:round; stroke-linejoin:round;">
</g>
<g style="fill:#FFFFFF; fill-opacity:1.0; 
stroke:#FFFFFF; stroke-width:0; stroke-opacity:1; 
stroke-linecap:round; stroke-linejoin:round;">
<circle cx="46500" cy="41500" r="157.48" /> 
</g>
<g style="fill:#FFFFFF; fill-opacity:1.0; 
stroke:#FFFFFF; stroke-width:39.3701; stroke-opacity:1; 
stroke-linecap:round; stroke-linejoin:round;">
</g>
<g style="fill:#FFFFFF; fill-opacity:1.0; 
stroke:#FFFFFF; stroke-width:0; stroke-opacity:1; 
stroke-linecap:round; stroke-linejoin:round;">
<circle cx="56500" cy="41500" r="157.48" /> 
</g>
<g style="fill:#FFFFFF; fill-opacity:1.0; 
stroke:#FFFFFF; stroke-width:39.3701; stroke-opacity:1; 
stroke-linecap:round; stroke-linejoin:round;">
</g>
<g style="fill:#FFFFFF; fill-opacity:1.0; 
stroke:#FFFFFF; stroke-width:0; stroke-opacity:1; 
stroke-linecap:round; stroke-linejoin:round;">
<circle cx="46500" cy="40500" r="157.48" /> 
</g>
<g style="fill:#FFFFFF; fill-opacity:1.0; 
stroke:#FFFFFF; stroke-width:39.3701; stroke-opacity:1; 
stroke-linecap:round; stroke-linejoin:round;">
</g>
<g style="fill:#FFFFFF; fill-opacity:1.0; 
stroke:#FFFFFF; stroke-width:0; stroke-opacity:1; 
stroke-linecap:round; stroke-linejoin:round;">
<circle cx="56500" cy="40500" r="157.48" /> 
</g>
<g style="fill:#FFFFFF; fill-opacity:1.0; 
stroke:#FFFFFF; stroke-width:39.3701; stroke-opacity:1; 
stroke-linecap:round; stroke-linejoin:round;">
</g>
<g style="fill:#FFFFFF; fill-opacity:1.0; 
stroke:#FFFFFF; stroke-width:0; stroke-opacity:1; 
stroke-linecap:round; stroke-linejoin:round;">
<circle cx="46500" cy="39500" r="157.48" /> 
</g>
<g style="fill:#FFFFFF; fill-opacity:1.0; 
stroke:#FFFFFF; stroke-width:39.3701; stroke-opacity:1; 
stroke-linecap:round; stroke-linejoin:round;">
</g>
<g style="fill:#FFFFFF; fill-opacity:1.0; 
stroke:#FFFFFF; stroke-width:0; stroke-opacity:1; 
stroke-linecap:round; stroke-linejoin:round;">
<circle cx="56500" cy="39500" r="157.48" /> 
</g>
<g style="fill:#FFFFFF; fill-opacity:1.0; 
stroke:#FFFFFF; stroke-width:39.3701; stroke-opacity:1; 
stroke-linecap:round; stroke-linejoin:round;">
</g>
<g style="fill:#FFFFFF; fill-opacity:1.0; 
stroke:#FFFFFF; stroke-width:0; stroke-opacity:1; 
stroke-linecap:round; stroke-linejoin:round;">
<circle cx="46500" cy="38500" r="157.48" /> 
</g>
<g style="fill:#FFFFFF; fill-opacity:1.0; 
stroke:#FFFFFF; stroke-width:39.3701; stroke-opacity:1; 
stroke-linecap:round; stroke-linejoin:round;">
</g>
<g style="fill:#FFFFFF; fill-opacity:1.0; 
stroke:#FFFFFF; stroke-width:0; stroke-opacity:1; 
stroke-linecap:round; stroke-linejoin:round;">
<circle cx="56500" cy="38500" r="157.48" /> 
</g>
<g style="fill:#FFFFFF; fill-opacity:1.0; 
stroke:#FFFFFF; stroke-width:39.3701; stroke-opacity:1; 
stroke-linecap:round; stroke-linejoin:round;">
</g>
<g style="fill:#FFFFFF; fill-opacity:1.0; 
stroke:#FFFFFF; stroke-width:0; stroke-opacity:1; 
stroke-linecap:round; stroke-linejoin:round;">
<circle cx="46500" cy="37500" r="157.48" /> 
</g>
<g style="fill:#FFFFFF; fill-opacity:1.0; 
stroke:#FFFFFF; stroke-width:39.3701; stroke-opacity:1; 
stroke-linecap:round; stroke-linejoin:round;">
</g>
<g style="fill:#FFFFFF; fill-opacity:1.0; 
stroke:#FFFFFF; stroke-width:0; stroke-opacity:1; 
stroke-linecap:round; stroke-linejoin:round;">
<circle cx="56500" cy="37500" r="157.48" /> 
</g>
<g style="fill:#FFFFFF; fill-opacity:1.0; 
stroke:#FFFFFF; stroke-width:39.3701; stroke-opacity:1; 
stroke-linecap:round; stroke-linejoin:round;">
</g>
<g style="fill:#FFFFFF; fill-opacity:1.0; 
stroke:#FFFFFF; stroke-width:0; stroke-opacity:1; 
stroke-linecap:round; stroke-linejoin:round;">
<circle cx="46500" cy="36500" r="157.48" /> 
</g>
<g style="fill:#FFFFFF; fill-opacity:1.0; 
stroke:#FFFFFF; stroke-width:39.3701; stroke-opacity:1; 
stroke-linecap:round; stroke-linejoin:round;">
</g>
<g style="fill:#FFFFFF; fill-opacity:1.0; 
stroke:#FFFFFF; stroke-width:0; stroke-opacity:1; 
stroke-linecap:round; stroke-linejoin:round;">
<circle cx="56500" cy="36500" r="157.48" /> 
</g>
<g style="fill:#FFFFFF; fill-opacity:1.0; 
stroke:#FFFFFF; stroke-width:39.3701; stroke-opacity:1; 
stroke-linecap:round; stroke-linejoin:round;">
</g>
<g style="fill:#FFFFFF; fill-opacity:1.0; 
stroke:#FFFFFF; stroke-width:0; stroke-opacity:1; 
stroke-linecap:round; stroke-linejoin:round;">
<circle cx="46500" cy="35500" r="157.48" /> 
</g>
<g style="fill:#FFFFFF; fill-opacity:1.0; 
stroke:#FFFFFF; stroke-width:39.3701; stroke-opacity:1; 
stroke-linecap:round; stroke-linejoin:round;">
</g>
<g style="fill:#FFFFFF; fill-opacity:1.0; 
stroke:#FFFFFF; stroke-width:0; stroke-opacity:1; 
stroke-linecap:round; stroke-linejoin:round;">
<circle cx="56500" cy="35500" r="157.48" /> 
</g>
<g style="fill:#FFFFFF; fill-opacity:1.0; 
stroke:#FFFFFF; stroke-width:39.3701; stroke-opacity:1; 
stroke-linecap:round; stroke-linejoin:round;">
</g>
<g style="fill:#FFFFFF; fill-opacity:1.0; 
stroke:#FFFFFF; stroke-width:0; stroke-opacity:1; 
stroke-linecap:round; stroke-linejoin:round;">
<circle cx="43000" cy="37500" r="200.787" /> 
</g>
<g style="fill:#FFFFFF; fill-opacity:1.0; 
stroke:#FFFFFF; stroke-width:39.3701; stroke-opacity:1; 
stroke-linecap:round; stroke-linejoin:round;">
</g>
<g style="fill:#FFFFFF; fill-opacity:1.0; 
stroke:#FFFFFF; stroke-width:0; stroke-opacity:1; 
stroke-linecap:round; stroke-linejoin:round;">
<circle cx="42000" cy="37500" r="200.787" /> 
</g>
<g style="fill:#FFFFFF; fill-opacity:1.0; 
stroke:#FFFFFF; stroke-width:39.3701; stroke-opacity:1; 
stroke-linecap:round; stroke-linejoin:round;">
</g>
<g style="fill:#FFFFFF; fill-opacity:1.0; 
stroke:#FFFFFF; stroke-width:0; stroke-opacity:1; 
stroke-linecap:round; stroke-linejoin:round;">
<circle cx="41000" cy="37500" r="200.787" /> 
</g>
<g style="fill:#FFFFFF; fill-opacity:1.0; 
stroke:#FFFFFF; stroke-width:39.3701; stroke-opacity:1; 
stroke-linecap:round; stroke-linejoin:round;">
</g>
<g style="fill:#FFFFFF; fill-opacity:1.0; 
stroke:#FFFFFF; stroke-width:0; stroke-opacity:1; 
stroke-linecap:round; stroke-linejoin:round;">
<circle cx="41000" cy="34500" r="137.795" /> 
</g>
<g style="fill:#FFFFFF; fill-opacity:1.0; 
stroke:#FFFFFF; stroke-width:39.3701; stroke-opacity:1; 
stroke-linecap:round; stroke-linejoin:round;">
</g>
<g style="fill:#FFFFFF; fill-opacity:1.0; 
stroke:#FFFFFF; stroke-width:0; stroke-opacity:1; 
stroke-linecap:round; stroke-linejoin:round;">
<circle cx="41748" cy="34500" r="137.795" /> 
</g>
<g style="fill:#FFFFFF; fill-opacity:1.0; 
stroke:#FFFFFF; stroke-width:39.3701; stroke-opacity:1; 
stroke-linecap:round; stroke-linejoin:round;">
</g>
<g style="fill:#FFFFFF; fill-opacity:1.0; 
stroke:#FFFFFF; stroke-width:0; stroke-opacity:1; 
stroke-linecap:round; stroke-linejoin:round;">
<circle cx="58500" cy="41000" r="196.85" /> 
</g>
<g style="fill:#FFFFFF; fill-opacity:1.0; 
stroke:#FFFFFF; stroke-width:39.3701; stroke-opacity:1; 
stroke-linecap:round; stroke-linejoin:round;">
</g>
<g style="fill:#FFFFFF; fill-opacity:1.0; 
stroke:#FFFFFF; stroke-width:0; stroke-opacity:1; 
stroke-linecap:round; stroke-linejoin:round;">
<circle cx="58500" cy="42000" r="196.85" /> 
</g>
<g style="fill:#FFFFFF; fill-opacity:1.0; 
stroke:#FFFFFF; stroke-width:39.3701; stroke-opacity:1; 
stroke-linecap:round; stroke-linejoin:round;">
</g>
<g style="fill:#FFFFFF; fill-opacity:1.0; 
stroke:#FFFFFF; stroke-width:0; stroke-opacity:1; 
stroke-linecap:round; stroke-linejoin:round;">
<circle cx="58500" cy="43000" r="196.85" /> 
</g>
<g style="fill:#FFFFFF; fill-opacity:1.0; 
stroke:#FFFFFF; stroke-width:39.3701; stroke-opacity:1; 
stroke-linecap:round; stroke-linejoin:round;">
</g>
<g style="fill:#FFFFFF; fill-opacity:1.0; 
stroke:#FFFFFF; stroke-width:0; stroke-opacity:1; 
stroke-linecap:round; stroke-linejoin:round;">
<circle cx="58500" cy="44000" r="196.85" /> 
</g>
<g style="fill:#FFFFFF; fill-opacity:1.0; 
stroke:#FFFFFF; stroke-width:39.3701; stroke-opacity:1; 
stroke-linecap:round; stroke-linejoin:round;">
</g>
<g style="fill:#FFFFFF; fill-opacity:1.0; 
stroke:#FFFFFF; stroke-width:0; stroke-opacity:1; 
stroke-linecap:round; stroke-linejoin:round;">
<circle cx="58500" cy="45000" r="196.85" /> 
</g>
<g style="fill:#FFFFFF; fill-opacity:1.0; 
stroke:#FFFFFF; stroke-width:39.3701; stroke-opacity:1; 
stroke-linecap:round; stroke-linejoin:round;">
</g>
<g style="fill:#FFFFFF; fill-opacity:1.0; 
stroke:#FFFFFF; stroke-width:0; stroke-opacity:1; 
stroke-linecap:round; stroke-linejoin:round;">
<circle cx="58500" cy="46000" r="196.85" /> 
</g>
<g style="fill:#FFFFFF; fill-opacity:1.0; 
stroke:#FFFFFF; stroke-width:39.3701; stroke-opacity:1; 
stroke-linecap:round; stroke-linejoin:round;">
</g>
<g style="fill:#FFFFFF; fill-opacity:1.0; 
stroke:#FFFFFF; stroke-width:0; stroke-opacity:1; 
stroke-linecap:round; stroke-linejoin:round;">
<circle cx="58500" cy="47000" r="196.85" /> 
</g>
<g style="fill:#FFFFFF; fill-opacity:1.0; 
stroke:#FFFFFF; stroke-width:39.3701; stroke-opacity:1; 
stroke-linecap:round; stroke-linejoin:round;">
</g>
<g style="fill:#FFFFFF; fill-opacity:1.0; 
stroke:#FFFFFF; stroke-width:0; stroke-opacity:1; 
stroke-linecap:round; stroke-linejoin:round;">
<circle cx="58500" cy="48000" r="196.85" /> 
</g>
<g style="fill:#FFFFFF; fill-opacity:1.0; 
stroke:#FFFFFF; stroke-width:39.3701; stroke-opacity:1; 
stroke-linecap:round; stroke-linejoin:round;">
</g>
<g style="fill:#FFFFFF; fill-opacity:1.0; 
stroke:#FFFFFF; stroke-width:0; stroke-opacity:1; 
stroke-linecap:round; stroke-linejoin:round;">
<circle cx="73000" cy="41000" r="157.48" /> 
</g>
<g style="fill:#FFFFFF; fill-opacity:1.0; 
stroke:#FFFFFF; stroke-width:39.3701; stroke-opacity:1; 
stroke-linecap:round; stroke-linejoin:round;">
</g>
<g style="fill:#FFFFFF; fill-opacity:1.0; 
stroke:#FFFFFF; stroke-width:0; stroke-opacity:1; 
stroke-linecap:round; stroke-linejoin:round;">
<circle cx="68000" cy="41000" r="157.48" /> 
</g>
<g style="fill:#FFFFFF; fill-opacity:1.0; 
stroke:#FFFFFF; stroke-width:39.3701; stroke-opacity:1; 
stroke-linecap:round; stroke-linejoin:round;">
</g>
<g style="fill:#FFFFFF; fill-opacity:1.0; 
stroke:#FFFFFF; stroke-width:0; stroke-opacity:1; 
stroke-linecap:round; stroke-linejoin:round;">
<circle cx="73000" cy="42000" r="157.48" /> 
</g>
<g style="fill:#FFFFFF; fill-opacity:1.0; 
stroke:#FFFFFF; stroke-width:39.3701; stroke-opacity:1; 
stroke-linecap:round; stroke-linejoin:round;">
</g>
<g style="fill:#FFFFFF; fill-opacity:1.0; 
stroke:#FFFFFF; stroke-width:0; stroke-opacity:1; 
stroke-linecap:round; stroke-linejoin:round;">
<circle cx="68000" cy="42000" r="157.48" /> 
</g>
<g style="fill:#FFFFFF; fill-opacity:1.0; 
stroke:#FFFFFF; stroke-width:39.3701; stroke-opacity:1; 
stroke-linecap:round; stroke-linejoin:round;">
</g>
<g style="fill:#FFFFFF; fill-opacity:1.0; 
stroke:#FFFFFF; stroke-width:0; stroke-opacity:1; 
stroke-linecap:round; stroke-linejoin:round;">
<circle cx="73000" cy="43000" r="157.48" /> 
</g>
<g style="fill:#FFFFFF; fill-opacity:1.0; 
stroke:#FFFFFF; stroke-width:39.3701; stroke-opacity:1; 
stroke-linecap:round; stroke-linejoin:round;">
</g>
<g style="fill:#FFFFFF; fill-opacity:1.0; 
stroke:#FFFFFF; stroke-width:0; stroke-opacity:1; 
stroke-linecap:round; stroke-linejoin:round;">
<circle cx="68000" cy="43000" r="157.48" /> 
</g>
<g style="fill:#FFFFFF; fill-opacity:1.0; 
stroke:#FFFFFF; stroke-width:39.3701; stroke-opacity:1; 
stroke-linecap:round; stroke-linejoin:round;">
</g>
<g style="fill:#FFFFFF; fill-opacity:1.0; 
stroke:#FFFFFF; stroke-width:0; stroke-opacity:1; 
stroke-linecap:round; stroke-linejoin:round;">
<circle cx="73000" cy="44000" r="157.48" /> 
</g>
<g style="fill:#FFFFFF; fill-opacity:1.0; 
stroke:#FFFFFF; stroke-width:39.3701; stroke-opacity:1; 
stroke-linecap:round; stroke-linejoin:round;">
</g>
<g style="fill:#FFFFFF; fill-opacity:1.0; 
stroke:#FFFFFF; stroke-width:0; stroke-opacity:1; 
stroke-linecap:round; stroke-linejoin:round;">
<circle cx="68000" cy="44000" r="157.48" /> 
</g>
<g style="fill:#FFFFFF; fill-opacity:1.0; 
stroke:#FFFFFF; stroke-width:39.3701; stroke-opacity:1; 
stroke-linecap:round; stroke-linejoin:round;">
</g>
<g style="fill:#FFFFFF; fill-opacity:1.0; 
stroke:#FFFFFF; stroke-width:0; stroke-opacity:1; 
stroke-linecap:round; stroke-linejoin:round;">
<circle cx="73000" cy="45000" r="157.48" /> 
</g>
<g style="fill:#FFFFFF; fill-opacity:1.0; 
stroke:#FFFFFF; stroke-width:39.3701; stroke-opacity:1; 
stroke-linecap:round; stroke-linejoin:round;">
</g>
<g style="fill:#FFFFFF; fill-opacity:1.0; 
stroke:#FFFFFF; stroke-width:0; stroke-opacity:1; 
stroke-linecap:round; stroke-linejoin:round;">
<circle cx="68000" cy="45000" r="157.48" /> 
</g>
<g style="fill:#FFFFFF; fill-opacity:1.0; 
stroke:#FFFFFF; stroke-width:39.3701; stroke-opacity:1; 
stroke-linecap:round; stroke-linejoin:round;">
</g>
<g style="fill:#FFFFFF; fill-opacity:1.0; 
stroke:#FFFFFF; stroke-width:0; stroke-opacity:1; 
stroke-linecap:round; stroke-linejoin:round;">
<circle cx="73000" cy="46000" r="157.48" /> 
</g>
<g style="fill:#FFFFFF; fill-opacity:1.0; 
stroke:#FFFFFF; stroke-width:39.3701; stroke-opacity:1; 
stroke-linecap:round; stroke-linejoin:round;">
</g>
<g style="fill:#FFFFFF; fill-opacity:1.0; 
stroke:#FFFFFF; stroke-width:0; stroke-opacity:1; 
stroke-linecap:round; stroke-linejoin:round;">
<circle cx="68000" cy="46000" r="157.48" /> 
</g>
<g style="fill:#FFFFFF; fill-opacity:1.0; 
stroke:#FFFFFF; stroke-width:39.3701; stroke-opacity:1; 
stroke-linecap:round; stroke-linejoin:round;">
</g>
<g style="fill:#FFFFFF; fill-opacity:1.0; 
stroke:#FFFFFF; stroke-width:0; stroke-opacity:1; 
stroke-linecap:round; stroke-linejoin:round;">
<circle cx="41000" cy="32000" r="196.85" /> 
</g>
<g style="fill:#FFFFFF; fill-opacity:1.0; 
stroke:#FFFFFF; stroke-width:39.3701; stroke-opacity:1; 
stroke-linecap:round; stroke-linejoin:round;">
</g>
<g style="fill:#FFFFFF; fill-opacity:1.0; 
stroke:#FFFFFF; stroke-width:0; stroke-opacity:1; 
stroke-linecap:round; stroke-linejoin:round;">
<circle cx="42000" cy="32000" r="196.85" /> 
</g>
<g style="fill:#FFFFFF; fill-opacity:1.0; 
stroke:#FFFFFF; stroke-width:39.3701; stroke-opacity:1; 
stroke-linecap:round; stroke-linejoin:round;">
</g>
<g style="fill:#FFFFFF; fill-opacity:1.0; 
stroke:#FFFFFF; stroke-width:0; stroke-opacity:1; 
stroke-linecap:round; stroke-linejoin:round;">
<circle cx="43000" cy="32000" r="196.85" /> 
</g>
<g style="fill:#FFFFFF; fill-opacity:1.0; 
stroke:#FFFFFF; stroke-width:39.3701; stroke-opacity:1; 
stroke-linecap:round; stroke-linejoin:round;">
</g>
<g style="fill:#000000; fill-opacity:1.0; 
stroke:#000000; stroke-width:39.3701; stroke-opacity:1; 
stroke-linecap:round; stroke-linejoin:round;">
</g>
<g style="fill:#C2C200; fill-opacity:1.0; 
stroke:#C2C200; stroke-width:39.3701; stroke-opacity:1; 
stroke-linecap:round; stroke-linejoin:round;">
</g>
<g style="fill:#C2C200; fill-opacity:0.0; 
stroke:#C2C200; stroke-width:39.3701; stroke-opacity:1; 
stroke-linecap:round; stroke-linejoin:round;">
<path d="M77500 14000
L77500 53000
" />
<path d="M38500 14000
L77500 14000
" />
<path d="M38500 53000
L38500 14000
" />
<path d="M77500 53000
L38500 53000
" />
<g >
</g>
<g >
</g>
<g >
</g>
<g >
</g>
<g >
</g>
<g >
</g>
<g >
</g>
<g >
</g>
</g> 
</svg>
