<?xml version="1.0" standalone="no"?>
 <!DOCTYPE svg PUBLIC "-//W3C//DTD SVG 1.1//EN" 
 "http://www.w3.org/Graphics/SVG/1.1/DTD/svg11.dtd"> 
<svg
  xmlns:svg="http://www.w3.org/2000/svg"
  xmlns="http://www.w3.org/2000/svg"
  xmlns:xlink="http://www.w3.org/1999/xlink"
  version="1.1"
  width="29.700220cm" height="21.000720cm" viewBox="0 0 116930 82680">
<title>SVG Picture created as esp32-F_SilkS.svg date 2020/05/20 13:39:08 </title>
  <desc>Picture generated by PCBNEW </desc>
<g style="fill:#000000; fill-opacity:1;stroke:#000000; stroke-opacity:1;
stroke-linecap:round; stroke-linejoin:round;"
 transform="translate(0 0) scale(1 1)">
</g>
<g style="fill:#000000; fill-opacity:0.0; 
stroke:#000000; stroke-width:-0.000393701; stroke-opacity:1; 
stroke-linecap:round; stroke-linejoin:round;">
</g>
<g style="fill:#000000; fill-opacity:0.0; 
stroke:#000000; stroke-width:39.3701; stroke-opacity:1; 
stroke-linecap:round; stroke-linejoin:round;">
</g>
<g style="fill:#000000; fill-opacity:0.0; 
stroke:#000000; stroke-width:59.0551; stroke-opacity:1; 
stroke-linecap:round; stroke-linejoin:round;">
<rect x="69685.9" y="65357.2" width="42519.7" height="12598.4" rx="0" />
</g>
<g style="fill:#000000; fill-opacity:0.0; 
stroke:#000000; stroke-width:39.3701; stroke-opacity:1; 
stroke-linecap:round; stroke-linejoin:round;">
</g>
<g style="fill:#000000; fill-opacity:0.0; 
stroke:#000000; stroke-width:59.0551; stroke-opacity:1; 
stroke-linecap:round; stroke-linejoin:round;">
<rect x="3937.01" y="3937.01" width="109056" height="74806" rx="0" />
</g>
<g style="fill:#000000; fill-opacity:0.0; 
stroke:#000000; stroke-width:39.3701; stroke-opacity:1; 
stroke-linecap:round; stroke-linejoin:round;">
</g>
<g style="fill:#000000; fill-opacity:0.0; 
stroke:#000000; stroke-width:59.0551; stroke-opacity:1; 
stroke-linecap:round; stroke-linejoin:round;">
<rect x="4724.41" y="4724.41" width="107481" height="73231.2" rx="0" />
</g>
<g style="fill:#000000; fill-opacity:0.0; 
stroke:#000000; stroke-width:39.3701; stroke-opacity:1; 
stroke-linecap:round; stroke-linejoin:round;">
</g>
<g style="fill:#000000; fill-opacity:0.0; 
stroke:#000000; stroke-width:59.0551; stroke-opacity:1; 
stroke-linecap:round; stroke-linejoin:round;">
<path d="M23622 4724
L23622 3937
" />
</g>
<g style="fill:#000000; fill-opacity:0.0; 
stroke:#000000; stroke-width:39.3701; stroke-opacity:1; 
stroke-linecap:round; stroke-linejoin:round;">
</g>
<g style="fill:#000000; fill-opacity:0.0; 
stroke:#000000; stroke-width:59.0551; stroke-opacity:1; 
stroke-linecap:round; stroke-linejoin:round;">
<path d="M43307 4724
L43307 3937
" />
</g>
<g style="fill:#000000; fill-opacity:0.0; 
stroke:#000000; stroke-width:39.3701; stroke-opacity:1; 
stroke-linecap:round; stroke-linejoin:round;">
</g>
<g style="fill:#000000; fill-opacity:0.0; 
stroke:#000000; stroke-width:59.0551; stroke-opacity:1; 
stroke-linecap:round; stroke-linejoin:round;">
<path d="M62992 4724
L62992 3937
" />
</g>
<g style="fill:#000000; fill-opacity:0.0; 
stroke:#000000; stroke-width:39.3701; stroke-opacity:1; 
stroke-linecap:round; stroke-linejoin:round;">
</g>
<g style="fill:#000000; fill-opacity:0.0; 
stroke:#000000; stroke-width:59.0551; stroke-opacity:1; 
stroke-linecap:round; stroke-linejoin:round;">
<path d="M82677 4724
L82677 3937
" />
</g>
<g style="fill:#000000; fill-opacity:0.0; 
stroke:#000000; stroke-width:39.3701; stroke-opacity:1; 
stroke-linecap:round; stroke-linejoin:round;">
</g>
<g style="fill:#000000; fill-opacity:0.0; 
stroke:#000000; stroke-width:59.0551; stroke-opacity:1; 
stroke-linecap:round; stroke-linejoin:round;">
<path d="M102362 4724
L102362 3937
" />
</g>
<g style="fill:#000000; fill-opacity:0.0; 
stroke:#000000; stroke-width:39.3701; stroke-opacity:1; 
stroke-linecap:round; stroke-linejoin:round;">
</g>
<g style="fill:#000000; fill-opacity:0.0; 
stroke:#000000; stroke-width:59.0551; stroke-opacity:1; 
stroke-linecap:round; stroke-linejoin:round;">
<text x="13779.5" y="4586.61"
textLength="546.494" font-size="682.415" lengthAdjust="spacingAndGlyphs"
text-anchor="start" opacity="0">1</text>
<path d="M14199 4562
L13906 4562
" />
<path d="M14052 4562
L14052 4050
L14004 4123
L13955 4172
L13906 4196
" />
</g>
<g style="fill:#000000; fill-opacity:0.0; 
stroke:#000000; stroke-width:39.3701; stroke-opacity:1; 
stroke-linecap:round; stroke-linejoin:round;">
</g>
<g style="fill:#000000; fill-opacity:0.0; 
stroke:#000000; stroke-width:59.0551; stroke-opacity:1; 
stroke-linecap:round; stroke-linejoin:round;">
<text x="33464.6" y="4586.61"
textLength="546.494" font-size="682.415" lengthAdjust="spacingAndGlyphs"
text-anchor="start" opacity="0">2</text>
<path d="M33591 4099
L33615 4074
L33664 4050
L33786 4050
L33835 4074
L33859 4099
L33884 4147
L33884 4196
L33859 4269
L33567 4562
L33884 4562
" />
</g>
<g style="fill:#000000; fill-opacity:0.0; 
stroke:#000000; stroke-width:39.3701; stroke-opacity:1; 
stroke-linecap:round; stroke-linejoin:round;">
</g>
<g style="fill:#000000; fill-opacity:0.0; 
stroke:#000000; stroke-width:59.0551; stroke-opacity:1; 
stroke-linecap:round; stroke-linejoin:round;">
<text x="53149.6" y="4586.61"
textLength="546.494" font-size="682.415" lengthAdjust="spacingAndGlyphs"
text-anchor="start" opacity="0">3</text>
<path d="M53252 4050
L53569 4050
L53398 4245
L53471 4245
L53520 4269
L53544 4294
L53569 4342
L53569 4464
L53544 4513
L53520 4537
L53471 4562
L53325 4562
L53276 4537
L53252 4513
" />
</g>
<g style="fill:#000000; fill-opacity:0.0; 
stroke:#000000; stroke-width:39.3701; stroke-opacity:1; 
stroke-linecap:round; stroke-linejoin:round;">
</g>
<g style="fill:#000000; fill-opacity:0.0; 
stroke:#000000; stroke-width:59.0551; stroke-opacity:1; 
stroke-linecap:round; stroke-linejoin:round;">
<text x="72834.6" y="4586.61"
textLength="546.494" font-size="682.415" lengthAdjust="spacingAndGlyphs"
text-anchor="start" opacity="0">4</text>
<path d="M73205 4221
L73205 4562
" />
<path d="M73083 4026
L72961 4391
L73278 4391
" />
</g>
<g style="fill:#000000; fill-opacity:0.0; 
stroke:#000000; stroke-width:39.3701; stroke-opacity:1; 
stroke-linecap:round; stroke-linejoin:round;">
</g>
<g style="fill:#000000; fill-opacity:0.0; 
stroke:#000000; stroke-width:59.0551; stroke-opacity:1; 
stroke-linecap:round; stroke-linejoin:round;">
<text x="92519.7" y="4586.61"
textLength="546.494" font-size="682.415" lengthAdjust="spacingAndGlyphs"
text-anchor="start" opacity="0">5</text>
<path d="M92914 4050
L92671 4050
L92646 4294
L92671 4269
L92719 4245
L92841 4245
L92890 4269
L92914 4294
L92939 4342
L92939 4464
L92914 4513
L92890 4537
L92841 4562
L92719 4562
L92671 4537
L92646 4513
" />
</g>
<g style="fill:#000000; fill-opacity:0.0; 
stroke:#000000; stroke-width:39.3701; stroke-opacity:1; 
stroke-linecap:round; stroke-linejoin:round;">
</g>
<g style="fill:#000000; fill-opacity:0.0; 
stroke:#000000; stroke-width:59.0551; stroke-opacity:1; 
stroke-linecap:round; stroke-linejoin:round;">
<text x="112205" y="4586.61"
textLength="546.494" font-size="682.415" lengthAdjust="spacingAndGlyphs"
text-anchor="start" opacity="0">6</text>
<path d="M112575 4050
L112477 4050
L112429 4074
L112404 4099
L112356 4172
L112331 4269
L112331 4464
L112356 4513
L112380 4537
L112429 4562
L112526 4562
L112575 4537
L112599 4513
L112624 4464
L112624 4342
L112599 4294
L112575 4269
L112526 4245
L112429 4245
L112380 4269
L112356 4294
L112331 4342
" />
</g>
<g style="fill:#000000; fill-opacity:0.0; 
stroke:#000000; stroke-width:39.3701; stroke-opacity:1; 
stroke-linecap:round; stroke-linejoin:round;">
</g>
<g style="fill:#000000; fill-opacity:0.0; 
stroke:#000000; stroke-width:59.0551; stroke-opacity:1; 
stroke-linecap:round; stroke-linejoin:round;">
<path d="M23622 77955
L23622 78742
" />
</g>
<g style="fill:#000000; fill-opacity:0.0; 
stroke:#000000; stroke-width:39.3701; stroke-opacity:1; 
stroke-linecap:round; stroke-linejoin:round;">
</g>
<g style="fill:#000000; fill-opacity:0.0; 
stroke:#000000; stroke-width:59.0551; stroke-opacity:1; 
stroke-linecap:round; stroke-linejoin:round;">
<path d="M43307 77955
L43307 78742
" />
</g>
<g style="fill:#000000; fill-opacity:0.0; 
stroke:#000000; stroke-width:39.3701; stroke-opacity:1; 
stroke-linecap:round; stroke-linejoin:round;">
</g>
<g style="fill:#000000; fill-opacity:0.0; 
stroke:#000000; stroke-width:59.0551; stroke-opacity:1; 
stroke-linecap:round; stroke-linejoin:round;">
<path d="M62992 77955
L62992 78742
" />
</g>
<g style="fill:#000000; fill-opacity:0.0; 
stroke:#000000; stroke-width:39.3701; stroke-opacity:1; 
stroke-linecap:round; stroke-linejoin:round;">
</g>
<g style="fill:#000000; fill-opacity:0.0; 
stroke:#000000; stroke-width:59.0551; stroke-opacity:1; 
stroke-linecap:round; stroke-linejoin:round;">
<path d="M82677 77955
L82677 78742
" />
</g>
<g style="fill:#000000; fill-opacity:0.0; 
stroke:#000000; stroke-width:39.3701; stroke-opacity:1; 
stroke-linecap:round; stroke-linejoin:round;">
</g>
<g style="fill:#000000; fill-opacity:0.0; 
stroke:#000000; stroke-width:59.0551; stroke-opacity:1; 
stroke-linecap:round; stroke-linejoin:round;">
<path d="M102362 77955
L102362 78742
" />
</g>
<g style="fill:#000000; fill-opacity:0.0; 
stroke:#000000; stroke-width:39.3701; stroke-opacity:1; 
stroke-linecap:round; stroke-linejoin:round;">
</g>
<g style="fill:#000000; fill-opacity:0.0; 
stroke:#000000; stroke-width:59.0551; stroke-opacity:1; 
stroke-linecap:round; stroke-linejoin:round;">
<text x="13779.5" y="78605.2"
textLength="546.494" font-size="682.415" lengthAdjust="spacingAndGlyphs"
text-anchor="start" opacity="0">1</text>
<path d="M14199 78580
L13906 78580
" />
<path d="M14052 78580
L14052 78069
L14004 78142
L13955 78190
L13906 78215
" />
</g>
<g style="fill:#000000; fill-opacity:0.0; 
stroke:#000000; stroke-width:39.3701; stroke-opacity:1; 
stroke-linecap:round; stroke-linejoin:round;">
</g>
<g style="fill:#000000; fill-opacity:0.0; 
stroke:#000000; stroke-width:59.0551; stroke-opacity:1; 
stroke-linecap:round; stroke-linejoin:round;">
<text x="33464.6" y="78605.2"
textLength="546.494" font-size="682.415" lengthAdjust="spacingAndGlyphs"
text-anchor="start" opacity="0">2</text>
<path d="M33591 78117
L33615 78093
L33664 78069
L33786 78069
L33835 78093
L33859 78117
L33884 78166
L33884 78215
L33859 78288
L33567 78580
L33884 78580
" />
</g>
<g style="fill:#000000; fill-opacity:0.0; 
stroke:#000000; stroke-width:39.3701; stroke-opacity:1; 
stroke-linecap:round; stroke-linejoin:round;">
</g>
<g style="fill:#000000; fill-opacity:0.0; 
stroke:#000000; stroke-width:59.0551; stroke-opacity:1; 
stroke-linecap:round; stroke-linejoin:round;">
<text x="53149.6" y="78605.2"
textLength="546.494" font-size="682.415" lengthAdjust="spacingAndGlyphs"
text-anchor="start" opacity="0">3</text>
<path d="M53252 78069
L53569 78069
L53398 78263
L53471 78263
L53520 78288
L53544 78312
L53569 78361
L53569 78483
L53544 78532
L53520 78556
L53471 78580
L53325 78580
L53276 78556
L53252 78532
" />
</g>
<g style="fill:#000000; fill-opacity:0.0; 
stroke:#000000; stroke-width:39.3701; stroke-opacity:1; 
stroke-linecap:round; stroke-linejoin:round;">
</g>
<g style="fill:#000000; fill-opacity:0.0; 
stroke:#000000; stroke-width:59.0551; stroke-opacity:1; 
stroke-linecap:round; stroke-linejoin:round;">
<text x="72834.6" y="78605.2"
textLength="546.494" font-size="682.415" lengthAdjust="spacingAndGlyphs"
text-anchor="start" opacity="0">4</text>
<path d="M73205 78239
L73205 78580
" />
<path d="M73083 78044
L72961 78410
L73278 78410
" />
</g>
<g style="fill:#000000; fill-opacity:0.0; 
stroke:#000000; stroke-width:39.3701; stroke-opacity:1; 
stroke-linecap:round; stroke-linejoin:round;">
</g>
<g style="fill:#000000; fill-opacity:0.0; 
stroke:#000000; stroke-width:59.0551; stroke-opacity:1; 
stroke-linecap:round; stroke-linejoin:round;">
<text x="92519.7" y="78605.2"
textLength="546.494" font-size="682.415" lengthAdjust="spacingAndGlyphs"
text-anchor="start" opacity="0">5</text>
<path d="M92914 78069
L92671 78069
L92646 78312
L92671 78288
L92719 78263
L92841 78263
L92890 78288
L92914 78312
L92939 78361
L92939 78483
L92914 78532
L92890 78556
L92841 78580
L92719 78580
L92671 78556
L92646 78532
" />
</g>
<g style="fill:#000000; fill-opacity:0.0; 
stroke:#000000; stroke-width:39.3701; stroke-opacity:1; 
stroke-linecap:round; stroke-linejoin:round;">
</g>
<g style="fill:#000000; fill-opacity:0.0; 
stroke:#000000; stroke-width:59.0551; stroke-opacity:1; 
stroke-linecap:round; stroke-linejoin:round;">
<text x="112205" y="78605.2"
textLength="546.494" font-size="682.415" lengthAdjust="spacingAndGlyphs"
text-anchor="start" opacity="0">6</text>
<path d="M112575 78069
L112477 78069
L112429 78093
L112404 78117
L112356 78190
L112331 78288
L112331 78483
L112356 78532
L112380 78556
L112429 78580
L112526 78580
L112575 78556
L112599 78532
L112624 78483
L112624 78361
L112599 78312
L112575 78288
L112526 78263
L112429 78263
L112380 78288
L112356 78312
L112331 78361
" />
</g>
<g style="fill:#000000; fill-opacity:0.0; 
stroke:#000000; stroke-width:39.3701; stroke-opacity:1; 
stroke-linecap:round; stroke-linejoin:round;">
</g>
<g style="fill:#000000; fill-opacity:0.0; 
stroke:#000000; stroke-width:59.0551; stroke-opacity:1; 
stroke-linecap:round; stroke-linejoin:round;">
<path d="M3937 23622
L4724 23622
" />
</g>
<g style="fill:#000000; fill-opacity:0.0; 
stroke:#000000; stroke-width:39.3701; stroke-opacity:1; 
stroke-linecap:round; stroke-linejoin:round;">
</g>
<g style="fill:#000000; fill-opacity:0.0; 
stroke:#000000; stroke-width:59.0551; stroke-opacity:1; 
stroke-linecap:round; stroke-linejoin:round;">
<path d="M3937 43307
L4724 43307
" />
</g>
<g style="fill:#000000; fill-opacity:0.0; 
stroke:#000000; stroke-width:39.3701; stroke-opacity:1; 
stroke-linecap:round; stroke-linejoin:round;">
</g>
<g style="fill:#000000; fill-opacity:0.0; 
stroke:#000000; stroke-width:59.0551; stroke-opacity:1; 
stroke-linecap:round; stroke-linejoin:round;">
<path d="M3937 62992
L4724 62992
" />
</g>
<g style="fill:#000000; fill-opacity:0.0; 
stroke:#000000; stroke-width:39.3701; stroke-opacity:1; 
stroke-linecap:round; stroke-linejoin:round;">
</g>
<g style="fill:#000000; fill-opacity:0.0; 
stroke:#000000; stroke-width:59.0551; stroke-opacity:1; 
stroke-linecap:round; stroke-linejoin:round;">
<text x="4330.71" y="14035.4"
textLength="497.75" font-size="682.415" lengthAdjust="spacingAndGlyphs"
text-anchor="middle" opacity="0">A</text>
<path d="M4208 13864
L4452 13864
" />
<path d="M4160 14011
L4330 13499
L4501 14011
" />
</g>
<g style="fill:#000000; fill-opacity:0.0; 
stroke:#000000; stroke-width:39.3701; stroke-opacity:1; 
stroke-linecap:round; stroke-linejoin:round;">
</g>
<g style="fill:#000000; fill-opacity:0.0; 
stroke:#000000; stroke-width:59.0551; stroke-opacity:1; 
stroke-linecap:round; stroke-linejoin:round;">
<text x="4330.71" y="33720.5"
textLength="570.866" font-size="682.415" lengthAdjust="spacingAndGlyphs"
text-anchor="middle" opacity="0">B</text>
<path d="M4367 33428
L4440 33452
L4464 33476
L4489 33525
L4489 33598
L4464 33647
L4440 33671
L4391 33696
L4196 33696
L4196 33184
L4367 33184
L4416 33208
L4440 33233
L4464 33281
L4464 33330
L4440 33379
L4416 33403
L4367 33428
L4196 33428
" />
</g>
<g style="fill:#000000; fill-opacity:0.0; 
stroke:#000000; stroke-width:39.3701; stroke-opacity:1; 
stroke-linecap:round; stroke-linejoin:round;">
</g>
<g style="fill:#000000; fill-opacity:0.0; 
stroke:#000000; stroke-width:59.0551; stroke-opacity:1; 
stroke-linecap:round; stroke-linejoin:round;">
<text x="4330.71" y="53405.5"
textLength="570.866" font-size="682.415" lengthAdjust="spacingAndGlyphs"
text-anchor="middle" opacity="0">C</text>
<path d="M4489 53332
L4464 53356
L4391 53381
L4342 53381
L4269 53356
L4221 53308
L4196 53259
L4172 53161
L4172 53088
L4196 52991
L4221 52942
L4269 52893
L4342 52869
L4391 52869
L4464 52893
L4489 52918
" />
</g>
<g style="fill:#000000; fill-opacity:0.0; 
stroke:#000000; stroke-width:39.3701; stroke-opacity:1; 
stroke-linecap:round; stroke-linejoin:round;">
</g>
<g style="fill:#000000; fill-opacity:0.0; 
stroke:#000000; stroke-width:59.0551; stroke-opacity:1; 
stroke-linecap:round; stroke-linejoin:round;">
<text x="4330.71" y="73090.6"
textLength="570.866" font-size="682.415" lengthAdjust="spacingAndGlyphs"
text-anchor="middle" opacity="0">D</text>
<path d="M4196 73066
L4196 72554
L4318 72554
L4391 72578
L4440 72627
L4464 72676
L4489 72773
L4489 72846
L4464 72944
L4440 72993
L4391 73041
L4318 73066
L4196 73066
" />
</g>
<g style="fill:#000000; fill-opacity:0.0; 
stroke:#000000; stroke-width:39.3701; stroke-opacity:1; 
stroke-linecap:round; stroke-linejoin:round;">
</g>
<g style="fill:#000000; fill-opacity:0.0; 
stroke:#000000; stroke-width:59.0551; stroke-opacity:1; 
stroke-linecap:round; stroke-linejoin:round;">
<path d="M112992 23622
L112205 23622
" />
</g>
<g style="fill:#000000; fill-opacity:0.0; 
stroke:#000000; stroke-width:39.3701; stroke-opacity:1; 
stroke-linecap:round; stroke-linejoin:round;">
</g>
<g style="fill:#000000; fill-opacity:0.0; 
stroke:#000000; stroke-width:59.0551; stroke-opacity:1; 
stroke-linecap:round; stroke-linejoin:round;">
<path d="M112992 43307
L112205 43307
" />
</g>
<g style="fill:#000000; fill-opacity:0.0; 
stroke:#000000; stroke-width:39.3701; stroke-opacity:1; 
stroke-linecap:round; stroke-linejoin:round;">
</g>
<g style="fill:#000000; fill-opacity:0.0; 
stroke:#000000; stroke-width:59.0551; stroke-opacity:1; 
stroke-linecap:round; stroke-linejoin:round;">
<path d="M112992 62992
L112205 62992
" />
</g>
<g style="fill:#000000; fill-opacity:0.0; 
stroke:#000000; stroke-width:39.3701; stroke-opacity:1; 
stroke-linecap:round; stroke-linejoin:round;">
</g>
<g style="fill:#000000; fill-opacity:0.0; 
stroke:#000000; stroke-width:59.0551; stroke-opacity:1; 
stroke-linecap:round; stroke-linejoin:round;">
<text x="112599" y="14035.4"
textLength="497.75" font-size="682.415" lengthAdjust="spacingAndGlyphs"
text-anchor="middle" opacity="0">A</text>
<path d="M112477 13864
L112721 13864
" />
<path d="M112428 14011
L112599 13499
L112769 14011
" />
</g>
<g style="fill:#000000; fill-opacity:0.0; 
stroke:#000000; stroke-width:39.3701; stroke-opacity:1; 
stroke-linecap:round; stroke-linejoin:round;">
</g>
<g style="fill:#000000; fill-opacity:0.0; 
stroke:#000000; stroke-width:59.0551; stroke-opacity:1; 
stroke-linecap:round; stroke-linejoin:round;">
<text x="112599" y="33720.5"
textLength="570.866" font-size="682.415" lengthAdjust="spacingAndGlyphs"
text-anchor="middle" opacity="0">B</text>
<path d="M112635 33428
L112708 33452
L112733 33476
L112757 33525
L112757 33598
L112733 33647
L112708 33671
L112660 33696
L112465 33696
L112465 33184
L112635 33184
L112684 33208
L112708 33233
L112733 33281
L112733 33330
L112708 33379
L112684 33403
L112635 33428
L112465 33428
" />
</g>
<g style="fill:#000000; fill-opacity:0.0; 
stroke:#000000; stroke-width:39.3701; stroke-opacity:1; 
stroke-linecap:round; stroke-linejoin:round;">
</g>
<g style="fill:#000000; fill-opacity:0.0; 
stroke:#000000; stroke-width:59.0551; stroke-opacity:1; 
stroke-linecap:round; stroke-linejoin:round;">
<text x="112599" y="53405.5"
textLength="570.866" font-size="682.415" lengthAdjust="spacingAndGlyphs"
text-anchor="middle" opacity="0">C</text>
<path d="M112757 53332
L112733 53356
L112660 53381
L112611 53381
L112538 53356
L112489 53308
L112465 53259
L112440 53161
L112440 53088
L112465 52991
L112489 52942
L112538 52893
L112611 52869
L112660 52869
L112733 52893
L112757 52918
" />
</g>
<g style="fill:#000000; fill-opacity:0.0; 
stroke:#000000; stroke-width:39.3701; stroke-opacity:1; 
stroke-linecap:round; stroke-linejoin:round;">
</g>
<g style="fill:#000000; fill-opacity:0.0; 
stroke:#000000; stroke-width:59.0551; stroke-opacity:1; 
stroke-linecap:round; stroke-linejoin:round;">
<text x="112599" y="73090.6"
textLength="570.866" font-size="682.415" lengthAdjust="spacingAndGlyphs"
text-anchor="middle" opacity="0">D</text>
<path d="M112465 73066
L112465 72554
L112587 72554
L112660 72578
L112708 72627
L112733 72676
L112757 72773
L112757 72846
L112733 72944
L112708 72993
L112660 73041
L112587 73066
L112465 73066
" />
</g>
<g style="fill:#000000; fill-opacity:0.0; 
stroke:#000000; stroke-width:39.3701; stroke-opacity:1; 
stroke-linecap:round; stroke-linejoin:round;">
</g>
<g style="fill:#000000; fill-opacity:0.0; 
stroke:#000000; stroke-width:59.0551; stroke-opacity:1; 
stroke-linecap:round; stroke-linejoin:round;">
<text x="78741" y="76321.7"
textLength="2758.72" font-size="787.402" lengthAdjust="spacingAndGlyphs"
text-anchor="start" opacity="0">Date: </text>
<path d="M78911 76293
L78911 75703
L79051 75703
L79136 75731
L79192 75787
L79220 75843
L79248 75956
L79248 76040
L79220 76153
L79192 76209
L79136 76265
L79051 76293
L78911 76293
" />
<path d="M79754 76293
L79754 75984
L79726 75928
L79670 75899
L79557 75899
L79501 75928
" />
<path d="M79754 76265
L79698 76293
L79557 76293
L79501 76265
L79473 76209
L79473 76153
L79501 76096
L79557 76068
L79698 76068
L79754 76040
" />
<path d="M79951 75899
L80176 75899
" />
<path d="M80036 75703
L80036 76209
L80064 76265
L80120 76293
L80176 76293
" />
<path d="M80598 76265
L80542 76293
L80429 76293
L80373 76265
L80345 76209
L80345 75984
L80373 75928
L80429 75899
L80542 75899
L80598 75928
L80626 75984
L80626 76040
L80345 76096
" />
<path d="M80879 76237
L80907 76265
L80879 76293
L80851 76265
L80879 76237
L80879 76293
" />
<path d="M80879 75928
L80907 75956
L80879 75984
L80851 75956
L80879 75928
L80879 75984
" />
</g>
<g style="fill:#000000; fill-opacity:0.0; 
stroke:#000000; stroke-width:39.3701; stroke-opacity:1; 
stroke-linecap:round; stroke-linejoin:round;">
</g>
<g style="fill:#000000; fill-opacity:0.0; 
stroke:#000000; stroke-width:59.0551; stroke-opacity:1; 
stroke-linecap:round; stroke-linejoin:round;">
<path d="M69685 76577
L112205 76577
" />
</g>
<g style="fill:#000000; fill-opacity:0.0; 
stroke:#000000; stroke-width:39.3701; stroke-opacity:1; 
stroke-linecap:round; stroke-linejoin:round;">
</g>
<g style="fill:#000000; fill-opacity:0.0; 
stroke:#000000; stroke-width:59.0551; stroke-opacity:1; 
stroke-linecap:round; stroke-linejoin:round;">
<text x="70079.6" y="77424.1"
textLength="23259.3" font-size="787.402" lengthAdjust="spacingAndGlyphs"
text-anchor="start" opacity="0">KiCad E.D.A.  kicad 5.1.6-c6e7f7d~86~ubuntu18.04.1</text>
<path d="M70249 77395
L70249 76805
" />
<path d="M70587 77395
L70334 77058
" />
<path d="M70587 76805
L70249 77142
" />
<path d="M70840 77395
L70840 77002
" />
<path d="M70840 76805
L70812 76833
L70840 76861
L70868 76833
L70840 76805
L70840 76861
" />
<path d="M71458 77339
L71430 77367
L71346 77395
L71290 77395
L71205 77367
L71149 77311
L71121 77255
L71093 77142
L71093 77058
L71121 76946
L71149 76889
L71205 76833
L71290 76805
L71346 76805
L71430 76833
L71458 76861
" />
<path d="M71965 77395
L71965 77086
L71937 77030
L71880 77002
L71768 77002
L71712 77030
" />
<path d="M71965 77367
L71908 77395
L71768 77395
L71712 77367
L71683 77311
L71683 77255
L71712 77199
L71768 77171
L71908 77171
L71965 77142
" />
<path d="M72499 77395
L72499 76805
" />
<path d="M72499 77367
L72443 77395
L72330 77395
L72274 77367
L72246 77339
L72218 77283
L72218 77114
L72246 77058
L72274 77030
L72330 77002
L72443 77002
L72499 77030
" />
<path d="M73230 77086
L73427 77086
" />
<path d="M73511 77395
L73230 77395
L73230 76805
L73511 76805
" />
<path d="M73764 77339
L73793 77367
L73764 77395
L73736 77367
L73764 77339
L73764 77395
" />
<path d="M74046 77395
L74046 76805
L74186 76805
L74271 76833
L74327 76889
L74355 76946
L74383 77058
L74383 77142
L74355 77255
L74327 77311
L74271 77367
L74186 77395
L74046 77395
" />
<path d="M74636 77339
L74664 77367
L74636 77395
L74608 77367
L74636 77339
L74636 77395
" />
<path d="M74889 77227
L75171 77227
" />
<path d="M74833 77395
L75030 76805
L75227 77395
" />
<path d="M75424 77339
L75452 77367
L75424 77395
L75395 77367
L75424 77339
L75424 77395
" />
<path d="M76605 77395
L76605 76805
" />
<path d="M76661 77171
L76830 77395
" />
<path d="M76830 77002
L76605 77227
" />
<path d="M77083 77395
L77083 77002
" />
<path d="M77083 76805
L77055 76833
L77083 76861
L77111 76833
L77083 76805
L77083 76861
" />
<path d="M77617 77367
L77561 77395
L77448 77395
L77392 77367
L77364 77339
L77336 77283
L77336 77114
L77364 77058
L77392 77030
L77448 77002
L77561 77002
L77617 77030
" />
<path d="M78123 77395
L78123 77086
L78095 77030
L78039 77002
L77926 77002
L77870 77030
" />
<path d="M78123 77367
L78067 77395
L77926 77395
L77870 77367
L77842 77311
L77842 77255
L77870 77199
L77926 77171
L78067 77171
L78123 77142
" />
<path d="M78658 77395
L78658 76805
" />
<path d="M78658 77367
L78601 77395
L78489 77395
L78433 77367
L78404 77339
L78376 77283
L78376 77114
L78404 77058
L78433 77030
L78489 77002
L78601 77002
L78658 77030
" />
<path d="M79670 76805
L79389 76805
L79361 77086
L79389 77058
L79445 77030
L79586 77030
L79642 77058
L79670 77086
L79698 77142
L79698 77283
L79670 77339
L79642 77367
L79586 77395
L79445 77395
L79389 77367
L79361 77339
" />
<path d="M79951 77339
L79979 77367
L79951 77395
L79923 77367
L79951 77339
L79951 77395
" />
<path d="M80542 77395
L80204 77395
" />
<path d="M80373 77395
L80373 76805
L80317 76889
L80260 76946
L80204 76974
" />
<path d="M80795 77339
L80823 77367
L80795 77395
L80767 77367
L80795 77339
L80795 77395
" />
<path d="M81329 76805
L81217 76805
L81160 76833
L81132 76861
L81076 76946
L81048 77058
L81048 77283
L81076 77339
L81104 77367
L81160 77395
L81273 77395
L81329 77367
L81357 77339
L81385 77283
L81385 77142
L81357 77086
L81329 77058
L81273 77030
L81160 77030
L81104 77058
L81076 77086
L81048 77142
" />
<path d="M81638 77171
L82088 77171
" />
<path d="M82623 77367
L82566 77395
L82454 77395
L82398 77367
L82370 77339
L82341 77283
L82341 77114
L82370 77058
L82398 77030
L82454 77002
L82566 77002
L82623 77030
" />
<path d="M83129 76805
L83016 76805
L82960 76833
L82932 76861
L82876 76946
L82848 77058
L82848 77283
L82876 77339
L82904 77367
L82960 77395
L83073 77395
L83129 77367
L83157 77339
L83185 77283
L83185 77142
L83157 77086
L83129 77058
L83073 77030
L82960 77030
L82904 77058
L82876 77086
L82848 77142
" />
<path d="M83663 77367
L83607 77395
L83494 77395
L83438 77367
L83410 77311
L83410 77086
L83438 77030
L83494 77002
L83607 77002
L83663 77030
L83691 77086
L83691 77142
L83410 77199
" />
<path d="M83888 76805
L84282 76805
L84029 77395
" />
<path d="M84422 77002
L84647 77002
" />
<path d="M84507 77395
L84507 76889
L84535 76833
L84591 76805
L84647 76805
" />
<path d="M84788 76805
L85182 76805
L84929 77395
" />
<path d="M85660 77395
L85660 76805
" />
<path d="M85660 77367
L85604 77395
L85491 77395
L85435 77367
L85407 77339
L85379 77283
L85379 77114
L85407 77058
L85435 77030
L85491 77002
L85604 77002
L85660 77030
" />
<path d="M85800 76644
L86363 76644
" />
<path d="M86025 77058
L85969 77030
L85941 77002
L85913 76946
L85913 76917
L85941 76861
L85969 76833
L86025 76805
L86138 76805
L86194 76833
L86222 76861
L86250 76917
L86250 76946
L86222 77002
L86194 77030
L86138 77058
L86025 77058
L85969 77086
L85941 77114
L85913 77171
L85913 77283
L85941 77339
L85969 77367
L86025 77395
L86138 77395
L86194 77367
L86222 77339
L86250 77283
L86250 77171
L86222 77114
L86194 77086
L86138 77058
" />
<path d="M86363 76644
L86925 76644
" />
<path d="M86757 76805
L86644 76805
L86588 76833
L86560 76861
L86503 76946
L86475 77058
L86475 77283
L86503 77339
L86532 77367
L86588 77395
L86700 77395
L86757 77367
L86785 77339
L86813 77283
L86813 77142
L86785 77086
L86757 77058
L86700 77030
L86588 77030
L86532 77058
L86503 77086
L86475 77142
" />
<path d="M87319 77002
L87319 77395
" />
<path d="M87066 77002
L87066 77311
L87094 77367
L87150 77395
L87235 77395
L87291 77367
L87319 77339
" />
<path d="M87600 77395
L87600 76805
" />
<path d="M87600 77030
L87656 77002
L87769 77002
L87825 77030
L87853 77058
L87881 77114
L87881 77283
L87853 77339
L87825 77367
L87769 77395
L87656 77395
L87600 77367
" />
<path d="M88388 77002
L88388 77395
" />
<path d="M88135 77002
L88135 77311
L88163 77367
L88219 77395
L88303 77395
L88359 77367
L88388 77339
" />
<path d="M88669 77002
L88669 77395
" />
<path d="M88669 77058
L88697 77030
L88753 77002
L88838 77002
L88894 77030
L88922 77086
L88922 77395
" />
<path d="M89119 77002
L89344 77002
" />
<path d="M89203 76805
L89203 77311
L89231 77367
L89287 77395
L89344 77395
" />
<path d="M89794 77002
L89794 77395
" />
<path d="M89541 77002
L89541 77311
L89569 77367
L89625 77395
L89709 77395
L89766 77367
L89794 77339
" />
<path d="M90384 77395
L90047 77395
" />
<path d="M90215 77395
L90215 76805
L90159 76889
L90103 76946
L90047 76974
" />
<path d="M90722 77058
L90665 77030
L90637 77002
L90609 76946
L90609 76917
L90637 76861
L90665 76833
L90722 76805
L90834 76805
L90890 76833
L90919 76861
L90947 76917
L90947 76946
L90919 77002
L90890 77030
L90834 77058
L90722 77058
L90665 77086
L90637 77114
L90609 77171
L90609 77283
L90637 77339
L90665 77367
L90722 77395
L90834 77395
L90890 77367
L90919 77339
L90947 77283
L90947 77171
L90919 77114
L90890 77086
L90834 77058
" />
<path d="M91200 77339
L91228 77367
L91200 77395
L91172 77367
L91200 77339
L91200 77395
" />
<path d="M91593 76805
L91650 76805
L91706 76833
L91734 76861
L91762 76917
L91790 77030
L91790 77171
L91762 77283
L91734 77339
L91706 77367
L91650 77395
L91593 77395
L91537 77367
L91509 77339
L91481 77283
L91453 77171
L91453 77030
L91481 76917
L91509 76861
L91537 76833
L91593 76805
" />
<path d="M92296 77002
L92296 77395
" />
<path d="M92156 76777
L92015 77199
L92381 77199
" />
<path d="M92606 77339
L92634 77367
L92606 77395
L92578 77367
L92606 77339
L92606 77395
" />
<path d="M93196 77395
L92859 77395
" />
<path d="M93028 77395
L93028 76805
L92971 76889
L92915 76946
L92859 76974
" />
</g>
<g style="fill:#000000; fill-opacity:0.0; 
stroke:#000000; stroke-width:39.3701; stroke-opacity:1; 
stroke-linecap:round; stroke-linejoin:round;">
</g>
<g style="fill:#000000; fill-opacity:0.0; 
stroke:#000000; stroke-width:59.0551; stroke-opacity:1; 
stroke-linecap:round; stroke-linejoin:round;">
<path d="M69685 75396
L112205 75396
" />
</g>
<g style="fill:#000000; fill-opacity:0.0; 
stroke:#000000; stroke-width:39.3701; stroke-opacity:1; 
stroke-linecap:round; stroke-linejoin:round;">
</g>
<g style="fill:#000000; fill-opacity:0.0; 
stroke:#000000; stroke-width:118.11; stroke-opacity:1; 
stroke-linecap:round; stroke-linejoin:round;">
<text x="103544" y="76321.7"
textLength="2336.9" font-size="787.402" lengthAdjust="spacingAndGlyphs"
text-anchor="start" opacity="0">Rev: </text>
<path d="M104099 76293
L103902 76012
" />
<path d="M103761 76293
L103761 75703
L103986 75703
L104042 75731
L104070 75759
L104099 75815
L104099 75899
L104070 75956
L104042 75984
L103986 76012
L103761 76012
" />
<path d="M104577 76265
L104520 76293
L104408 76293
L104352 76265
L104323 76209
L104323 75984
L104352 75928
L104408 75899
L104520 75899
L104577 75928
L104605 75984
L104605 76040
L104323 76096
" />
<path d="M104802 75899
L104942 76293
L105083 75899
" />
<path d="M105308 76237
L105336 76265
L105308 76293
L105280 76265
L105308 76237
L105308 76293
" />
<path d="M105308 75928
L105336 75956
L105308 75984
L105280 75956
L105308 75928
L105308 75984
" />
</g>
<g style="fill:#000000; fill-opacity:0.0; 
stroke:#000000; stroke-width:39.3701; stroke-opacity:1; 
stroke-linecap:round; stroke-linejoin:round;">
</g>
<g style="fill:#000000; fill-opacity:0.0; 
stroke:#000000; stroke-width:59.0551; stroke-opacity:1; 
stroke-linecap:round; stroke-linejoin:round;">
<text x="70079.6" y="76321.7"
textLength="3781.21" font-size="787.402" lengthAdjust="spacingAndGlyphs"
text-anchor="start" opacity="0">Size: A4</text>
<path d="M70221 76265
L70305 76293
L70446 76293
L70502 76265
L70530 76237
L70559 76181
L70559 76124
L70530 76068
L70502 76040
L70446 76012
L70334 75984
L70277 75956
L70249 75928
L70221 75871
L70221 75815
L70249 75759
L70277 75731
L70334 75703
L70474 75703
L70559 75731
" />
<path d="M70812 76293
L70812 75899
" />
<path d="M70812 75703
L70784 75731
L70812 75759
L70840 75731
L70812 75703
L70812 75759
" />
<path d="M71037 75899
L71346 75899
L71037 76293
L71346 76293
" />
<path d="M71796 76265
L71740 76293
L71627 76293
L71571 76265
L71543 76209
L71543 75984
L71571 75928
L71627 75899
L71740 75899
L71796 75928
L71824 75984
L71824 76040
L71543 76096
" />
<path d="M72077 76237
L72105 76265
L72077 76293
L72049 76265
L72077 76237
L72077 76293
" />
<path d="M72077 75928
L72105 75956
L72077 75984
L72049 75956
L72077 75928
L72077 75984
" />
<path d="M72780 76124
L73061 76124
" />
<path d="M72724 76293
L72921 75703
L73118 76293
" />
<path d="M73568 75899
L73568 76293
" />
<path d="M73427 75674
L73286 76096
L73652 76096
" />
</g>
<g style="fill:#000000; fill-opacity:0.0; 
stroke:#000000; stroke-width:39.3701; stroke-opacity:1; 
stroke-linecap:round; stroke-linejoin:round;">
</g>
<g style="fill:#000000; fill-opacity:0.0; 
stroke:#000000; stroke-width:59.0551; stroke-opacity:1; 
stroke-linecap:round; stroke-linejoin:round;">
<text x="103544" y="77424.1"
textLength="3349.27" font-size="787.402" lengthAdjust="spacingAndGlyphs"
text-anchor="start" opacity="0">Id: 1/1</text>
<path d="M103714 77395
L103714 76805
" />
<path d="M104248 77395
L104248 76805
" />
<path d="M104248 77367
L104192 77395
L104079 77395
L104023 77367
L103995 77339
L103967 77283
L103967 77114
L103995 77058
L104023 77030
L104079 77002
L104192 77002
L104248 77030
" />
<path d="M104529 77339
L104557 77367
L104529 77395
L104501 77367
L104529 77339
L104529 77395
" />
<path d="M104529 77030
L104557 77058
L104529 77086
L104501 77058
L104529 77030
L104529 77086
" />
<path d="M105570 77395
L105232 77395
" />
<path d="M105401 77395
L105401 76805
L105345 76889
L105289 76946
L105232 76974
" />
<path d="M106245 76777
L105739 77536
" />
<path d="M106751 77395
L106413 77395
" />
<path d="M106582 77395
L106582 76805
L106526 76889
L106470 76946
L106413 76974
" />
</g>
<g style="fill:#000000; fill-opacity:0.0; 
stroke:#000000; stroke-width:39.3701; stroke-opacity:1; 
stroke-linecap:round; stroke-linejoin:round;">
</g>
<g style="fill:#000000; fill-opacity:0.0; 
stroke:#000000; stroke-width:59.0551; stroke-opacity:1; 
stroke-linecap:round; stroke-linejoin:round;">
<path d="M69685 73821
L112205 73821
" />
</g>
<g style="fill:#000000; fill-opacity:0.0; 
stroke:#000000; stroke-width:39.3701; stroke-opacity:1; 
stroke-linecap:round; stroke-linejoin:round;">
</g>
<g style="fill:#000000; fill-opacity:0.0; 
stroke:#000000; stroke-width:157.48; stroke-opacity:1; 
stroke-linecap:round; stroke-linejoin:round;">
<text x="70079.6" y="74924.1"
textLength="3701.14" font-size="1049.87" lengthAdjust="spacingAndGlyphs"
text-anchor="start" opacity="0">Title: </text>
<path d="M70360 74099
L70810 74099
" />
<path d="M70486 74886
L70585 74099
" />
<path d="M70974 74886
L71039 74361
" />
<path d="M71072 74099
L71030 74136
L71063 74174
L71105 74136
L71072 74099
L71063 74174
" />
<path d="M71302 74361
L71602 74361
" />
<path d="M71447 74099
L71363 74774
L71391 74849
L71461 74886
L71536 74886
" />
<path d="M71911 74886
L71841 74849
L71813 74774
L71897 74099
" />
<path d="M72516 74849
L72436 74886
L72286 74886
L72216 74849
L72187 74774
L72225 74474
L72272 74399
L72352 74361
L72501 74361
L72572 74399
L72600 74474
L72591 74549
L72206 74624
" />
<path d="M72895 74811
L72928 74849
L72886 74886
L72853 74849
L72895 74811
L72886 74886
" />
<path d="M72947 74399
L72980 74436
L72937 74474
L72905 74436
L72947 74399
L72937 74474
" />
</g>
<g style="fill:#000000; fill-opacity:0.0; 
stroke:#000000; stroke-width:39.3701; stroke-opacity:1; 
stroke-linecap:round; stroke-linejoin:round;">
</g>
<g style="fill:#000000; fill-opacity:0.0; 
stroke:#000000; stroke-width:59.0551; stroke-opacity:1; 
stroke-linecap:round; stroke-linejoin:round;">
<text x="70079.6" y="73408.3"
textLength="9822.27" font-size="787.402" lengthAdjust="spacingAndGlyphs"
text-anchor="start" opacity="0">File: esp32.kicad_pcb</text>
<path d="M70446 73070
L70249 73070
" />
<path d="M70249 73380
L70249 72789
L70530 72789
" />
<path d="M70755 73380
L70755 72986
" />
<path d="M70755 72789
L70727 72817
L70755 72845
L70784 72817
L70755 72789
L70755 72845
" />
<path d="M71121 73380
L71065 73352
L71037 73295
L71037 72789
" />
<path d="M71571 73352
L71515 73380
L71402 73380
L71346 73352
L71318 73295
L71318 73070
L71346 73014
L71402 72986
L71515 72986
L71571 73014
L71599 73070
L71599 73127
L71318 73183
" />
<path d="M71852 73323
L71880 73352
L71852 73380
L71824 73352
L71852 73323
L71852 73380
" />
<path d="M71852 73014
L71880 73042
L71852 73070
L71824 73042
L71852 73014
L71852 73070
" />
<path d="M72808 73352
L72752 73380
L72640 73380
L72583 73352
L72555 73295
L72555 73070
L72583 73014
L72640 72986
L72752 72986
L72808 73014
L72836 73070
L72836 73127
L72555 73183
" />
<path d="M73061 73352
L73118 73380
L73230 73380
L73286 73352
L73314 73295
L73314 73267
L73286 73211
L73230 73183
L73146 73183
L73090 73155
L73061 73099
L73061 73070
L73090 73014
L73146 72986
L73230 72986
L73286 73014
" />
<path d="M73568 72986
L73568 73577
" />
<path d="M73568 73014
L73624 72986
L73736 72986
L73793 73014
L73821 73042
L73849 73099
L73849 73267
L73821 73323
L73793 73352
L73736 73380
L73624 73380
L73568 73352
" />
<path d="M74046 72789
L74411 72789
L74214 73014
L74299 73014
L74355 73042
L74383 73070
L74411 73127
L74411 73267
L74383 73323
L74355 73352
L74299 73380
L74130 73380
L74074 73352
L74046 73323
" />
<path d="M74636 72845
L74664 72817
L74721 72789
L74861 72789
L74917 72817
L74946 72845
L74974 72902
L74974 72958
L74946 73042
L74608 73380
L74974 73380
" />
<path d="M75227 73323
L75255 73352
L75227 73380
L75199 73352
L75227 73323
L75227 73380
" />
<path d="M75508 73380
L75508 72789
" />
<path d="M75564 73155
L75733 73380
" />
<path d="M75733 72986
L75508 73211
" />
<path d="M75986 73380
L75986 72986
" />
<path d="M75986 72789
L75958 72817
L75986 72845
L76014 72817
L75986 72789
L75986 72845
" />
<path d="M76520 73352
L76464 73380
L76352 73380
L76295 73352
L76267 73323
L76239 73267
L76239 73099
L76267 73042
L76295 73014
L76352 72986
L76464 72986
L76520 73014
" />
<path d="M77027 73380
L77027 73070
L76998 73014
L76942 72986
L76830 72986
L76773 73014
" />
<path d="M77027 73352
L76970 73380
L76830 73380
L76773 73352
L76745 73295
L76745 73239
L76773 73183
L76830 73155
L76970 73155
L77027 73127
" />
<path d="M77561 73380
L77561 72789
" />
<path d="M77561 73352
L77505 73380
L77392 73380
L77336 73352
L77308 73323
L77280 73267
L77280 73099
L77308 73042
L77336 73014
L77392 72986
L77505 72986
L77561 73014
" />
<path d="M77701 73436
L78151 73436
" />
<path d="M78292 72986
L78292 73577
" />
<path d="M78292 73014
L78348 72986
L78461 72986
L78517 73014
L78545 73042
L78573 73099
L78573 73267
L78545 73323
L78517 73352
L78461 73380
L78348 73380
L78292 73352
" />
<path d="M79079 73352
L79023 73380
L78911 73380
L78854 73352
L78826 73323
L78798 73267
L78798 73099
L78826 73042
L78854 73014
L78911 72986
L79023 72986
L79079 73014
" />
<path d="M79332 73380
L79332 72789
" />
<path d="M79332 73014
L79389 72986
L79501 72986
L79557 73014
L79586 73042
L79614 73099
L79614 73267
L79586 73323
L79557 73352
L79501 73380
L79389 73380
L79332 73352
" />
</g>
<g style="fill:#000000; fill-opacity:0.0; 
stroke:#000000; stroke-width:39.3701; stroke-opacity:1; 
stroke-linecap:round; stroke-linejoin:round;">
</g>
<g style="fill:#000000; fill-opacity:0.0; 
stroke:#000000; stroke-width:59.0551; stroke-opacity:1; 
stroke-linecap:round; stroke-linejoin:round;">
<path d="M69685 71459
L112205 71459
" />
</g>
<g style="fill:#000000; fill-opacity:0.0; 
stroke:#000000; stroke-width:39.3701; stroke-opacity:1; 
stroke-linecap:round; stroke-linejoin:round;">
</g>
<g style="fill:#000000; fill-opacity:0.0; 
stroke:#000000; stroke-width:59.0551; stroke-opacity:1; 
stroke-linecap:round; stroke-linejoin:round;">
<text x="70079.6" y="72345.4"
textLength="3236.78" font-size="787.402" lengthAdjust="spacingAndGlyphs"
text-anchor="start" opacity="0">Sheet: </text>
<path d="M70221 72289
L70305 72317
L70446 72317
L70502 72289
L70530 72260
L70559 72204
L70559 72148
L70530 72092
L70502 72064
L70446 72036
L70334 72007
L70277 71979
L70249 71951
L70221 71895
L70221 71839
L70249 71782
L70277 71754
L70334 71726
L70474 71726
L70559 71754
" />
<path d="M70812 72317
L70812 71726
" />
<path d="M71065 72317
L71065 72007
L71037 71951
L70980 71923
L70896 71923
L70840 71951
L70812 71979
" />
<path d="M71571 72289
L71515 72317
L71402 72317
L71346 72289
L71318 72232
L71318 72007
L71346 71951
L71402 71923
L71515 71923
L71571 71951
L71599 72007
L71599 72064
L71318 72120
" />
<path d="M72077 72289
L72021 72317
L71908 72317
L71852 72289
L71824 72232
L71824 72007
L71852 71951
L71908 71923
L72021 71923
L72077 71951
L72105 72007
L72105 72064
L71824 72120
" />
<path d="M72274 71923
L72499 71923
" />
<path d="M72358 71726
L72358 72232
L72386 72289
L72443 72317
L72499 72317
" />
<path d="M72696 72260
L72724 72289
L72696 72317
L72668 72289
L72696 72260
L72696 72317
" />
<path d="M72696 71951
L72724 71979
L72696 72007
L72668 71979
L72696 71951
L72696 72007
" />
</g>
<g style="fill:#000000; fill-opacity:0.0; 
stroke:#000000; stroke-width:39.3701; stroke-opacity:1; 
stroke-linecap:round; stroke-linejoin:round;">
</g>
<g style="fill:#000000; fill-opacity:0.0; 
stroke:#000000; stroke-width:59.0551; stroke-opacity:1; 
stroke-linecap:round; stroke-linejoin:round;">
<path d="M77559 75396
L77559 76577
" />
</g>
<g style="fill:#000000; fill-opacity:0.0; 
stroke:#000000; stroke-width:39.3701; stroke-opacity:1; 
stroke-linecap:round; stroke-linejoin:round;">
</g>
<g style="fill:#000000; fill-opacity:0.0; 
stroke:#000000; stroke-width:59.0551; stroke-opacity:1; 
stroke-linecap:round; stroke-linejoin:round;">
<path d="M102756 75396
L102756 77955
" />
</g>
<g style="fill:#008484; fill-opacity:0.0; 
stroke:#008484; stroke-width:59.0551; stroke-opacity:1; 
stroke-linecap:round; stroke-linejoin:round;">
</g>
<g style="fill:#008484; fill-opacity:0.0; 
stroke:#008484; stroke-width:118.11; stroke-opacity:1; 
stroke-linecap:round; stroke-linejoin:round;">
<text x="64000" y="18795.3"
textLength="7764.34" font-size="787.402" lengthAdjust="spacingAndGlyphs"
text-anchor="middle" opacity="0">Marten Vijn 2020</text>
<path d="M60287 18767
L60287 18176
L60484 18598
L60681 18176
L60681 18767
" />
<path d="M61215 18767
L61215 18457
L61187 18401
L61131 18373
L61019 18373
L60962 18401
" />
<path d="M61215 18739
L61159 18767
L61019 18767
L60962 18739
L60934 18682
L60934 18626
L60962 18570
L61019 18542
L61159 18542
L61215 18514
" />
<path d="M61497 18767
L61497 18373
" />
<path d="M61497 18485
L61525 18429
L61553 18401
L61609 18373
L61665 18373
" />
<path d="M61778 18373
L62003 18373
" />
<path d="M61862 18176
L61862 18682
L61890 18739
L61947 18767
L62003 18767
" />
<path d="M62425 18739
L62368 18767
L62256 18767
L62200 18739
L62172 18682
L62172 18457
L62200 18401
L62256 18373
L62368 18373
L62425 18401
L62453 18457
L62453 18514
L62172 18570
" />
<path d="M62706 18373
L62706 18767
" />
<path d="M62706 18429
L62734 18401
L62790 18373
L62875 18373
L62931 18401
L62959 18457
L62959 18767
" />
<path d="M63606 18176
L63803 18767
L64000 18176
" />
<path d="M64196 18767
L64196 18373
" />
<path d="M64196 18176
L64168 18204
L64196 18232
L64224 18204
L64196 18176
L64196 18232
" />
<path d="M64478 18373
L64478 18879
L64449 18935
L64393 18964
L64365 18964
" />
<path d="M64478 18176
L64449 18204
L64478 18232
L64506 18204
L64478 18176
L64478 18232
" />
<path d="M64759 18373
L64759 18767
" />
<path d="M64759 18429
L64787 18401
L64843 18373
L64928 18373
L64984 18401
L65012 18457
L65012 18767
" />
<path d="M65715 18232
L65743 18204
L65799 18176
L65940 18176
L65996 18204
L66024 18232
L66052 18289
L66052 18345
L66024 18429
L65687 18767
L66052 18767
" />
<path d="M66418 18176
L66474 18176
L66530 18204
L66559 18232
L66587 18289
L66615 18401
L66615 18542
L66587 18654
L66559 18710
L66530 18739
L66474 18767
L66418 18767
L66362 18739
L66334 18710
L66305 18654
L66277 18542
L66277 18401
L66305 18289
L66334 18232
L66362 18204
L66418 18176
" />
<path d="M66840 18232
L66868 18204
L66924 18176
L67065 18176
L67121 18204
L67149 18232
L67177 18289
L67177 18345
L67149 18429
L66812 18767
L67177 18767
" />
<path d="M67543 18176
L67599 18176
L67655 18204
L67683 18232
L67712 18289
L67740 18401
L67740 18542
L67712 18654
L67683 18710
L67655 18739
L67599 18767
L67543 18767
L67487 18739
L67458 18710
L67430 18654
L67402 18542
L67402 18401
L67430 18289
L67458 18232
L67487 18204
L67543 18176
" />
</g>
<g style="fill:#008484; fill-opacity:0.0; 
stroke:#008484; stroke-width:47.2441; stroke-opacity:1; 
stroke-linecap:round; stroke-linejoin:round;">
<path d="M39976 41476
L39976 42523
" />
<path d="M43000 41476
L39976 41476
" />
<path d="M43000 42523
L39976 42523
" />
<path d="M43000 41476
L43000 42523
" />
<path d="M43500 41476
L44023 41476
" />
<path d="M44023 41476
L44023 42000
" />
<path d="M45909 35066
L45909 44933
" />
<path d="M45909 44933
L57090 44933
" />
<path d="M57090 44933
L57090 35066
" />
<path d="M57090 35066
L53363 35066
" />
<path d="M53363 35066
L53363 35208
" />
<path d="M53363 35208
L49636 35208
" />
<path d="M49636 35208
L49636 35066
" />
<path d="M49636 35066
L45909 35066
" />
</g>
<g style="fill:#008484; fill-opacity:1.0; 
stroke:#008484; stroke-width:39.3701; stroke-opacity:1; 
stroke-linecap:round; stroke-linejoin:round;">
<path style="fill:#008484; fill-opacity:1.0; 
stroke:#008484; stroke-width:39.3701; stroke-opacity:1; 
stroke-linecap:round; stroke-linejoin:round;fill-rule:evenodd;"
d="M 46000,51000
46000,45000
57000,45000
57000,51000
" /> 
</g>
<g style="fill:#008484; fill-opacity:1.0; 
stroke:#008484; stroke-width:47.2441; stroke-opacity:1; 
stroke-linecap:round; stroke-linejoin:round;">
</g>
<g style="fill:#008484; fill-opacity:0.0; 
stroke:#008484; stroke-width:47.2441; stroke-opacity:1; 
stroke-linecap:round; stroke-linejoin:round;">
<path d="M43531 36161
L43531 38543
" />
<path d="M43531 38543
L40460 38543
" />
<path d="M40460 38543
L40460 36161
" />
<path d="M40460 36161
L43531 36161
" />
<path d="M43000 36200
L43000 36598
" />
<path d="M43000 36598
L41000 36598
" />
<path d="M41000 36598
L41000 36200
" />
<path d="M41164.2 34224.4 A320.812 320.812 0.0 1 0 41126 34795" />
</g>
<g style="fill:#008484; fill-opacity:0.0; 
stroke:#008484; stroke-width:59.0551; stroke-opacity:1; 
stroke-linecap:round; stroke-linejoin:round;">
<path d="M63858 40500
L58000 40500
" />
<path d="M63877 48500
L63877 40500
" />
<path d="M58000 48500
L63858 48500
" />
<path d="M58000 40500
L58000 48500
" />
</g>
<g style="fill:#008484; fill-opacity:0.0; 
stroke:#008484; stroke-width:47.2441; stroke-opacity:1; 
stroke-linecap:round; stroke-linejoin:round;">
<path d="M67409 40566
L67409 46433
" />
<path d="M67409 46433
L73590 46433
" />
<path d="M73590 46433
L73590 40566
" />
<path d="M73590 40566
L71530 40566
" />
<path d="M71530 40566
L71530 40708
" />
<path d="M71530 40708
L69469 40708
" />
<path d="M69469 40708
L69469 40566
" />
<path d="M69469 40566
L67409 40566
" />
<path d="M43523 32523
L43523 31476
" />
<path d="M41500 32523
L43523 32523
" />
<path d="M41500 31476
L43523 31476
" />
<path d="M41500 32523
L41500 31476
" />
<path d="M41000 32523
L40476 32523
" />
<path d="M40476 32523
L40476 32000
" />
</g>
<g style="fill:#008484; fill-opacity:0.0; 
stroke:#008484; stroke-width:59.0551; stroke-opacity:1; 
stroke-linecap:round; stroke-linejoin:round;">
<g transform="rotate(-90 44417.3 42000)">
<text x="44417.3" y="42196.9"
textLength="1634.61" font-size="524.934" lengthAdjust="spacingAndGlyphs"
text-anchor="middle" opacity="0">DHT1</text>
</g>
<path d="M44595 42646
L44201 42646
L44201 42553
L44220 42496
L44257 42459
L44295 42440
L44370 42421
L44426 42421
L44501 42440
L44539 42459
L44576 42496
L44595 42553
L44595 42646
" />
<path d="M44595 42253
L44201 42253
" />
<path d="M44389 42253
L44389 42028
" />
<path d="M44595 42028
L44201 42028
" />
<path d="M44201 41896
L44201 41671
" />
<path d="M44595 41784
L44201 41784
" />
<path d="M44595 41334
L44595 41559
" />
<path d="M44595 41446
L44201 41446
L44257 41484
L44295 41521
L44314 41559
" />
<g transform="rotate(-90 40500 47000)">
<text x="40500" y="47196.9"
textLength="864.173" font-size="524.934" lengthAdjust="spacingAndGlyphs"
text-anchor="middle" opacity="0">U1</text>
</g>
<path d="M40284 47299
L40603 47299
L40640 47281
L40659 47262
L40678 47224
L40678 47149
L40659 47112
L40640 47093
L40603 47074
L40284 47074
" />
<path d="M40678 46681
L40678 46906
" />
<path d="M40678 46793
L40284 46793
L40340 46831
L40378 46868
L40396 46906
" />
<text x="54500" y="44696.9"
textLength="2513.97" font-size="524.934" lengthAdjust="spacingAndGlyphs"
text-anchor="middle" opacity="0">GPIO 13</text>
<path d="M53581 44303
L53543 44284
L53487 44284
L53431 44303
L53393 44340
L53375 44378
L53356 44453
L53356 44509
L53375 44584
L53393 44621
L53431 44659
L53487 44678
L53525 44678
L53581 44659
L53600 44640
L53600 44509
L53525 44509
" />
<path d="M53768 44678
L53768 44284
L53918 44284
L53956 44303
L53975 44321
L53993 44359
L53993 44415
L53975 44453
L53956 44471
L53918 44490
L53768 44490
" />
<path d="M54162 44678
L54162 44284
" />
<path d="M54425 44284
L54500 44284
L54537 44303
L54574 44340
L54593 44415
L54593 44546
L54574 44621
L54537 44659
L54500 44678
L54425 44678
L54387 44659
L54350 44621
L54331 44546
L54331 44415
L54350 44340
L54387 44303
L54425 44284
" />
<path d="M55268 44678
L55043 44678
" />
<path d="M55156 44678
L55156 44284
L55118 44340
L55081 44378
L55043 44396
" />
<path d="M55399 44284
L55643 44284
L55512 44434
L55568 44434
L55606 44453
L55624 44471
L55643 44509
L55643 44603
L55624 44640
L55606 44659
L55568 44678
L55456 44678
L55418 44659
L55399 44640
" />
<text x="54500" y="43696.9"
textLength="2513.97" font-size="524.934" lengthAdjust="spacingAndGlyphs"
text-anchor="middle" opacity="0">GPIO 14</text>
<path d="M53581 43303
L53543 43284
L53487 43284
L53431 43303
L53393 43340
L53375 43378
L53356 43453
L53356 43509
L53375 43584
L53393 43621
L53431 43659
L53487 43678
L53525 43678
L53581 43659
L53600 43640
L53600 43509
L53525 43509
" />
<path d="M53768 43678
L53768 43284
L53918 43284
L53956 43303
L53975 43321
L53993 43359
L53993 43415
L53975 43453
L53956 43471
L53918 43490
L53768 43490
" />
<path d="M54162 43678
L54162 43284
" />
<path d="M54425 43284
L54500 43284
L54537 43303
L54574 43340
L54593 43415
L54593 43546
L54574 43621
L54537 43659
L54500 43678
L54425 43678
L54387 43659
L54350 43621
L54331 43546
L54331 43415
L54350 43340
L54387 43303
L54425 43284
" />
<path d="M55268 43678
L55043 43678
" />
<path d="M55156 43678
L55156 43284
L55118 43340
L55081 43378
L55043 43396
" />
<path d="M55606 43415
L55606 43678
" />
<path d="M55512 43265
L55418 43546
L55662 43546
" />
<text x="54500" y="42696.9"
textLength="2513.97" font-size="524.934" lengthAdjust="spacingAndGlyphs"
text-anchor="middle" opacity="0">GPIO 15</text>
<path d="M53581 42303
L53543 42284
L53487 42284
L53431 42303
L53393 42340
L53375 42378
L53356 42453
L53356 42509
L53375 42584
L53393 42621
L53431 42659
L53487 42678
L53525 42678
L53581 42659
L53600 42640
L53600 42509
L53525 42509
" />
<path d="M53768 42678
L53768 42284
L53918 42284
L53956 42303
L53975 42321
L53993 42359
L53993 42415
L53975 42453
L53956 42471
L53918 42490
L53768 42490
" />
<path d="M54162 42678
L54162 42284
" />
<path d="M54425 42284
L54500 42284
L54537 42303
L54574 42340
L54593 42415
L54593 42546
L54574 42621
L54537 42659
L54500 42678
L54425 42678
L54387 42659
L54350 42621
L54331 42546
L54331 42415
L54350 42340
L54387 42303
L54425 42284
" />
<path d="M55268 42678
L55043 42678
" />
<path d="M55156 42678
L55156 42284
L55118 42340
L55081 42378
L55043 42396
" />
<path d="M55624 42284
L55437 42284
L55418 42471
L55437 42453
L55474 42434
L55568 42434
L55606 42453
L55624 42471
L55643 42509
L55643 42603
L55624 42640
L55606 42659
L55568 42678
L55474 42678
L55437 42659
L55418 42640
" />
<text x="54500" y="41696.9"
textLength="2513.97" font-size="524.934" lengthAdjust="spacingAndGlyphs"
text-anchor="middle" opacity="0">GPIO 16</text>
<path d="M53581 41303
L53543 41284
L53487 41284
L53431 41303
L53393 41340
L53375 41378
L53356 41453
L53356 41509
L53375 41584
L53393 41621
L53431 41659
L53487 41678
L53525 41678
L53581 41659
L53600 41640
L53600 41509
L53525 41509
" />
<path d="M53768 41678
L53768 41284
L53918 41284
L53956 41303
L53975 41321
L53993 41359
L53993 41415
L53975 41453
L53956 41471
L53918 41490
L53768 41490
" />
<path d="M54162 41678
L54162 41284
" />
<path d="M54425 41284
L54500 41284
L54537 41303
L54574 41340
L54593 41415
L54593 41546
L54574 41621
L54537 41659
L54500 41678
L54425 41678
L54387 41659
L54350 41621
L54331 41546
L54331 41415
L54350 41340
L54387 41303
L54425 41284
" />
<path d="M55268 41678
L55043 41678
" />
<path d="M55156 41678
L55156 41284
L55118 41340
L55081 41378
L55043 41396
" />
<path d="M55606 41284
L55531 41284
L55493 41303
L55474 41321
L55437 41378
L55418 41453
L55418 41603
L55437 41640
L55456 41659
L55493 41678
L55568 41678
L55606 41659
L55624 41640
L55643 41603
L55643 41509
L55624 41471
L55606 41453
L55568 41434
L55493 41434
L55456 41453
L55437 41471
L55418 41509
" />
<text x="54500" y="40696.9"
textLength="2513.97" font-size="524.934" lengthAdjust="spacingAndGlyphs"
text-anchor="middle" opacity="0">GPIO 32</text>
<path d="M53581 40303
L53543 40284
L53487 40284
L53431 40303
L53393 40340
L53375 40378
L53356 40453
L53356 40509
L53375 40584
L53393 40621
L53431 40659
L53487 40678
L53525 40678
L53581 40659
L53600 40640
L53600 40509
L53525 40509
" />
<path d="M53768 40678
L53768 40284
L53918 40284
L53956 40303
L53975 40321
L53993 40359
L53993 40415
L53975 40453
L53956 40471
L53918 40490
L53768 40490
" />
<path d="M54162 40678
L54162 40284
" />
<path d="M54425 40284
L54500 40284
L54537 40303
L54574 40340
L54593 40415
L54593 40546
L54574 40621
L54537 40659
L54500 40678
L54425 40678
L54387 40659
L54350 40621
L54331 40546
L54331 40415
L54350 40340
L54387 40303
L54425 40284
" />
<path d="M55024 40284
L55268 40284
L55137 40434
L55193 40434
L55231 40453
L55249 40471
L55268 40509
L55268 40603
L55249 40640
L55231 40659
L55193 40678
L55081 40678
L55043 40659
L55024 40640
" />
<path d="M55418 40321
L55437 40303
L55474 40284
L55568 40284
L55606 40303
L55624 40321
L55643 40359
L55643 40396
L55624 40453
L55399 40678
L55643 40678
" />
<text x="54500" y="39696.9"
textLength="2513.97" font-size="524.934" lengthAdjust="spacingAndGlyphs"
text-anchor="middle" opacity="0">GPIO 33</text>
<path d="M53581 39303
L53543 39284
L53487 39284
L53431 39303
L53393 39340
L53375 39378
L53356 39453
L53356 39509
L53375 39584
L53393 39621
L53431 39659
L53487 39678
L53525 39678
L53581 39659
L53600 39640
L53600 39509
L53525 39509
" />
<path d="M53768 39678
L53768 39284
L53918 39284
L53956 39303
L53975 39321
L53993 39359
L53993 39415
L53975 39453
L53956 39471
L53918 39490
L53768 39490
" />
<path d="M54162 39678
L54162 39284
" />
<path d="M54425 39284
L54500 39284
L54537 39303
L54574 39340
L54593 39415
L54593 39546
L54574 39621
L54537 39659
L54500 39678
L54425 39678
L54387 39659
L54350 39621
L54331 39546
L54331 39415
L54350 39340
L54387 39303
L54425 39284
" />
<path d="M55024 39284
L55268 39284
L55137 39434
L55193 39434
L55231 39453
L55249 39471
L55268 39509
L55268 39603
L55249 39640
L55231 39659
L55193 39678
L55081 39678
L55043 39659
L55024 39640
" />
<path d="M55399 39284
L55643 39284
L55512 39434
L55568 39434
L55606 39453
L55624 39471
L55643 39509
L55643 39603
L55624 39640
L55606 39659
L55568 39678
L55456 39678
L55418 39659
L55399 39640
" />
<text x="55000" y="38696.9"
textLength="2101.52" font-size="524.934" lengthAdjust="spacingAndGlyphs"
text-anchor="middle" opacity="0">GPI 34</text>
<path d="M54287 38303
L54250 38284
L54193 38284
L54137 38303
L54100 38340
L54081 38378
L54062 38453
L54062 38509
L54081 38584
L54100 38621
L54137 38659
L54193 38678
L54231 38678
L54287 38659
L54306 38640
L54306 38509
L54231 38509
" />
<path d="M54475 38678
L54475 38284
L54625 38284
L54662 38303
L54681 38321
L54700 38359
L54700 38415
L54681 38453
L54662 38471
L54625 38490
L54475 38490
" />
<path d="M54868 38678
L54868 38284
" />
<path d="M55318 38284
L55562 38284
L55431 38434
L55487 38434
L55524 38453
L55543 38471
L55562 38509
L55562 38603
L55543 38640
L55524 38659
L55487 38678
L55374 38678
L55337 38659
L55318 38640
" />
<path d="M55899 38415
L55899 38678
" />
<path d="M55806 38265
L55712 38546
L55956 38546
" />
<text x="55000" y="37696.9"
textLength="2101.52" font-size="524.934" lengthAdjust="spacingAndGlyphs"
text-anchor="middle" opacity="0">GPI 35</text>
<path d="M54287 37303
L54250 37284
L54193 37284
L54137 37303
L54100 37340
L54081 37378
L54062 37453
L54062 37509
L54081 37584
L54100 37621
L54137 37659
L54193 37678
L54231 37678
L54287 37659
L54306 37640
L54306 37509
L54231 37509
" />
<path d="M54475 37678
L54475 37284
L54625 37284
L54662 37303
L54681 37321
L54700 37359
L54700 37415
L54681 37453
L54662 37471
L54625 37490
L54475 37490
" />
<path d="M54868 37678
L54868 37284
" />
<path d="M55318 37284
L55562 37284
L55431 37434
L55487 37434
L55524 37453
L55543 37471
L55562 37509
L55562 37603
L55543 37640
L55524 37659
L55487 37678
L55374 37678
L55337 37659
L55318 37640
" />
<path d="M55918 37284
L55731 37284
L55712 37471
L55731 37453
L55768 37434
L55862 37434
L55899 37453
L55918 37471
L55937 37509
L55937 37603
L55918 37640
L55899 37659
L55862 37678
L55768 37678
L55731 37659
L55712 37640
" />
<text x="55000" y="36696.9"
textLength="2101.52" font-size="524.934" lengthAdjust="spacingAndGlyphs"
text-anchor="middle" opacity="0">GPI 36</text>
<path d="M54287 36303
L54250 36284
L54193 36284
L54137 36303
L54100 36340
L54081 36378
L54062 36453
L54062 36509
L54081 36584
L54100 36621
L54137 36659
L54193 36678
L54231 36678
L54287 36659
L54306 36640
L54306 36509
L54231 36509
" />
<path d="M54475 36678
L54475 36284
L54625 36284
L54662 36303
L54681 36321
L54700 36359
L54700 36415
L54681 36453
L54662 36471
L54625 36490
L54475 36490
" />
<path d="M54868 36678
L54868 36284
" />
<path d="M55318 36284
L55562 36284
L55431 36434
L55487 36434
L55524 36453
L55543 36471
L55562 36509
L55562 36603
L55543 36640
L55524 36659
L55487 36678
L55374 36678
L55337 36659
L55318 36640
" />
<path d="M55899 36284
L55824 36284
L55787 36303
L55768 36321
L55731 36378
L55712 36453
L55712 36603
L55731 36640
L55749 36659
L55787 36678
L55862 36678
L55899 36659
L55918 36640
L55937 36603
L55937 36509
L55918 36471
L55899 36453
L55862 36434
L55787 36434
L55749 36453
L55731 36471
L55712 36509
" />
<text x="55000" y="35696.9"
textLength="2101.52" font-size="524.934" lengthAdjust="spacingAndGlyphs"
text-anchor="middle" opacity="0">GPI 39</text>
<path d="M54287 35303
L54250 35284
L54193 35284
L54137 35303
L54100 35340
L54081 35378
L54062 35453
L54062 35509
L54081 35584
L54100 35621
L54137 35659
L54193 35678
L54231 35678
L54287 35659
L54306 35640
L54306 35509
L54231 35509
" />
<path d="M54475 35678
L54475 35284
L54625 35284
L54662 35303
L54681 35321
L54700 35359
L54700 35415
L54681 35453
L54662 35471
L54625 35490
L54475 35490
" />
<path d="M54868 35678
L54868 35284
" />
<path d="M55318 35284
L55562 35284
L55431 35434
L55487 35434
L55524 35453
L55543 35471
L55562 35509
L55562 35603
L55543 35640
L55524 35659
L55487 35678
L55374 35678
L55337 35659
L55318 35640
" />
<path d="M55749 35678
L55824 35678
L55862 35659
L55881 35640
L55918 35584
L55937 35509
L55937 35359
L55918 35321
L55899 35303
L55862 35284
L55787 35284
L55749 35303
L55731 35321
L55712 35359
L55712 35453
L55731 35490
L55749 35509
L55787 35528
L55862 35528
L55899 35509
L55918 35490
L55937 35453
" />
<text x="48000" y="44696.9"
textLength="2139.01" font-size="524.934" lengthAdjust="spacingAndGlyphs"
text-anchor="middle" opacity="0">GPIO 5</text>
<path d="M47268 44303
L47231 44284
L47175 44284
L47118 44303
L47081 44340
L47062 44378
L47043 44453
L47043 44509
L47062 44584
L47081 44621
L47118 44659
L47175 44678
L47212 44678
L47268 44659
L47287 44640
L47287 44509
L47212 44509
" />
<path d="M47456 44678
L47456 44284
L47606 44284
L47643 44303
L47662 44321
L47681 44359
L47681 44415
L47662 44453
L47643 44471
L47606 44490
L47456 44490
" />
<path d="M47850 44678
L47850 44284
" />
<path d="M48112 44284
L48187 44284
L48224 44303
L48262 44340
L48281 44415
L48281 44546
L48262 44621
L48224 44659
L48187 44678
L48112 44678
L48074 44659
L48037 44621
L48018 44546
L48018 44415
L48037 44340
L48074 44303
L48112 44284
" />
<path d="M48937 44284
L48749 44284
L48731 44471
L48749 44453
L48787 44434
L48881 44434
L48918 44453
L48937 44471
L48956 44509
L48956 44603
L48937 44640
L48918 44659
L48881 44678
L48787 44678
L48749 44659
L48731 44640
" />
<text x="48000" y="43696.9"
textLength="2139.01" font-size="524.934" lengthAdjust="spacingAndGlyphs"
text-anchor="middle" opacity="0">GPIO 4</text>
<path d="M47268 43303
L47231 43284
L47175 43284
L47118 43303
L47081 43340
L47062 43378
L47043 43453
L47043 43509
L47062 43584
L47081 43621
L47118 43659
L47175 43678
L47212 43678
L47268 43659
L47287 43640
L47287 43509
L47212 43509
" />
<path d="M47456 43678
L47456 43284
L47606 43284
L47643 43303
L47662 43321
L47681 43359
L47681 43415
L47662 43453
L47643 43471
L47606 43490
L47456 43490
" />
<path d="M47850 43678
L47850 43284
" />
<path d="M48112 43284
L48187 43284
L48224 43303
L48262 43340
L48281 43415
L48281 43546
L48262 43621
L48224 43659
L48187 43678
L48112 43678
L48074 43659
L48037 43621
L48018 43546
L48018 43415
L48037 43340
L48074 43303
L48112 43284
" />
<path d="M48918 43415
L48918 43678
" />
<path d="M48824 43265
L48731 43546
L48974 43546
" />
<text x="48000" y="42696.9"
textLength="2139.01" font-size="524.934" lengthAdjust="spacingAndGlyphs"
text-anchor="middle" opacity="0">GPIO 3</text>
<path d="M47268 42303
L47231 42284
L47175 42284
L47118 42303
L47081 42340
L47062 42378
L47043 42453
L47043 42509
L47062 42584
L47081 42621
L47118 42659
L47175 42678
L47212 42678
L47268 42659
L47287 42640
L47287 42509
L47212 42509
" />
<path d="M47456 42678
L47456 42284
L47606 42284
L47643 42303
L47662 42321
L47681 42359
L47681 42415
L47662 42453
L47643 42471
L47606 42490
L47456 42490
" />
<path d="M47850 42678
L47850 42284
" />
<path d="M48112 42284
L48187 42284
L48224 42303
L48262 42340
L48281 42415
L48281 42546
L48262 42621
L48224 42659
L48187 42678
L48112 42678
L48074 42659
L48037 42621
L48018 42546
L48018 42415
L48037 42340
L48074 42303
L48112 42284
" />
<path d="M48712 42284
L48956 42284
L48824 42434
L48881 42434
L48918 42453
L48937 42471
L48956 42509
L48956 42603
L48937 42640
L48918 42659
L48881 42678
L48768 42678
L48731 42659
L48712 42640
" />
<text x="48000" y="41696.9"
textLength="2139.01" font-size="524.934" lengthAdjust="spacingAndGlyphs"
text-anchor="middle" opacity="0">GPIO 2</text>
<path d="M47268 41303
L47231 41284
L47175 41284
L47118 41303
L47081 41340
L47062 41378
L47043 41453
L47043 41509
L47062 41584
L47081 41621
L47118 41659
L47175 41678
L47212 41678
L47268 41659
L47287 41640
L47287 41509
L47212 41509
" />
<path d="M47456 41678
L47456 41284
L47606 41284
L47643 41303
L47662 41321
L47681 41359
L47681 41415
L47662 41453
L47643 41471
L47606 41490
L47456 41490
" />
<path d="M47850 41678
L47850 41284
" />
<path d="M48112 41284
L48187 41284
L48224 41303
L48262 41340
L48281 41415
L48281 41546
L48262 41621
L48224 41659
L48187 41678
L48112 41678
L48074 41659
L48037 41621
L48018 41546
L48018 41415
L48037 41340
L48074 41303
L48112 41284
" />
<path d="M48731 41321
L48749 41303
L48787 41284
L48881 41284
L48918 41303
L48937 41321
L48956 41359
L48956 41396
L48937 41453
L48712 41678
L48956 41678
" />
<text x="48000" y="40696.9"
textLength="2139.01" font-size="524.934" lengthAdjust="spacingAndGlyphs"
text-anchor="middle" opacity="0">GPIO 1</text>
<path d="M47268 40303
L47231 40284
L47175 40284
L47118 40303
L47081 40340
L47062 40378
L47043 40453
L47043 40509
L47062 40584
L47081 40621
L47118 40659
L47175 40678
L47212 40678
L47268 40659
L47287 40640
L47287 40509
L47212 40509
" />
<path d="M47456 40678
L47456 40284
L47606 40284
L47643 40303
L47662 40321
L47681 40359
L47681 40415
L47662 40453
L47643 40471
L47606 40490
L47456 40490
" />
<path d="M47850 40678
L47850 40284
" />
<path d="M48112 40284
L48187 40284
L48224 40303
L48262 40340
L48281 40415
L48281 40546
L48262 40621
L48224 40659
L48187 40678
L48112 40678
L48074 40659
L48037 40621
L48018 40546
L48018 40415
L48037 40340
L48074 40303
L48112 40284
" />
<path d="M48956 40678
L48731 40678
" />
<path d="M48843 40678
L48843 40284
L48806 40340
L48768 40378
L48731 40396
" />
<text x="48000" y="39696.9"
textLength="2139.01" font-size="524.934" lengthAdjust="spacingAndGlyphs"
text-anchor="middle" opacity="0">GPIO 0</text>
<path d="M47268 39303
L47231 39284
L47175 39284
L47118 39303
L47081 39340
L47062 39378
L47043 39453
L47043 39509
L47062 39584
L47081 39621
L47118 39659
L47175 39678
L47212 39678
L47268 39659
L47287 39640
L47287 39509
L47212 39509
" />
<path d="M47456 39678
L47456 39284
L47606 39284
L47643 39303
L47662 39321
L47681 39359
L47681 39415
L47662 39453
L47643 39471
L47606 39490
L47456 39490
" />
<path d="M47850 39678
L47850 39284
" />
<path d="M48112 39284
L48187 39284
L48224 39303
L48262 39340
L48281 39415
L48281 39546
L48262 39621
L48224 39659
L48187 39678
L48112 39678
L48074 39659
L48037 39621
L48018 39546
L48018 39415
L48037 39340
L48074 39303
L48112 39284
" />
<path d="M48824 39284
L48862 39284
L48899 39303
L48918 39321
L48937 39359
L48956 39434
L48956 39528
L48937 39603
L48918 39640
L48899 39659
L48862 39678
L48824 39678
L48787 39659
L48768 39640
L48749 39603
L48731 39528
L48731 39434
L48749 39359
L48768 39321
L48787 39303
L48824 39284
" />
<text x="48000" y="38696.9"
textLength="2082.77" font-size="524.934" lengthAdjust="spacingAndGlyphs"
text-anchor="middle" opacity="0">esp_en</text>
<path d="M47240 38659
L47203 38678
L47128 38678
L47090 38659
L47071 38621
L47071 38471
L47090 38434
L47128 38415
L47203 38415
L47240 38434
L47259 38471
L47259 38509
L47071 38546
" />
<path d="M47409 38659
L47446 38678
L47521 38678
L47559 38659
L47578 38621
L47578 38603
L47559 38565
L47521 38546
L47465 38546
L47428 38528
L47409 38490
L47409 38471
L47428 38434
L47465 38415
L47521 38415
L47559 38434
" />
<path d="M47746 38415
L47746 38809
" />
<path d="M47746 38434
L47784 38415
L47859 38415
L47896 38434
L47915 38453
L47934 38490
L47934 38603
L47915 38640
L47896 38659
L47859 38678
L47784 38678
L47746 38659
" />
<path d="M48009 38715
L48309 38715
" />
<path d="M48553 38659
L48515 38678
L48440 38678
L48403 38659
L48384 38621
L48384 38471
L48403 38434
L48440 38415
L48515 38415
L48553 38434
L48571 38471
L48571 38509
L48384 38546
" />
<path d="M48740 38415
L48740 38678
" />
<path d="M48740 38453
L48759 38434
L48796 38415
L48853 38415
L48890 38434
L48909 38471
L48909 38678
" />
<text x="47500" y="37696.9"
textLength="1145.39" font-size="524.934" lengthAdjust="spacingAndGlyphs"
text-anchor="middle" opacity="0">gnd</text>
<path d="M47228 37415
L47228 37734
L47209 37771
L47190 37790
L47153 37809
L47096 37809
L47059 37790
" />
<path d="M47228 37659
L47190 37678
L47115 37678
L47078 37659
L47059 37640
L47040 37603
L47040 37490
L47059 37453
L47078 37434
L47115 37415
L47190 37415
L47228 37434
" />
<path d="M47415 37415
L47415 37678
" />
<path d="M47415 37453
L47434 37434
L47471 37415
L47528 37415
L47565 37434
L47584 37471
L47584 37678
" />
<path d="M47940 37678
L47940 37284
" />
<path d="M47940 37659
L47903 37678
L47828 37678
L47790 37659
L47771 37640
L47753 37603
L47753 37490
L47771 37453
L47790 37434
L47828 37415
L47903 37415
L47940 37434
" />
<text x="48500" y="36696.9"
textLength="2401.48" font-size="524.934" lengthAdjust="spacingAndGlyphs"
text-anchor="middle" opacity="0">3.3 volt</text>
<path d="M47393 36284
L47637 36284
L47506 36434
L47562 36434
L47600 36453
L47618 36471
L47637 36509
L47637 36603
L47618 36640
L47600 36659
L47562 36678
L47450 36678
L47412 36659
L47393 36640
" />
<path d="M47806 36640
L47825 36659
L47806 36678
L47787 36659
L47806 36640
L47806 36678
" />
<path d="M47956 36284
L48200 36284
L48068 36434
L48125 36434
L48162 36453
L48181 36471
L48200 36509
L48200 36603
L48181 36640
L48162 36659
L48125 36678
L48012 36678
L47975 36659
L47956 36640
" />
<path d="M48631 36415
L48724 36678
L48818 36415
" />
<path d="M49024 36678
L48987 36659
L48968 36640
L48949 36603
L48949 36490
L48968 36453
L48987 36434
L49024 36415
L49081 36415
L49118 36434
L49137 36453
L49156 36490
L49156 36603
L49137 36640
L49118 36659
L49081 36678
L49024 36678
" />
<path d="M49381 36678
L49343 36659
L49324 36621
L49324 36284
" />
<path d="M49474 36415
L49624 36415
" />
<path d="M49531 36284
L49531 36621
L49549 36659
L49587 36678
L49624 36678
" />
<text x="48000" y="35696.9"
textLength="1839.05" font-size="524.934" lengthAdjust="spacingAndGlyphs"
text-anchor="middle" opacity="0">5 volt</text>
<path d="M47400 35284
L47212 35284
L47193 35471
L47212 35453
L47250 35434
L47343 35434
L47381 35453
L47400 35471
L47418 35509
L47418 35603
L47400 35640
L47381 35659
L47343 35678
L47250 35678
L47212 35659
L47193 35640
" />
<path d="M47850 35415
L47943 35678
L48037 35415
" />
<path d="M48243 35678
L48206 35659
L48187 35640
L48168 35603
L48168 35490
L48187 35453
L48206 35434
L48243 35415
L48299 35415
L48337 35434
L48356 35453
L48374 35490
L48374 35603
L48356 35640
L48337 35659
L48299 35678
L48243 35678
" />
<path d="M48599 35678
L48562 35659
L48543 35621
L48543 35284
" />
<path d="M48693 35415
L48843 35415
" />
<path d="M48749 35284
L48749 35621
L48768 35659
L48806 35678
L48843 35678
" />
<text x="42015.7" y="39035.4"
textLength="4332.49" font-size="524.934" lengthAdjust="spacingAndGlyphs"
text-anchor="middle" opacity="0">DALLAS_TEMP1</text>
<path d="M39981 39016
L39981 38622
L40075 38622
L40131 38641
L40169 38679
L40187 38716
L40206 38791
L40206 38847
L40187 38922
L40169 38960
L40131 38997
L40075 39016
L39981 39016
" />
<path d="M40356 38904
L40544 38904
" />
<path d="M40319 39016
L40450 38622
L40581 39016
" />
<path d="M40900 39016
L40712 39016
L40712 38622
" />
<path d="M41218 39016
L41031 39016
L41031 38622
" />
<path d="M41331 38904
L41518 38904
" />
<path d="M41293 39016
L41425 38622
L41556 39016
" />
<path d="M41668 38997
L41725 39016
L41818 39016
L41856 38997
L41875 38979
L41893 38941
L41893 38904
L41875 38866
L41856 38847
L41818 38829
L41743 38810
L41706 38791
L41687 38772
L41668 38735
L41668 38697
L41687 38660
L41706 38641
L41743 38622
L41837 38622
L41893 38641
" />
<path d="M41968 39054
L42268 39054
" />
<path d="M42306 38622
L42531 38622
" />
<path d="M42418 39016
L42418 38622
" />
<path d="M42662 38810
L42793 38810
" />
<path d="M42850 39016
L42662 39016
L42662 38622
L42850 38622
" />
<path d="M43018 39016
L43018 38622
L43149 38904
L43281 38622
L43281 39016
" />
<path d="M43468 39016
L43468 38622
L43618 38622
L43656 38641
L43674 38660
L43693 38697
L43693 38754
L43674 38791
L43656 38810
L43618 38829
L43468 38829
" />
<path d="M44068 39016
L43843 39016
" />
<path d="M43956 39016
L43956 38622
L43918 38679
L43881 38716
L43843 38735
" />
<text x="41374" y="33940.9"
textLength="845.426" font-size="524.934" lengthAdjust="spacingAndGlyphs"
text-anchor="middle" opacity="0">R1</text>
<path d="M41308 33922
L41177 33734
" />
<path d="M41083 33922
L41083 33528
L41233 33528
L41270 33547
L41289 33565
L41308 33603
L41308 33659
L41289 33697
L41270 33715
L41233 33734
L41083 33734
" />
<path d="M41683 33922
L41458 33922
" />
<path d="M41570 33922
L41570 33528
L41533 33584
L41495 33622
L41458 33640
" />
<text x="62500" y="42196.9"
textLength="864.173" font-size="524.934" lengthAdjust="spacingAndGlyphs"
text-anchor="middle" opacity="0">U2</text>
<path d="M62200 41784
L62200 42103
L62218 42140
L62237 42159
L62275 42178
L62350 42178
L62387 42159
L62406 42140
L62425 42103
L62425 41784
" />
<path d="M62593 41821
L62612 41803
L62649 41784
L62743 41784
L62781 41803
L62799 41821
L62818 41859
L62818 41896
L62799 41953
L62574 42178
L62818 42178
" />
<text x="59500" y="41196.9"
textLength="1201.63" font-size="524.934" lengthAdjust="spacingAndGlyphs"
text-anchor="middle" opacity="0">VCC</text>
<path d="M58975 40784
L59106 41178
L59237 40784
" />
<path d="M59593 41140
L59574 41159
L59518 41178
L59481 41178
L59425 41159
L59387 41121
L59368 41084
L59350 41009
L59350 40953
L59368 40878
L59387 40840
L59425 40803
L59481 40784
L59518 40784
L59574 40803
L59593 40821
" />
<path d="M59987 41140
L59968 41159
L59912 41178
L59874 41178
L59818 41159
L59781 41121
L59762 41084
L59743 41009
L59743 40953
L59762 40878
L59781 40840
L59818 40803
L59874 40784
L59912 40784
L59968 40803
L59987 40821
" />
<text x="59500" y="42196.9"
textLength="1276.62" font-size="524.934" lengthAdjust="spacingAndGlyphs"
text-anchor="middle" opacity="0">GND</text>
<path d="M59200 41803
L59162 41784
L59106 41784
L59050 41803
L59012 41840
L58993 41878
L58975 41953
L58975 42009
L58993 42084
L59012 42121
L59050 42159
L59106 42178
L59143 42178
L59200 42159
L59218 42140
L59218 42009
L59143 42009
" />
<path d="M59387 42178
L59387 41784
L59612 42178
L59612 41784
" />
<path d="M59799 42178
L59799 41784
L59893 41784
L59949 41803
L59987 41840
L60006 41878
L60024 41953
L60024 42009
L60006 42084
L59987 42121
L59949 42159
L59893 42178
L59799 42178
" />
<text x="59500" y="43196.9"
textLength="1164.14" font-size="524.934" lengthAdjust="spacingAndGlyphs"
text-anchor="middle" opacity="0">SCL</text>
<path d="M59031 43159
L59087 43178
L59181 43178
L59218 43159
L59237 43140
L59256 43103
L59256 43065
L59237 43028
L59218 43009
L59181 42990
L59106 42971
L59068 42953
L59050 42934
L59031 42896
L59031 42859
L59050 42821
L59068 42803
L59106 42784
L59200 42784
L59256 42803
" />
<path d="M59649 43140
L59631 43159
L59574 43178
L59537 43178
L59481 43159
L59443 43121
L59425 43084
L59406 43009
L59406 42953
L59425 42878
L59443 42840
L59481 42803
L59537 42784
L59574 42784
L59631 42803
L59649 42821
" />
<path d="M60006 43178
L59818 43178
L59818 42784
" />
<text x="59500" y="44196.9"
textLength="1182.88" font-size="524.934" lengthAdjust="spacingAndGlyphs"
text-anchor="middle" opacity="0">SDA</text>
<path d="M59021 44159
L59078 44178
L59171 44178
L59209 44159
L59228 44140
L59246 44103
L59246 44065
L59228 44028
L59209 44009
L59171 43990
L59096 43971
L59059 43953
L59040 43934
L59021 43896
L59021 43859
L59040 43821
L59059 43803
L59096 43784
L59190 43784
L59246 43803
" />
<path d="M59415 44178
L59415 43784
L59509 43784
L59565 43803
L59603 43840
L59621 43878
L59640 43953
L59640 44009
L59621 44084
L59603 44121
L59565 44159
L59509 44178
L59415 44178
" />
<path d="M59790 44065
L59978 44065
" />
<path d="M59753 44178
L59884 43784
L60015 44178
" />
<text x="59500" y="45196.9"
textLength="1257.87" font-size="524.934" lengthAdjust="spacingAndGlyphs"
text-anchor="middle" opacity="0">WAK</text>
<path d="M58965 44784
L59059 45178
L59134 44896
L59209 45178
L59303 44784
" />
<path d="M59434 45065
L59621 45065
" />
<path d="M59396 45178
L59528 44784
L59659 45178
" />
<path d="M59790 45178
L59790 44784
" />
<path d="M60015 45178
L59846 44953
" />
<path d="M60015 44784
L59790 45009
" />
<text x="59500" y="46196.9"
textLength="976.659" font-size="524.934" lengthAdjust="spacingAndGlyphs"
text-anchor="middle" opacity="0">INT</text>
<path d="M59143 46178
L59143 45784
" />
<path d="M59331 46178
L59331 45784
L59556 46178
L59556 45784
" />
<path d="M59687 45784
L59912 45784
" />
<path d="M59799 46178
L59799 45784
" />
<text x="59500" y="47196.9"
textLength="1145.39" font-size="524.934" lengthAdjust="spacingAndGlyphs"
text-anchor="middle" opacity="0">RST</text>
<path d="M59284 47178
L59153 46990
" />
<path d="M59059 47178
L59059 46784
L59209 46784
L59246 46803
L59265 46821
L59284 46859
L59284 46915
L59265 46953
L59246 46971
L59209 46990
L59059 46990
" />
<path d="M59434 47159
L59490 47178
L59584 47178
L59621 47159
L59640 47140
L59659 47103
L59659 47065
L59640 47028
L59621 47009
L59584 46990
L59509 46971
L59471 46953
L59453 46934
L59434 46896
L59434 46859
L59453 46821
L59471 46803
L59509 46784
L59603 46784
L59659 46803
" />
<path d="M59771 46784
L59996 46784
" />
<path d="M59884 47178
L59884 46784
" />
<text x="59500" y="48196.9"
textLength="1201.63" font-size="524.934" lengthAdjust="spacingAndGlyphs"
text-anchor="middle" opacity="0">ADD</text>
<path d="M59012 48065
L59200 48065
" />
<path d="M58975 48178
L59106 47784
L59237 48178
" />
<path d="M59368 48178
L59368 47784
L59462 47784
L59518 47803
L59556 47840
L59574 47878
L59593 47953
L59593 48009
L59574 48084
L59556 48121
L59518 48159
L59462 48178
L59368 48178
" />
<path d="M59762 48178
L59762 47784
L59856 47784
L59912 47803
L59949 47840
L59968 47878
L59987 47953
L59987 48009
L59968 48084
L59949 48121
L59912 48159
L59856 48178
L59762 48178
" />
<g transform="rotate(-90 63673.2 43000)">
<text x="63673.2" y="43196.9"
textLength="864.173" font-size="524.934" lengthAdjust="spacingAndGlyphs"
text-anchor="middle" opacity="0">U3</text>
</g>
<path d="M63457 43299
L63776 43299
L63813 43281
L63832 43262
L63851 43224
L63851 43149
L63832 43112
L63813 43093
L63776 43074
L63457 43074
" />
<path d="M63457 42925
L63457 42681
L63607 42812
L63607 42756
L63626 42718
L63645 42700
L63682 42681
L63776 42681
L63813 42700
L63832 42718
L63851 42756
L63851 42868
L63832 42906
L63813 42925
" />
<g transform="rotate(-90 40082.7 32000)">
<text x="40082.7" y="32196.9"
textLength="2701.44" font-size="524.934" lengthAdjust="spacingAndGlyphs"
text-anchor="middle" opacity="0">WS_2812</text>
</g>
<path d="M39867 33256
L40260 33162
L39979 33087
L40260 33012
L39867 32918
" />
<path d="M40242 32787
L40260 32731
L40260 32637
L40242 32599
L40223 32581
L40185 32562
L40148 32562
L40110 32581
L40092 32599
L40073 32637
L40054 32712
L40035 32749
L40017 32768
L39979 32787
L39942 32787
L39904 32768
L39885 32749
L39867 32712
L39867 32618
L39885 32562
" />
<path d="M40298 32487
L40298 32187
" />
<path d="M39904 32112
L39885 32093
L39867 32056
L39867 31962
L39885 31925
L39904 31906
L39942 31887
L39979 31887
L40035 31906
L40260 32131
L40260 31887
" />
<path d="M40035 31662
L40017 31700
L39998 31718
L39960 31737
L39942 31737
L39904 31718
L39885 31700
L39867 31662
L39867 31587
L39885 31550
L39904 31531
L39942 31512
L39960 31512
L39998 31531
L40017 31550
L40035 31587
L40035 31662
L40054 31700
L40073 31718
L40110 31737
L40185 31737
L40223 31718
L40242 31700
L40260 31662
L40260 31587
L40242 31550
L40223 31531
L40185 31512
L40110 31512
L40073 31531
L40054 31550
L40035 31587
" />
<path d="M40260 31137
L40260 31362
" />
<path d="M40260 31250
L39867 31250
L39923 31287
L39960 31325
L39979 31362
" />
<path d="M39904 30987
L39885 30968
L39867 30931
L39867 30837
L39885 30800
L39904 30781
L39942 30762
L39979 30762
L40035 30781
L40260 31006
L40260 30762
" />
<g >
</g>
</g>
<g style="fill:#000000; fill-opacity:0.0; 
stroke:#000000; stroke-width:59.0551; stroke-opacity:1; 
stroke-linecap:round; stroke-linejoin:round;">
</g>
<g style="fill:#C2C200; fill-opacity:0.0; 
stroke:#C2C200; stroke-width:59.0551; stroke-opacity:1; 
stroke-linecap:round; stroke-linejoin:round;">
</g>
<g style="fill:#C2C200; fill-opacity:0.0; 
stroke:#C2C200; stroke-width:39.3701; stroke-opacity:1; 
stroke-linecap:round; stroke-linejoin:round;">
<path d="M77500 14000
L77500 53000
" />
<path d="M38500 14000
L77500 14000
" />
<path d="M38500 53000
L38500 14000
" />
<path d="M77500 53000
L38500 53000
" />
<g >
</g>
<g >
</g>
<g >
</g>
<g >
</g>
<g >
</g>
<g >
</g>
<g >
</g>
<g >
</g>
</g> 
</svg>
